﻿Log file open, 03/13/21 20:39:45
LogInit: LLM is enabled
LogInit: LLM CsvWriter: off TraceWriter: off
LogInit: Display: Running engine for game: RaceGame
LogPlatformFile: Not using cached read wrapper
LogTaskGraph: Started task graph with 5 named threads and 35 total threads with 3 sets of task threads.
LogStats: Stats thread started at 0.204574
LogD3D11RHI: Loaded GFSDK_Aftermath_Lib.x64.dll
LogICUInternationalization: ICU TimeZone Detection - Raw Offset: +3:00, Platform Override: ''
LogPluginManager: Mounting plugin MeshPainting
LogPluginManager: Mounting plugin XGEController
LogPluginManager: Mounting plugin Paper2D
LogPluginManager: Mounting plugin EnvironmentQueryEditor
LogPluginManager: Mounting plugin AISupport
LogPluginManager: Mounting plugin AssetManagerEditor
LogPluginManager: Mounting plugin LightPropagationVolume
LogPluginManager: Mounting plugin CryptoKeys
LogPluginManager: Mounting plugin CurveEditorTools
LogPluginManager: Mounting plugin DataValidation
LogPluginManager: Mounting plugin FacialAnimation
LogPluginManager: Mounting plugin GeometryMode
LogPluginManager: Mounting plugin GameplayTagsEditor
LogPluginManager: Mounting plugin MacGraphicsSwitching
LogPluginManager: Mounting plugin MaterialAnalyzer
LogPluginManager: Mounting plugin PluginBrowser
LogPluginManager: Mounting plugin MobileLauncherProfileWizard
LogPluginManager: Mounting plugin AlembicImporter
LogPluginManager: Mounting plugin BackChannel
LogPluginManager: Mounting plugin AutomationUtils
LogPluginManager: Mounting plugin ChaosCloth
LogPluginManager: Mounting plugin ChaosClothEditor
LogPluginManager: Mounting plugin ChaosEditor
LogPluginManager: Mounting plugin ChaosSolverPlugin
LogPluginManager: Mounting plugin CharacterAI
LogPluginManager: Mounting plugin GeometryCache
LogPluginManager: Mounting plugin GeometryCollectionPlugin
LogPluginManager: Mounting plugin GeometryProcessing
LogPluginManager: Mounting plugin CLionSourceCodeAccess
LogPluginManager: Mounting plugin AnimationSharing
LogPluginManager: Mounting plugin SpeedTreeImporter
LogPluginManager: Mounting plugin CodeLiteSourceCodeAccess
LogPluginManager: Mounting plugin KDevelopSourceCodeAccess
LogPluginManager: Mounting plugin PerforceSourceControl
LogPluginManager: Mounting plugin GitSourceControl
LogPluginManager: Mounting plugin PlasticSourceControl
LogPluginManager: Mounting plugin PropertyAccessNode
LogPluginManager: Mounting plugin PluginUtils
LogPluginManager: Mounting plugin RiderSourceCodeAccess
LogPluginManager: Mounting plugin SubversionSourceControl
LogPluginManager: Mounting plugin DatasmithContent
LogPluginManager: Mounting plugin UObjectPlugin
LogPluginManager: Mounting plugin VisualStudioCodeSourceCodeAccess
LogPluginManager: Mounting plugin LuminPlatformFeatures
LogPluginManager: Mounting plugin XCodeSourceCodeAccess
LogPluginManager: Mounting plugin VisualStudioSourceCodeAccess
LogPluginManager: Mounting plugin MagicLeap
LogPluginManager: Mounting plugin Niagara
LogPluginManager: Mounting plugin VariantManagerContent
LogPluginManager: Mounting plugin MagicLeapLightEstimation
LogPluginManager: Mounting plugin MotoSynth
LogPluginManager: Mounting plugin MagicLeapMedia
LogPluginManager: Mounting plugin PlatformCrypto
LogPluginManager: Mounting plugin PlanarCut
LogPluginManager: Mounting plugin NullSourceCodeAccess
LogPluginManager: Mounting plugin MLSDK
LogPluginManager: Mounting plugin ProxyLODPlugin
LogPluginManager: Mounting plugin ChaosNiagara
LogPluginManager: Mounting plugin SkeletalReduction
LogPluginManager: Mounting plugin TcpMessaging
LogPluginManager: Mounting plugin UdpMessaging
LogPluginManager: Mounting plugin ActorSequence
LogPluginManager: Mounting plugin LevelSequenceEditor
LogPluginManager: Mounting plugin MatineeToLevelSequence
LogPluginManager: Mounting plugin TemplateSequence
LogPluginManager: Mounting plugin OnlineSubsystem
LogPluginManager: Mounting plugin OnlineSubsystemNull
LogPluginManager: Mounting plugin OnlineSubsystemUtils
LogPluginManager: Mounting plugin AndroidMedia
LogPluginManager: Mounting plugin LauncherChunkInstaller
LogPluginManager: Mounting plugin AvfMedia
LogPluginManager: Mounting plugin ActorLayerUtilities
LogPluginManager: Mounting plugin ImgMedia
LogPluginManager: Mounting plugin MediaCompositing
LogPluginManager: Mounting plugin AndroidMoviePlayer
LogPluginManager: Mounting plugin AndroidDeviceProfileSelector
LogPluginManager: Mounting plugin AndroidPermission
LogPluginManager: Mounting plugin MediaPlayerEditor
LogPluginManager: Mounting plugin WebMMedia
LogPluginManager: Mounting plugin WmfMedia
LogPluginManager: Mounting plugin AppleImageUtils
LogPluginManager: Mounting plugin AppleMoviePlayer
LogPluginManager: Mounting plugin AssetTags
LogPluginManager: Mounting plugin AudioCapture
LogPluginManager: Mounting plugin CableComponent
LogPluginManager: Mounting plugin AudioSynesthesia
LogPluginManager: Mounting plugin ArchVisCharacter
LogPluginManager: Mounting plugin ChunkDownloader
LogPluginManager: Mounting plugin CustomMeshComponent
LogPluginManager: Mounting plugin ExampleDeviceProfileSelector
LogPluginManager: Mounting plugin EditableMesh
LogPluginManager: Mounting plugin GoogleCloudMessaging
LogPluginManager: Mounting plugin GooglePAD
LogPluginManager: Mounting plugin IOSDeviceProfileSelector
LogPluginManager: Mounting plugin LinuxDeviceProfileSelector
LogPluginManager: Mounting plugin LocationServicesBPLibrary
LogPluginManager: Mounting plugin MobilePatchingUtils
LogPluginManager: Mounting plugin ScreenshotTools
LogPluginManager: Mounting plugin PhysXVehicles
LogPluginManager: Mounting plugin PostSplashScreen
LogPluginManager: Mounting plugin MagicLeapPassableWorld
LogPluginManager: Mounting plugin ProceduralMeshComponent
LogPluginManager: Mounting plugin PropertyAccessEditor
LogPluginManager: Mounting plugin RuntimePhysXCooking
LogPluginManager: Mounting plugin SignificanceManager
LogPluginManager: Mounting plugin SoundFields
LogPluginManager: Mounting plugin Synthesis
LogPluginManager: Mounting plugin WebMMoviePlayer
LogPluginManager: Mounting plugin CameraShakePreviewer
LogPluginManager: Mounting plugin WindowsMoviePlayer
LogPluginManager: Mounting plugin ContentBrowserAssetDataSource
LogPluginManager: Mounting plugin ContentBrowserClassDataSource
LogPluginManager: Mounting plugin OnlineSubsystemGooglePlay
LogPluginManager: Mounting plugin OnlineSubsystemIOS
LogPluginManager: Mounting plugin OculusVR
LogPluginManager: Mounting plugin SteamVR
LogXGEController: Cannot use XGE Controller as Incredibuild is not installed on this machine.
LogInit: Using libcurl 7.55.1-DEV
LogInit:  - built for x86_64-pc-win32
LogInit:  - supports SSL with OpenSSL/1.1.1
LogInit:  - supports HTTP deflate (compression) using libz 1.2.8
LogInit:  - other features:
LogInit:      CURL_VERSION_SSL
LogInit:      CURL_VERSION_LIBZ
LogInit:      CURL_VERSION_IPV6
LogInit:      CURL_VERSION_ASYNCHDNS
LogInit:      CURL_VERSION_LARGEFILE
LogInit:      CURL_VERSION_IDN
LogInit:  CurlRequestOptions (configurable via config and command line):
LogInit:  - bVerifyPeer = true  - Libcurl will verify peer certificate
LogInit:  - bUseHttpProxy = false  - Libcurl will NOT use HTTP proxy
LogInit:  - bDontReuseConnections = false  - Libcurl will reuse connections
LogInit:  - MaxHostConnections = 16  - Libcurl will limit the number of connections to a host
LogInit:  - LocalHostAddr = Default
LogInit:  - BufferSize = 65536
LogOnline: OSS: Creating online subsystem instance for: NULL
LogInit: WinSock: version 1.1 (2.2), MaxSocks=32767, MaxUdp=65467
LogOnline: OSS: TryLoadSubsystemAndSetDefault: Loaded subsystem for module [NULL]
LogInit: Build: ++UE4+Release-4.26-CL-15228867
LogInit: Engine Version: 4.26.1-15228867+++UE4+Release-4.26
LogInit: Compatible Engine Version: 4.26.0-14830424+++UE4+Release-4.26
LogInit: Net CL: 14830424
LogInit: OS: Windows 10 (Release 1909) (), CPU: AMD Ryzen 5 3600 6-Core Processor              , GPU: NVIDIA GeForce GTX 1070
LogInit: Compiled (64-bit): Jan 28 2021 07:07:34
LogInit: Compiled with Visual C++: 19.24.28315.00
LogInit: Build Configuration: Development
LogInit: Branch Name: ++UE4+Release-4.26
LogInit: Command Line:  /Game/StarterContent/Blueprints/Maps/Level2 -game -PIEVIACONSOLE -Multiprocess GameUserSettingsINI=F:/Project/RaceGame/RaceGame/Saved/Config/Windows/PIEGameUserSettings0.ini -MultiprocessSaveConfig -MultiprocessOSS -messaging -SessionName="Play in Standalone Game" -windowed -ResX=1280 -ResY=720
LogInit: Base Directory: F:/Unreal/UE_4.26/Engine/Binaries/Win64/
LogInit: Allocator: TBB
LogInit: Installed Engine Build: 1
LogDevObjectVersion: Number of dev versions registered: 29
LogDevObjectVersion:   Dev-Blueprints (B0D832E4-1F89-4F0D-ACCF-7EB736FD4AA2): 10
LogDevObjectVersion:   Dev-Build (E1C64328-A22C-4D53-A36C-8E866417BD8C): 0
LogDevObjectVersion:   Dev-Core (375EC13C-06E4-48FB-B500-84F0262A717E): 4
LogDevObjectVersion:   Dev-Editor (E4B068ED-F494-42E9-A231-DA0B2E46BB41): 40
LogDevObjectVersion:   Dev-Framework (CFFC743F-43B0-4480-9391-14DF171D2073): 37
LogDevObjectVersion:   Dev-Mobile (B02B49B5-BB20-44E9-A304-32B752E40360): 3
LogDevObjectVersion:   Dev-Networking (A4E4105C-59A1-49B5-A7C5-40C4547EDFEE): 0
LogDevObjectVersion:   Dev-Online (39C831C9-5AE6-47DC-9A44-9C173E1C8E7C): 0
LogDevObjectVersion:   Dev-Physics (78F01B33-EBEA-4F98-B9B4-84EACCB95AA2): 4
LogDevObjectVersion:   Dev-Platform (6631380F-2D4D-43E0-8009-CF276956A95A): 0
LogDevObjectVersion:   Dev-Rendering (12F88B9F-8875-4AFC-A67C-D90C383ABD29): 44
LogDevObjectVersion:   Dev-Sequencer (7B5AE74C-D270-4C10-A958-57980B212A5A): 12
LogDevObjectVersion:   Dev-VR (D7296918-1DD6-4BDD-9DE2-64A83CC13884): 3
LogDevObjectVersion:   Dev-LoadTimes (C2A15278-BFE7-4AFE-6C17-90FF531DF755): 1
LogDevObjectVersion:   Private-Geometry (6EACA3D4-40EC-4CC1-B786-8BED09428FC5): 3
LogDevObjectVersion:   Dev-AnimPhys (29E575DD-E0A3-4627-9D10-D276232CDCEA): 17
LogDevObjectVersion:   Dev-Anim (AF43A65D-7FD3-4947-9873-3E8ED9C1BB05): 15
LogDevObjectVersion:   Dev-ReflectionCapture (6B266CEC-1EC7-4B8F-A30B-E4D90942FC07): 1
LogDevObjectVersion:   Dev-Automation (0DF73D61-A23F-47EA-B727-89E90C41499A): 1
LogDevObjectVersion:   FortniteMain (601D1886-AC64-4F84-AA16-D3DE0DEAC7D6): 43
LogDevObjectVersion:   FortniteRelease (E7086368-6B23-4C58-8439-1B7016265E91): 1
LogDevObjectVersion:   Dev-Enterprise (9DFFBCD6-494F-0158-E221-12823C92A888): 10
LogDevObjectVersion:   Dev-Niagara (F2AED0AC-9AFE-416F-8664-AA7FFA26D6FC): 1
LogDevObjectVersion:   Dev-Destruction (174F1F0B-B4C6-45A5-B13F-2EE8D0FB917D): 10
LogDevObjectVersion:   Dev-Physics-Ext (35F94A83-E258-406C-A318-09F59610247C): 40
LogDevObjectVersion:   Dev-PhysicsMaterial-Chaos (B68FC16E-8B1B-42E2-B453-215C058844FE): 1
LogDevObjectVersion:   Dev-CineCamera (B2E18506-4273-CFC2-A54E-F4BB758BBA07): 1
LogDevObjectVersion:   Dev-VirtualProduction (64F58936-FD1B-42BA-BA96-7289D5D0FA4E): 1
LogDevObjectVersion:   Dev-MediaFramework (6F0ED827-A609-4895-9C91-998D90180EA4): 2
LogInit: Presizing for max 25165824 objects, including 0 objects not considered by GC, pre-allocating 0 bytes for permanent pool.
LogConfig: Applying CVar settings from Section [/Script/Engine.StreamingSettings] File [F:/Project/RaceGame/RaceGame/Saved/Config/Windows/Engine.ini]
LogConfig: Setting CVar [[s.MinBulkDataSizeForAsyncLoading:131072]]
LogConfig: Setting CVar [[s.AsyncLoadingThreadEnabled:0]]
LogConfig: Setting CVar [[s.EventDrivenLoaderEnabled:1]]
LogConfig: Setting CVar [[s.WarnIfTimeLimitExceeded:0]]
LogConfig: Setting CVar [[s.TimeLimitExceededMultiplier:1.5]]
LogConfig: Setting CVar [[s.TimeLimitExceededMinTime:0.005]]
LogConfig: Setting CVar [[s.UseBackgroundLevelStreaming:1]]
LogConfig: Setting CVar [[s.PriorityAsyncLoadingExtraTime:15.0]]
LogConfig: Setting CVar [[s.LevelStreamingActorsUpdateTimeLimit:5.0]]
LogConfig: Setting CVar [[s.PriorityLevelStreamingActorsUpdateExtraTime:5.0]]
LogConfig: Setting CVar [[s.LevelStreamingComponentsRegistrationGranularity:10]]
LogConfig: Setting CVar [[s.UnregisterComponentsTimeLimit:1.0]]
LogConfig: Setting CVar [[s.LevelStreamingComponentsUnregistrationGranularity:5]]
LogConfig: Setting CVar [[s.FlushStreamingOnExit:1]]
LogInit: Object subsystem initialized
LogConfig: Setting CVar [[con.DebugEarlyDefault:1]]
LogConfig: Setting CVar [[r.setres:1280x720]]
[2021.03.13-17.39.45:975][  0]LogConfig: Setting CVar [[con.DebugEarlyDefault:1]]
[2021.03.13-17.39.45:975][  0]LogConfig: Setting CVar [[r.setres:1280x720]]
[2021.03.13-17.39.45:975][  0]LogConfig: Applying CVar settings from Section [/Script/Engine.RendererSettings] File [F:/Project/RaceGame/RaceGame/Saved/Config/Windows/Engine.ini]
[2021.03.13-17.39.45:975][  0]LogConfig: Setting CVar [[r.GPUCrashDebugging:0]]
[2021.03.13-17.39.45:975][  0]LogConfig: Setting CVar [[r.DefaultFeature.MotionBlur:0]]
[2021.03.13-17.39.45:975][  0]LogConfig: Applying CVar settings from Section [/Script/Engine.RendererOverrideSettings] File [F:/Project/RaceGame/RaceGame/Saved/Config/Windows/Engine.ini]
[2021.03.13-17.39.45:975][  0]LogConfig: Applying CVar settings from Section [/Script/Engine.StreamingSettings] File [F:/Project/RaceGame/RaceGame/Saved/Config/Windows/Engine.ini]
[2021.03.13-17.39.45:975][  0]LogConfig: Setting CVar [[s.MinBulkDataSizeForAsyncLoading:131072]]
[2021.03.13-17.39.45:975][  0]LogConfig: Setting CVar [[s.AsyncLoadingThreadEnabled:0]]
[2021.03.13-17.39.45:975][  0]LogConfig: Setting CVar [[s.EventDrivenLoaderEnabled:1]]
[2021.03.13-17.39.45:975][  0]LogConfig: Setting CVar [[s.WarnIfTimeLimitExceeded:0]]
[2021.03.13-17.39.45:975][  0]LogConfig: Setting CVar [[s.TimeLimitExceededMultiplier:1.5]]
[2021.03.13-17.39.45:975][  0]LogConfig: Setting CVar [[s.TimeLimitExceededMinTime:0.005]]
[2021.03.13-17.39.45:975][  0]LogConfig: Setting CVar [[s.UseBackgroundLevelStreaming:1]]
[2021.03.13-17.39.45:975][  0]LogConfig: Setting CVar [[s.PriorityAsyncLoadingExtraTime:15.0]]
[2021.03.13-17.39.45:975][  0]LogConfig: Setting CVar [[s.LevelStreamingActorsUpdateTimeLimit:5.0]]
[2021.03.13-17.39.45:975][  0]LogConfig: Setting CVar [[s.PriorityLevelStreamingActorsUpdateExtraTime:5.0]]
[2021.03.13-17.39.45:975][  0]LogConfig: Setting CVar [[s.LevelStreamingComponentsRegistrationGranularity:10]]
[2021.03.13-17.39.45:975][  0]LogConfig: Setting CVar [[s.UnregisterComponentsTimeLimit:1.0]]
[2021.03.13-17.39.45:976][  0]LogConfig: Setting CVar [[s.LevelStreamingComponentsUnregistrationGranularity:5]]
[2021.03.13-17.39.45:976][  0]LogConfig: Setting CVar [[s.FlushStreamingOnExit:1]]
[2021.03.13-17.39.45:976][  0]LogConfig: Applying CVar settings from Section [/Script/Engine.GarbageCollectionSettings] File [F:/Project/RaceGame/RaceGame/Saved/Config/Windows/Engine.ini]
[2021.03.13-17.39.45:976][  0]LogConfig: Setting CVar [[gc.MaxObjectsNotConsideredByGC:1]]
[2021.03.13-17.39.45:976][  0]LogConfig: Setting CVar [[gc.SizeOfPermanentObjectPool:0]]
[2021.03.13-17.39.45:976][  0]LogConfig: Setting CVar [[gc.FlushStreamingOnGC:0]]
[2021.03.13-17.39.45:976][  0]LogConfig: Setting CVar [[gc.NumRetriesBeforeForcingGC:10]]
[2021.03.13-17.39.45:976][  0]LogConfig: Setting CVar [[gc.AllowParallelGC:1]]
[2021.03.13-17.39.45:976][  0]LogConfig: Setting CVar [[gc.TimeBetweenPurgingPendingKillObjects:61.1]]
[2021.03.13-17.39.45:976][  0]LogConfig: Setting CVar [[gc.MaxObjectsInEditor:25165824]]
[2021.03.13-17.39.45:976][  0]LogConfig: Setting CVar [[gc.IncrementalBeginDestroyEnabled:1]]
[2021.03.13-17.39.45:976][  0]LogConfig: Setting CVar [[gc.CreateGCClusters:1]]
[2021.03.13-17.39.45:976][  0]LogConfig: Setting CVar [[gc.MinGCClusterSize:5]]
[2021.03.13-17.39.45:976][  0]LogConfig: Setting CVar [[gc.ActorClusteringEnabled:0]]
[2021.03.13-17.39.45:976][  0]LogConfig: Setting CVar [[gc.BlueprintClusteringEnabled:0]]
[2021.03.13-17.39.45:976][  0]LogConfig: Setting CVar [[gc.UseDisregardForGCOnDedicatedServers:0]]
[2021.03.13-17.39.45:976][  0]LogConfig: Setting CVar [[gc.MultithreadedDestructionEnabled:1]]
[2021.03.13-17.39.45:976][  0]LogConfig: Applying CVar settings from Section [/Script/Engine.NetworkSettings] File [F:/Project/RaceGame/RaceGame/Saved/Config/Windows/Engine.ini]
[2021.03.13-17.39.45:976][  0]LogConfig: Applying CVar settings from Section [/Script/UnrealEd.CookerSettings] File [F:/Project/RaceGame/RaceGame/Saved/Config/Windows/Engine.ini]
[2021.03.13-17.39.45:981][  0]LogConfig: Applying CVar settings from Section [ViewDistanceQuality@3] File [F:/Project/RaceGame/RaceGame/Saved/Config/Windows/Scalability.ini]
[2021.03.13-17.39.45:981][  0]LogConfig: Setting CVar [[r.SkeletalMeshLODBias:0]]
[2021.03.13-17.39.45:981][  0]LogConfig: Setting CVar [[r.ViewDistanceScale:1.0]]
[2021.03.13-17.39.45:981][  0]LogConfig: Applying CVar settings from Section [AntiAliasingQuality@3] File [F:/Project/RaceGame/RaceGame/Saved/Config/Windows/Scalability.ini]
[2021.03.13-17.39.45:981][  0]LogConfig: Setting CVar [[r.PostProcessAAQuality:4]]
[2021.03.13-17.39.45:981][  0]LogConfig: Applying CVar settings from Section [ShadowQuality@3] File [F:/Project/RaceGame/RaceGame/Saved/Config/Windows/Scalability.ini]
[2021.03.13-17.39.45:981][  0]LogConfig: Setting CVar [[r.LightFunctionQuality:1]]
[2021.03.13-17.39.45:981][  0]LogConfig: Setting CVar [[r.ShadowQuality:5]]
[2021.03.13-17.39.45:981][  0]LogConfig: Setting CVar [[r.Shadow.CSM.MaxCascades:10]]
[2021.03.13-17.39.45:981][  0]LogConfig: Setting CVar [[r.Shadow.MaxResolution:2048]]
[2021.03.13-17.39.45:981][  0]LogConfig: Setting CVar [[r.Shadow.MaxCSMResolution:2048]]
[2021.03.13-17.39.45:981][  0]LogConfig: Setting CVar [[r.Shadow.RadiusThreshold:0.01]]
[2021.03.13-17.39.45:981][  0]LogConfig: Setting CVar [[r.Shadow.DistanceScale:1.0]]
[2021.03.13-17.39.45:981][  0]LogConfig: Setting CVar [[r.Shadow.CSM.TransitionScale:1.0]]
[2021.03.13-17.39.45:981][  0]LogConfig: Setting CVar [[r.Shadow.PreShadowResolutionFactor:1.0]]
[2021.03.13-17.39.45:981][  0]LogConfig: Setting CVar [[r.DistanceFieldShadowing:1]]
[2021.03.13-17.39.45:981][  0]LogConfig: Setting CVar [[r.DistanceFieldAO:1]]
[2021.03.13-17.39.45:981][  0]LogConfig: Setting CVar [[r.AOQuality:2]]
[2021.03.13-17.39.45:981][  0]LogConfig: Setting CVar [[r.VolumetricFog:1]]
[2021.03.13-17.39.45:981][  0]LogConfig: Setting CVar [[r.VolumetricFog.GridPixelSize:8]]
[2021.03.13-17.39.45:981][  0]LogConfig: Setting CVar [[r.VolumetricFog.GridSizeZ:128]]
[2021.03.13-17.39.45:981][  0]LogConfig: Setting CVar [[r.VolumetricFog.HistoryMissSupersampleCount:4]]
[2021.03.13-17.39.45:981][  0]LogConfig: Setting CVar [[r.LightMaxDrawDistanceScale:1]]
[2021.03.13-17.39.45:981][  0]LogConfig: Setting CVar [[r.CapsuleShadows:1]]
[2021.03.13-17.39.45:981][  0]LogConfig: Applying CVar settings from Section [PostProcessQuality@3] File [F:/Project/RaceGame/RaceGame/Saved/Config/Windows/Scalability.ini]
[2021.03.13-17.39.45:981][  0]LogConfig: Setting CVar [[r.MotionBlurQuality:4]]
[2021.03.13-17.39.45:981][  0]LogConfig: Setting CVar [[r.AmbientOcclusionMipLevelFactor:0.4]]
[2021.03.13-17.39.45:981][  0]LogConfig: Setting CVar [[r.AmbientOcclusionMaxQuality:100]]
[2021.03.13-17.39.45:981][  0]LogConfig: Setting CVar [[r.AmbientOcclusionLevels:-1]]
[2021.03.13-17.39.45:981][  0]LogConfig: Setting CVar [[r.AmbientOcclusionRadiusScale:1.0]]
[2021.03.13-17.39.45:981][  0]LogConfig: Setting CVar [[r.DepthOfFieldQuality:2]]
[2021.03.13-17.39.45:981][  0]LogConfig: Setting CVar [[r.RenderTargetPoolMin:400]]
[2021.03.13-17.39.45:981][  0]LogConfig: Setting CVar [[r.LensFlareQuality:2]]
[2021.03.13-17.39.45:981][  0]LogConfig: Setting CVar [[r.SceneColorFringeQuality:1]]
[2021.03.13-17.39.45:981][  0]LogConfig: Setting CVar [[r.EyeAdaptationQuality:2]]
[2021.03.13-17.39.45:981][  0]LogConfig: Setting CVar [[r.BloomQuality:5]]
[2021.03.13-17.39.45:981][  0]LogConfig: Setting CVar [[r.FastBlurThreshold:100]]
[2021.03.13-17.39.45:981][  0]LogConfig: Setting CVar [[r.Upscale.Quality:3]]
[2021.03.13-17.39.45:981][  0]LogConfig: Setting CVar [[r.Tonemapper.GrainQuantization:1]]
[2021.03.13-17.39.45:981][  0]LogConfig: Setting CVar [[r.LightShaftQuality:1]]
[2021.03.13-17.39.45:981][  0]LogConfig: Setting CVar [[r.Filter.SizeScale:1]]
[2021.03.13-17.39.45:981][  0]LogConfig: Setting CVar [[r.Tonemapper.Quality:5]]
[2021.03.13-17.39.45:981][  0]LogConfig: Setting CVar [[r.DOF.Gather.AccumulatorQuality:1        ; higher gathering accumulator quality]]
[2021.03.13-17.39.45:981][  0]LogConfig: Setting CVar [[r.DOF.Gather.PostfilterMethod:1          ; Median3x3 postfilering method]]
[2021.03.13-17.39.45:981][  0]LogConfig: Setting CVar [[r.DOF.Gather.EnableBokehSettings:0       ; no bokeh simulation when gathering]]
[2021.03.13-17.39.45:981][  0]LogConfig: Setting CVar [[r.DOF.Gather.RingCount:4                 ; medium number of samples when gathering]]
[2021.03.13-17.39.45:981][  0]LogConfig: Setting CVar [[r.DOF.Scatter.ForegroundCompositing:1    ; additive foreground scattering]]
[2021.03.13-17.39.45:981][  0]LogConfig: Setting CVar [[r.DOF.Scatter.BackgroundCompositing:2    ; additive background scattering]]
[2021.03.13-17.39.45:981][  0]LogConfig: Setting CVar [[r.DOF.Scatter.EnableBokehSettings:1      ; bokeh simulation when scattering]]
[2021.03.13-17.39.45:981][  0]LogConfig: Setting CVar [[r.DOF.Scatter.MaxSpriteRatio:0.1         ; only a maximum of 10% of scattered bokeh]]
[2021.03.13-17.39.45:981][  0]LogConfig: Setting CVar [[r.DOF.Recombine.Quality:1                ; cheap slight out of focus]]
[2021.03.13-17.39.45:981][  0]LogConfig: Setting CVar [[r.DOF.Recombine.EnableBokehSettings:0    ; no bokeh simulation on slight out of focus]]
[2021.03.13-17.39.45:981][  0]LogConfig: Setting CVar [[r.DOF.TemporalAAQuality:1                ; more stable temporal accumulation]]
[2021.03.13-17.39.45:981][  0]LogConfig: Setting CVar [[r.DOF.Kernel.MaxForegroundRadius:0.025]]
[2021.03.13-17.39.45:981][  0]LogConfig: Setting CVar [[r.DOF.Kernel.MaxBackgroundRadius:0.025]]
[2021.03.13-17.39.45:981][  0]LogConfig: Applying CVar settings from Section [TextureQuality@3] File [F:/Project/RaceGame/RaceGame/Saved/Config/Windows/Scalability.ini]
[2021.03.13-17.39.45:981][  0]LogConfig: Setting CVar [[r.Streaming.MipBias:0]]
[2021.03.13-17.39.45:981][  0]LogConfig: Setting CVar [[r.Streaming.AmortizeCPUToGPUCopy:0]]
[2021.03.13-17.39.45:981][  0]LogConfig: Setting CVar [[r.Streaming.MaxNumTexturesToStreamPerFrame:0]]
[2021.03.13-17.39.45:981][  0]LogConfig: Setting CVar [[r.Streaming.Boost:1]]
[2021.03.13-17.39.45:981][  0]LogConfig: Setting CVar [[r.MaxAnisotropy:8]]
[2021.03.13-17.39.45:981][  0]LogConfig: Setting CVar [[r.VT.MaxAnisotropy:8]]
[2021.03.13-17.39.45:981][  0]LogConfig: Setting CVar [[r.Streaming.LimitPoolSizeToVRAM:0]]
[2021.03.13-17.39.45:981][  0]LogConfig: Setting CVar [[r.Streaming.PoolSize:1000]]
[2021.03.13-17.39.45:981][  0]LogConfig: Setting CVar [[r.Streaming.MaxEffectiveScreenSize:0]]
[2021.03.13-17.39.45:981][  0]LogConfig: Applying CVar settings from Section [EffectsQuality@3] File [F:/Project/RaceGame/RaceGame/Saved/Config/Windows/Scalability.ini]
[2021.03.13-17.39.45:981][  0]LogConfig: Setting CVar [[r.TranslucencyLightingVolumeDim:64]]
[2021.03.13-17.39.45:981][  0]LogConfig: Setting CVar [[r.RefractionQuality:2]]
[2021.03.13-17.39.45:981][  0]LogConfig: Setting CVar [[r.SSR.Quality:3]]
[2021.03.13-17.39.45:981][  0]LogConfig: Setting CVar [[r.SSR.HalfResSceneColor:0]]
[2021.03.13-17.39.45:981][  0]LogConfig: Setting CVar [[r.SceneColorFormat:4]]
[2021.03.13-17.39.45:981][  0]LogConfig: Setting CVar [[r.DetailMode:2]]
[2021.03.13-17.39.45:981][  0]LogConfig: Setting CVar [[r.TranslucencyVolumeBlur:1]]
[2021.03.13-17.39.45:981][  0]LogConfig: Setting CVar [[r.MaterialQualityLevel:1 ; High quality]]
[2021.03.13-17.39.45:981][  0]LogConfig: Setting CVar [[r.AnisotropicMaterials:1]]
[2021.03.13-17.39.45:981][  0]LogConfig: Setting CVar [[r.SSS.Scale:1]]
[2021.03.13-17.39.45:981][  0]LogConfig: Setting CVar [[r.SSS.SampleSet:2]]
[2021.03.13-17.39.45:981][  0]LogConfig: Setting CVar [[r.SSS.Quality:1]]
[2021.03.13-17.39.45:981][  0]LogConfig: Setting CVar [[r.SSS.HalfRes:0]]
[2021.03.13-17.39.45:981][  0]LogConfig: Setting CVar [[r.SSGI.Quality:3]]
[2021.03.13-17.39.45:982][  0]LogConfig: Setting CVar [[r.EmitterSpawnRateScale:1.0]]
[2021.03.13-17.39.45:982][  0]LogConfig: Setting CVar [[r.ParticleLightQuality:2]]
[2021.03.13-17.39.45:982][  0]LogConfig: Setting CVar [[r.SkyAtmosphere.AerialPerspectiveLUT.FastApplyOnOpaque:1 ; Always have FastSkyLUT 1 in this case to avoid wrong sky]]
[2021.03.13-17.39.45:982][  0]LogConfig: Setting CVar [[r.SkyAtmosphere.AerialPerspectiveLUT.SampleCountMaxPerSlice:4]]
[2021.03.13-17.39.45:982][  0]LogConfig: Setting CVar [[r.SkyAtmosphere.AerialPerspectiveLUT.DepthResolution:16.0]]
[2021.03.13-17.39.45:982][  0]LogConfig: Setting CVar [[r.SkyAtmosphere.FastSkyLUT:1]]
[2021.03.13-17.39.45:982][  0]LogConfig: Setting CVar [[r.SkyAtmosphere.FastSkyLUT.SampleCountMin:4.0]]
[2021.03.13-17.39.45:982][  0]LogConfig: Setting CVar [[r.SkyAtmosphere.FastSkyLUT.SampleCountMax:128.0]]
[2021.03.13-17.39.45:982][  0]LogConfig: Setting CVar [[r.SkyAtmosphere.SampleCountMin:4.0]]
[2021.03.13-17.39.45:982][  0]LogConfig: Setting CVar [[r.SkyAtmosphere.SampleCountMax:128.0]]
[2021.03.13-17.39.45:982][  0]LogConfig: Setting CVar [[r.SkyAtmosphere.TransmittanceLUT.UseSmallFormat:0]]
[2021.03.13-17.39.45:982][  0]LogConfig: Setting CVar [[r.SkyAtmosphere.TransmittanceLUT.SampleCount:10.0]]
[2021.03.13-17.39.45:982][  0]LogConfig: Setting CVar [[r.SkyAtmosphere.MultiScatteringLUT.SampleCount:15.0]]
[2021.03.13-17.39.45:982][  0]LogConfig: Applying CVar settings from Section [FoliageQuality@3] File [F:/Project/RaceGame/RaceGame/Saved/Config/Windows/Scalability.ini]
[2021.03.13-17.39.45:982][  0]LogConfig: Setting CVar [[foliage.DensityScale:1.0]]
[2021.03.13-17.39.45:982][  0]LogConfig: Setting CVar [[grass.DensityScale:1.0]]
[2021.03.13-17.39.45:982][  0]LogConfig: Applying CVar settings from Section [ShadingQuality@3] File [F:/Project/RaceGame/RaceGame/Saved/Config/Windows/Scalability.ini]
[2021.03.13-17.39.45:982][  0]LogConfig: Setting CVar [[r.HairStrands.SkyLighting.IntegrationType:2]]
[2021.03.13-17.39.45:982][  0]LogConfig: Setting CVar [[r.HairStrands.SkyAO.SampleCount:4]]
[2021.03.13-17.39.45:982][  0]LogConfig: Setting CVar [[r.HairStrands.Visibility.MSAA.SamplePerPixel:4]]
[2021.03.13-17.39.45:982][  0]LogInit: Selected Device Profile: [Windows]
[2021.03.13-17.39.45:982][  0]LogInit: Applying CVar settings loaded from the selected device profile: [Windows]
[2021.03.13-17.39.45:982][  0]LogHAL: Display: Platform has ~ 16 GB [17106587648 / 17179869184 / 16], which maps to Larger [LargestMinGB=32, LargerMinGB=12, DefaultMinGB=8, SmallerMinGB=6, SmallestMinGB=0)
[2021.03.13-17.39.45:982][  0]LogInit: Going up to parent DeviceProfile []
[2021.03.13-17.39.45:982][  0]LogConfig: Applying CVar settings from Section [ViewDistanceQuality@Cine] File [F:/Project/RaceGame/RaceGame/Saved/Config/Windows/Scalability.ini]
[2021.03.13-17.39.45:982][  0]LogConfig: Setting CVar [[r.SkeletalMeshLODBias:0]]
[2021.03.13-17.39.45:982][  0]LogConfig: Setting CVar [[r.ViewDistanceScale:10.0]]
[2021.03.13-17.39.45:982][  0]LogConfig: Applying CVar settings from Section [AntiAliasingQuality@Cine] File [F:/Project/RaceGame/RaceGame/Saved/Config/Windows/Scalability.ini]
[2021.03.13-17.39.45:982][  0]LogConfig: Setting CVar [[r.PostProcessAAQuality:6]]
[2021.03.13-17.39.45:982][  0]LogConfig: Applying CVar settings from Section [ShadowQuality@Cine] File [F:/Project/RaceGame/RaceGame/Saved/Config/Windows/Scalability.ini]
[2021.03.13-17.39.45:982][  0]LogConfig: Setting CVar [[r.LightFunctionQuality:1]]
[2021.03.13-17.39.45:982][  0]LogConfig: Setting CVar [[r.ShadowQuality:5]]
[2021.03.13-17.39.45:982][  0]LogConfig: Setting CVar [[r.Shadow.CSM.MaxCascades:10]]
[2021.03.13-17.39.45:982][  0]LogConfig: Setting CVar [[r.Shadow.MaxResolution:4096]]
[2021.03.13-17.39.45:982][  0]LogConfig: Setting CVar [[r.Shadow.MaxCSMResolution:4096]]
[2021.03.13-17.39.45:982][  0]LogConfig: Setting CVar [[r.Shadow.RadiusThreshold:0]]
[2021.03.13-17.39.45:982][  0]LogConfig: Setting CVar [[r.Shadow.DistanceScale:1.0]]
[2021.03.13-17.39.45:982][  0]LogConfig: Setting CVar [[r.Shadow.CSM.TransitionScale:1.0]]
[2021.03.13-17.39.45:982][  0]LogConfig: Setting CVar [[r.Shadow.PreShadowResolutionFactor:1.0]]
[2021.03.13-17.39.45:982][  0]LogConfig: Setting CVar [[r.DistanceFieldShadowing:1]]
[2021.03.13-17.39.45:982][  0]LogConfig: Setting CVar [[r.DistanceFieldAO:1]]
[2021.03.13-17.39.45:982][  0]LogConfig: Setting CVar [[r.AOQuality:2]]
[2021.03.13-17.39.45:982][  0]LogConfig: Setting CVar [[r.VolumetricFog:1]]
[2021.03.13-17.39.45:982][  0]LogConfig: Setting CVar [[r.VolumetricFog.GridPixelSize:4]]
[2021.03.13-17.39.45:982][  0]LogConfig: Setting CVar [[r.VolumetricFog.GridSizeZ:128]]
[2021.03.13-17.39.45:982][  0]LogConfig: Setting CVar [[r.VolumetricFog.HistoryMissSupersampleCount:16]]
[2021.03.13-17.39.45:982][  0]LogConfig: Setting CVar [[r.LightMaxDrawDistanceScale:1]]
[2021.03.13-17.39.45:982][  0]LogConfig: Setting CVar [[r.CapsuleShadows:1]]
[2021.03.13-17.39.45:982][  0]LogConfig: Applying CVar settings from Section [PostProcessQuality@Cine] File [F:/Project/RaceGame/RaceGame/Saved/Config/Windows/Scalability.ini]
[2021.03.13-17.39.45:982][  0]LogConfig: Setting CVar [[r.MotionBlurQuality:4]]
[2021.03.13-17.39.45:982][  0]LogConfig: Setting CVar [[r.AmbientOcclusionMipLevelFactor:0.4]]
[2021.03.13-17.39.45:982][  0]LogConfig: Setting CVar [[r.AmbientOcclusionMaxQuality:100]]
[2021.03.13-17.39.45:982][  0]LogConfig: Setting CVar [[r.AmbientOcclusionLevels:-1]]
[2021.03.13-17.39.45:982][  0]LogConfig: Setting CVar [[r.AmbientOcclusionRadiusScale:1.0]]
[2021.03.13-17.39.45:982][  0]LogConfig: Setting CVar [[r.GTAO.Numangles:4]]
[2021.03.13-17.39.45:982][  0]LogConfig: Setting CVar [[r.DepthOfFieldQuality:4]]
[2021.03.13-17.39.45:982][  0]LogConfig: Setting CVar [[r.RenderTargetPoolMin:1000]]
[2021.03.13-17.39.45:982][  0]LogConfig: Setting CVar [[r.LensFlareQuality:3]]
[2021.03.13-17.39.45:982][  0]LogConfig: Setting CVar [[r.SceneColorFringeQuality:1]]
[2021.03.13-17.39.45:982][  0]LogConfig: Setting CVar [[r.EyeAdaptationQuality:2]]
[2021.03.13-17.39.45:982][  0]LogConfig: Setting CVar [[r.BloomQuality:5]]
[2021.03.13-17.39.45:982][  0]LogConfig: Setting CVar [[r.FastBlurThreshold:100]]
[2021.03.13-17.39.45:982][  0]LogConfig: Setting CVar [[r.Upscale.Quality:3]]
[2021.03.13-17.39.45:983][  0]LogConfig: Setting CVar [[r.Tonemapper.GrainQuantization:1]]
[2021.03.13-17.39.45:983][  0]LogConfig: Setting CVar [[r.LightShaftQuality:1]]
[2021.03.13-17.39.45:983][  0]LogConfig: Setting CVar [[r.Filter.SizeScale:1]]
[2021.03.13-17.39.45:983][  0]LogConfig: Setting CVar [[r.Tonemapper.Quality:5]]
[2021.03.13-17.39.45:983][  0]LogConfig: Setting CVar [[r.DOF.Gather.AccumulatorQuality:1        ; higher gathering accumulator quality]]
[2021.03.13-17.39.45:983][  0]LogConfig: Setting CVar [[r.DOF.Gather.PostfilterMethod:1          ; Median3x3 postfilering method]]
[2021.03.13-17.39.45:983][  0]LogConfig: Setting CVar [[r.DOF.Gather.EnableBokehSettings:1       ; bokeh simulation when gathering]]
[2021.03.13-17.39.45:983][  0]LogConfig: Setting CVar [[r.DOF.Gather.RingCount:5                 ; high number of samples when gathering]]
[2021.03.13-17.39.45:983][  0]LogConfig: Setting CVar [[r.DOF.Scatter.ForegroundCompositing:1    ; additive foreground scattering]]
[2021.03.13-17.39.45:983][  0]LogConfig: Setting CVar [[r.DOF.Scatter.BackgroundCompositing:2    ; background scattering occlusion]]
[2021.03.13-17.39.45:983][  0]LogConfig: Setting CVar [[r.DOF.Scatter.EnableBokehSettings:1      ; no bokeh simulation when scattering]]
[2021.03.13-17.39.45:983][  0]LogConfig: Setting CVar [[r.DOF.Scatter.MaxSpriteRatio:0.25        ; only a maximum of 10% of scattered bokeh]]
[2021.03.13-17.39.45:983][  0]LogConfig: Setting CVar [[r.DOF.Recombine.Quality:2                ; highest slight out of focus]]
[2021.03.13-17.39.45:983][  0]LogConfig: Setting CVar [[r.DOF.Recombine.EnableBokehSettings:1    ; bokeh simulation on slight out of focus]]
[2021.03.13-17.39.45:983][  0]LogConfig: Setting CVar [[r.DOF.TemporalAAQuality:1                ; more stable temporal accumulation]]
[2021.03.13-17.39.45:983][  0]LogConfig: Setting CVar [[r.DOF.Kernel.MaxForegroundRadius:0.025]]
[2021.03.13-17.39.45:983][  0]LogConfig: Setting CVar [[r.DOF.Kernel.MaxBackgroundRadius:0.025]]
[2021.03.13-17.39.45:983][  0]LogConfig: Applying CVar settings from Section [TextureQuality@3] File [F:/Project/RaceGame/RaceGame/Saved/Config/Windows/Scalability.ini]
[2021.03.13-17.39.45:983][  0]LogConfig: Setting CVar [[r.Streaming.MipBias:0]]
[2021.03.13-17.39.45:983][  0]LogConfig: Setting CVar [[r.Streaming.AmortizeCPUToGPUCopy:0]]
[2021.03.13-17.39.45:983][  0]LogConfig: Setting CVar [[r.Streaming.MaxNumTexturesToStreamPerFrame:0]]
[2021.03.13-17.39.45:983][  0]LogConfig: Setting CVar [[r.Streaming.Boost:1]]
[2021.03.13-17.39.45:983][  0]LogConfig: Setting CVar [[r.MaxAnisotropy:8]]
[2021.03.13-17.39.45:983][  0]LogConfig: Setting CVar [[r.VT.MaxAnisotropy:8]]
[2021.03.13-17.39.45:983][  0]LogConfig: Setting CVar [[r.Streaming.LimitPoolSizeToVRAM:0]]
[2021.03.13-17.39.45:983][  0]LogConfig: Setting CVar [[r.Streaming.PoolSize:1000]]
[2021.03.13-17.39.45:983][  0]LogConfig: Setting CVar [[r.Streaming.MaxEffectiveScreenSize:0]]
[2021.03.13-17.39.45:983][  0]LogConfig: Applying CVar settings from Section [EffectsQuality@3] File [F:/Project/RaceGame/RaceGame/Saved/Config/Windows/Scalability.ini]
[2021.03.13-17.39.45:983][  0]LogConfig: Setting CVar [[r.TranslucencyLightingVolumeDim:64]]
[2021.03.13-17.39.45:983][  0]LogConfig: Setting CVar [[r.RefractionQuality:2]]
[2021.03.13-17.39.45:983][  0]LogConfig: Setting CVar [[r.SSR.Quality:3]]
[2021.03.13-17.39.45:983][  0]LogConfig: Setting CVar [[r.SSR.HalfResSceneColor:0]]
[2021.03.13-17.39.45:983][  0]LogConfig: Setting CVar [[r.SceneColorFormat:4]]
[2021.03.13-17.39.45:983][  0]LogConfig: Setting CVar [[r.DetailMode:2]]
[2021.03.13-17.39.45:983][  0]LogConfig: Setting CVar [[r.TranslucencyVolumeBlur:1]]
[2021.03.13-17.39.45:983][  0]LogConfig: Setting CVar [[r.MaterialQualityLevel:1 ; High quality]]
[2021.03.13-17.39.45:983][  0]LogConfig: Setting CVar [[r.AnisotropicMaterials:1]]
[2021.03.13-17.39.45:983][  0]LogConfig: Setting CVar [[r.SSS.Scale:1]]
[2021.03.13-17.39.45:983][  0]LogConfig: Setting CVar [[r.SSS.SampleSet:2]]
[2021.03.13-17.39.45:983][  0]LogConfig: Setting CVar [[r.SSS.Quality:1]]
[2021.03.13-17.39.45:983][  0]LogConfig: Setting CVar [[r.SSS.HalfRes:0]]
[2021.03.13-17.39.45:983][  0]LogConfig: Setting CVar [[r.SSGI.Quality:3]]
[2021.03.13-17.39.45:983][  0]LogConfig: Setting CVar [[r.EmitterSpawnRateScale:1.0]]
[2021.03.13-17.39.45:983][  0]LogConfig: Setting CVar [[r.ParticleLightQuality:2]]
[2021.03.13-17.39.45:983][  0]LogConfig: Setting CVar [[r.SkyAtmosphere.AerialPerspectiveLUT.FastApplyOnOpaque:1 ; Always have FastSkyLUT 1 in this case to avoid wrong sky]]
[2021.03.13-17.39.45:983][  0]LogConfig: Setting CVar [[r.SkyAtmosphere.AerialPerspectiveLUT.SampleCountMaxPerSlice:4]]
[2021.03.13-17.39.45:983][  0]LogConfig: Setting CVar [[r.SkyAtmosphere.AerialPerspectiveLUT.DepthResolution:16.0]]
[2021.03.13-17.39.45:983][  0]LogConfig: Setting CVar [[r.SkyAtmosphere.FastSkyLUT:1]]
[2021.03.13-17.39.45:983][  0]LogConfig: Setting CVar [[r.SkyAtmosphere.FastSkyLUT.SampleCountMin:4.0]]
[2021.03.13-17.39.45:983][  0]LogConfig: Setting CVar [[r.SkyAtmosphere.FastSkyLUT.SampleCountMax:128.0]]
[2021.03.13-17.39.45:983][  0]LogConfig: Setting CVar [[r.SkyAtmosphere.SampleCountMin:4.0]]
[2021.03.13-17.39.45:983][  0]LogConfig: Setting CVar [[r.SkyAtmosphere.SampleCountMax:128.0]]
[2021.03.13-17.39.45:983][  0]LogConfig: Setting CVar [[r.SkyAtmosphere.TransmittanceLUT.UseSmallFormat:0]]
[2021.03.13-17.39.45:983][  0]LogConfig: Setting CVar [[r.SkyAtmosphere.TransmittanceLUT.SampleCount:10.0]]
[2021.03.13-17.39.45:983][  0]LogConfig: Setting CVar [[r.SkyAtmosphere.MultiScatteringLUT.SampleCount:15.0]]
[2021.03.13-17.39.45:983][  0]LogConfig: Applying CVar settings from Section [FoliageQuality@3] File [F:/Project/RaceGame/RaceGame/Saved/Config/Windows/Scalability.ini]
[2021.03.13-17.39.45:983][  0]LogConfig: Setting CVar [[foliage.DensityScale:1.0]]
[2021.03.13-17.39.45:983][  0]LogConfig: Setting CVar [[grass.DensityScale:1.0]]
[2021.03.13-17.39.45:983][  0]LogConfig: Applying CVar settings from Section [ShadingQuality@3] File [F:/Project/RaceGame/RaceGame/Saved/Config/Windows/Scalability.ini]
[2021.03.13-17.39.45:983][  0]LogConfig: Setting CVar [[r.HairStrands.SkyLighting.IntegrationType:2]]
[2021.03.13-17.39.45:983][  0]LogConfig: Setting CVar [[r.HairStrands.SkyAO.SampleCount:4]]
[2021.03.13-17.39.45:983][  0]LogConfig: Setting CVar [[r.HairStrands.Visibility.MSAA.SamplePerPixel:4]]
[2021.03.13-17.39.45:983][  0]LogConfig: Applying CVar settings from Section [Startup] File [../../../Engine/Config/ConsoleVariables.ini]
[2021.03.13-17.39.45:983][  0]LogConfig: Setting CVar [[net.UseAdaptiveNetUpdateFrequency:0]]
[2021.03.13-17.39.45:983][  0]LogConfig: Setting CVar [[p.chaos.AllowCreatePhysxBodies:1]]
[2021.03.13-17.39.45:983][  0]LogConfig: Setting CVar [[fx.SkipVectorVMBackendOptimizations:1]]
[2021.03.13-17.39.45:983][  0]LogConfig: Applying CVar settings from Section [ConsoleVariables] File [F:/Project/RaceGame/RaceGame/Saved/Config/Windows/Engine.ini]
[2021.03.13-17.39.45:983][  0]LogInit: Computer: DESKTOP-O81D5O1
[2021.03.13-17.39.45:983][  0]LogInit: User: maxim
[2021.03.13-17.39.45:984][  0]LogInit: CPU Page size=4096, Cores=6
[2021.03.13-17.39.45:984][  0]LogInit: High frequency timer resolution =10.000000 MHz
[2021.03.13-17.39.45:984][  0]LogMemory: Memory total: Physical=15.9GB (16GB approx)
[2021.03.13-17.39.45:984][  0]LogMemory: Platform Memory Stats for Windows
[2021.03.13-17.39.45:984][  0]LogMemory: Process Physical Memory: 136.74 MB used, 136.75 MB peak
[2021.03.13-17.39.45:984][  0]LogMemory: Process Virtual Memory: 120.01 MB used, 120.01 MB peak
[2021.03.13-17.39.45:984][  0]LogMemory: Physical Memory: 6623.42 MB used,  9690.70 MB free, 16314.11 MB total
[2021.03.13-17.39.45:984][  0]LogMemory: Virtual Memory: 134181128.00 MB used,  36601.36 MB free, 134217728.00 MB total
[2021.03.13-17.39.45:990][  0]LogWindows: WindowsPlatformFeatures enabled
[2021.03.13-17.39.46:024][  0]LogInit: Physics initialised using underlying interface: PhysX
[2021.03.13-17.39.46:025][  0]LogInit: Using OS detected language (ru-RU).
[2021.03.13-17.39.46:025][  0]LogInit: Using OS detected locale (ru-RU).
[2021.03.13-17.39.46:026][  0]LogTextLocalizationManager: No specific localization for 'ru-RU' exists, so the 'ru' localization will be used.
[2021.03.13-17.39.46:027][  0]LogTextLocalizationResource: LocRes '../../../Engine/Content/Localization/Editor/ru/Editor.locres' could not be opened for reading!
[2021.03.13-17.39.46:027][  0]LogTextLocalizationResource: LocRes '../../../Engine/Content/Localization/EditorTutorials/ru/EditorTutorials.locres' could not be opened for reading!
[2021.03.13-17.39.46:027][  0]LogTextLocalizationResource: LocRes '../../../Engine/Content/Localization/Keywords/ru/Keywords.locres' could not be opened for reading!
[2021.03.13-17.39.46:027][  0]LogTextLocalizationResource: LocRes '../../../Engine/Content/Localization/Category/ru/Category.locres' could not be opened for reading!
[2021.03.13-17.39.46:027][  0]LogTextLocalizationResource: LocRes '../../../Engine/Content/Localization/ToolTips/ru/ToolTips.locres' could not be opened for reading!
[2021.03.13-17.39.46:027][  0]LogTextLocalizationResource: LocRes '../../../Engine/Content/Localization/PropertyNames/ru/PropertyNames.locres' could not be opened for reading!
[2021.03.13-17.39.46:027][  0]LogTextLocalizationResource: LocRes '../../../Engine/Content/Localization/Engine/ru/Engine.locres' could not be opened for reading!
[2021.03.13-17.39.46:037][  0]LogWindowsTextInputMethodSystem: Display: IME system deactivated.
[2021.03.13-17.39.46:056][  0]LogSlate: New Slate User Created.  User Index 0, Is Virtual User: 0
[2021.03.13-17.39.46:056][  0]LogSlate: Slate User Registered.  User Index 0, Is Virtual User: 0
[2021.03.13-17.39.46:067][  0]LogHMD: Failed to initialize OpenVR with code 110
[2021.03.13-17.39.46:067][  0]LogD3D11RHI: D3D11 min allowed feature level: 11_0
[2021.03.13-17.39.46:067][  0]LogD3D11RHI: D3D11 max allowed feature level: 11_0
[2021.03.13-17.39.46:067][  0]LogD3D11RHI: D3D11 adapters:
[2021.03.13-17.39.46:133][  0]LogD3D11RHI:    0. 'NVIDIA GeForce GTX 1070' (Feature Level 11_0)
[2021.03.13-17.39.46:133][  0]LogD3D11RHI:       8088/0/8157 MB DedicatedVideo/DedicatedSystem/SharedSystem, Outputs:1, VendorId:0x10de
[2021.03.13-17.39.46:135][  0]LogD3D11RHI:    1. 'Microsoft Basic Render Driver' (Feature Level 11_0)
[2021.03.13-17.39.46:135][  0]LogD3D11RHI:       0/0/8157 MB DedicatedVideo/DedicatedSystem/SharedSystem, Outputs:0, VendorId:0x1414
[2021.03.13-17.39.46:135][  0]LogD3D11RHI: Chosen D3D11 Adapter: 0
[2021.03.13-17.39.46:143][  0]LogD3D11RHI: Creating new Direct3DDevice
[2021.03.13-17.39.46:143][  0]LogD3D11RHI:     GPU DeviceId: 0x1b81 (for the marketing name, search the web for "GPU Device Id")
[2021.03.13-17.39.46:143][  0]LogWindows: EnumDisplayDevices:
[2021.03.13-17.39.46:143][  0]LogWindows:    0. 'NVIDIA GeForce GTX 1070' (P:1 D:1)
[2021.03.13-17.39.46:143][  0]LogWindows:    1. 'NVIDIA GeForce GTX 1070' (P:0 D:0)
[2021.03.13-17.39.46:144][  0]LogWindows:    2. 'NVIDIA GeForce GTX 1070' (P:0 D:0)
[2021.03.13-17.39.46:144][  0]LogWindows:    3. 'NVIDIA GeForce GTX 1070' (P:0 D:0)
[2021.03.13-17.39.46:144][  0]LogWindows: DebugString: FoundDriverCount:4 
[2021.03.13-17.39.46:144][  0]LogD3D11RHI:     Adapter Name: NVIDIA GeForce GTX 1070
[2021.03.13-17.39.46:144][  0]LogD3D11RHI:   Driver Version: 460.79 (internal:27.21.14.6079, unified:460.79)
[2021.03.13-17.39.46:144][  0]LogD3D11RHI:      Driver Date: 12-3-2020
[2021.03.13-17.39.46:144][  0]LogRHI: Texture pool is 5661 MB (70% of 8088 MB)
[2021.03.13-17.39.46:194][  0]LogD3D11RHI: RHI has support for 64 bit atomics
[2021.03.13-17.39.46:194][  0]LogD3D11RHI: Async texture creation enabled
[2021.03.13-17.39.46:194][  0]LogD3D11RHI: Array index from any shader is supported
[2021.03.13-17.39.46:217][  0]LogD3D11RHI: GPU Timing Frequency: 1000.000000 (Debug: 2 1)
[2021.03.13-17.39.46:218][  0]LogRHI: GeForceNow SDK initialized: 1
[2021.03.13-17.39.46:450][  0]LogTargetPlatformManager: Display: Loaded TargetPlatform 'WindowsNoEditor'
[2021.03.13-17.39.46:453][  0]LogTargetPlatformManager: Display: Loaded TargetPlatform 'Windows'
[2021.03.13-17.39.46:460][  0]LogTargetPlatformManager: Display: Loaded TargetPlatform 'WindowsClient'
[2021.03.13-17.39.46:467][  0]LogTargetPlatformManager: Display: Loaded TargetPlatform 'WindowsServer'
[2021.03.13-17.39.46:467][  0]LogTargetPlatformManager: Display: Building Assets For Windows
[2021.03.13-17.39.46:473][  0]LogAudioDebug: Display: Lib vorbis DLL was dynamically loaded.
[2021.03.13-17.39.46:522][  0]LogRendererCore: Ray tracing is disabled. Reason: r.RayTracing=0.
[2021.03.13-17.39.46:522][  0]LogShaderCompilers: Guid format shader working directory is 6 characters bigger than the processId version (../../../../../Project/RaceGame/RaceGame/Intermediate/Shaders/WorkingDirectory/4756/).
[2021.03.13-17.39.46:522][  0]LogShaderCompilers: Cleaned the shader compiler working directory 'C:/Users/maxim/AppData/Local/Temp/UnrealShaderWorkingDir/492AFE594B5261286293588C063CFAF3/'.
[2021.03.13-17.39.46:522][  0]LogShaderCompilers: Cannot use XGE Shader Compiler as Incredibuild is not installed on this machine.
[2021.03.13-17.39.46:523][  0]LogShaderCompilers: Display: Using Local Shader Compiler.
[2021.03.13-17.39.47:233][  0]LogDerivedDataCache: Display: Max Cache Size: 512 MB
[2021.03.13-17.39.47:277][  0]LogDerivedDataCache: Loaded boot cache 0.04s 77MB C:/Users/maxim/AppData/Local/UnrealEngine/4.26/DerivedDataCache/Boot.ddc.
[2021.03.13-17.39.47:277][  0]LogDerivedDataCache: Display: Loaded Boot cache: C:/Users/maxim/AppData/Local/UnrealEngine/4.26/DerivedDataCache/Boot.ddc
[2021.03.13-17.39.47:277][  0]LogDerivedDataCache: FDerivedDataBackendGraph:  Pak pak cache file ../../../../../Project/RaceGame/RaceGame/DerivedDataCache/DDC.ddp not found, will not use a pak cache.
[2021.03.13-17.39.47:277][  0]LogDerivedDataCache: Unable to find inner node Pak for hierarchical cache Hierarchy.
[2021.03.13-17.39.47:277][  0]LogDerivedDataCache: FDerivedDataBackendGraph:  CompressedPak pak cache file ../../../../../Project/RaceGame/RaceGame/DerivedDataCache/Compressed.ddp not found, will not use a pak cache.
[2021.03.13-17.39.47:277][  0]LogDerivedDataCache: Unable to find inner node CompressedPak for hierarchical cache Hierarchy.
[2021.03.13-17.39.47:289][  0]LogDerivedDataCache: Display: Pak cache opened for reading ../../../Engine/DerivedDataCache/Compressed.ddp.
[2021.03.13-17.39.47:289][  0]LogDerivedDataCache: FDerivedDataBackendGraph:  EnterprisePak pak cache file ../../../Enterprise/DerivedDataCache/Compressed.ddp not found, will not use a pak cache.
[2021.03.13-17.39.47:289][  0]LogDerivedDataCache: Unable to find inner node EnterprisePak for hierarchical cache Hierarchy.
[2021.03.13-17.39.47:326][  0]LogDerivedDataCache: Speed tests for C:/Users/maxim/AppData/Local/UnrealEngine/Common/DerivedDataCache took 0.04 seconds
[2021.03.13-17.39.47:327][  0]LogDerivedDataCache: Display: Performance to C:/Users/maxim/AppData/Local/UnrealEngine/Common/DerivedDataCache: Latency=0.04ms. RandomReadSpeed=1431.39MBs, RandomWriteSpeed=25.48MBs. Assigned SpeedClass 'Local'
[2021.03.13-17.39.47:327][  0]LogDerivedDataCache: Using Local data cache path C:/Users/maxim/AppData/Local/UnrealEngine/Common/DerivedDataCache: Writable
[2021.03.13-17.39.47:327][  0]LogDerivedDataCache: Shared data cache path not found in *engine.ini, will not use an Shared cache.
[2021.03.13-17.39.47:327][  0]LogDerivedDataCache: Unable to find inner node Shared for hierarchical cache Hierarchy.
[2021.03.13-17.39.47:359][  0]LogSlate: Using FreeType 2.10.0
[2021.03.13-17.39.47:359][  0]LogSlate: SlateFontServices - WITH_FREETYPE: 1, WITH_HARFBUZZ: 1
[2021.03.13-17.39.47:424][  0]LogInit: Using OS detected language (ru-RU).
[2021.03.13-17.39.47:424][  0]LogInit: Using OS detected locale (ru-RU).
[2021.03.13-17.39.47:424][  0]LogTextLocalizationManager: No localization for 'ru-RU' exists, so 'en' will be used for the language.
[2021.03.13-17.39.47:424][  0]LogTextLocalizationManager: No localization for 'ru-RU' exists, so 'en' will be used for the locale.
[2021.03.13-17.39.47:424][  0]LogSlate: FontCache flush requested. Reason: Culture for localization was changed
[2021.03.13-17.39.47:424][  0]LogSlate: FontCache flush requested. Reason: Culture for localization was changed
[2021.03.13-17.39.47:435][  0]LogTextLocalizationManager: Compacting localization data took   0.00ms
[2021.03.13-17.39.47:437][  0]LogAssetRegistry: FAssetRegistry took 0.0014 seconds to start up
[2021.03.13-17.39.47:581][  0]LogPackageLocalizationCache: Processed 22 localized package path(s) for 1 prioritized culture(s) in 0.000621 seconds
[2021.03.13-17.39.47:635][  0]LogInit: Selected Device Profile: [Windows]
[2021.03.13-17.39.47:635][  0]LogInit: Active device profile: [00000233E02B5F00][00000233D73F33C0 49] Windows
[2021.03.13-17.39.47:635][  0]LogInit: Profiles: [00000233E02B5F00][00000233D73F33C0 49] Windows, [00000233E026E300][00000233D7315540 49] WindowsNoEditor, [00000233E02B7A00][00000233D73196C0 49] WindowsServer, [00000233E026C800][00000233D731D840 49] WindowsClient, [00000233E02B4900][00000233D73219C0 49] IOS, [00000233E026F600][00000233D7325B40 49] iPadAir, [00000233E02B5600][00000233D7329CC0 49] iPadAir2, [00000233E023B600][00000233D73302C0 49] IPadPro, [00000233E023B700][00000233D732C300 49] iPadAir3, [00000233E02B5300][00000233D7334480 49] iPadAir4, [00000233E023B900][00000233D7338600 49] iPadMini2, [00000233E02B6200][00000233DB530780 49] iPadMini3, [00000233E023A400][00000233DB534900 49] iPadMini4, [00000233E02B7E00][00000233DB538A80 49] iPadMini5, [00000233E025AE00][00000233DB540D40 49] iPhone6, [00000233E025AF00][00000233DB53CD80 49] iPodTouch6, [00000233E023BF00][00000233DB549040 49] iPhone7, [00000233E023B500][00000233DB545080 49] iPodTouch7, [00000233E025A700][00000233D73111C0 49] iPhone5S, [00000233E023B300][00000233DB54D300 49] iPhone6Plus, [00000233E025BE00][00000233DB551440 49] iPhone6S, [00000233E0239100][00000233DB5595C0 49] iPhone6SPlus, [00000233E025A900][00000233DB55D740 49] iPhone7Plus, [00000233E023B800][00000233DB5618C0 49] iPhoneSE, [00000233E025B000][00000233DB565A40 49] iPhone8, [00000233E023B400][00000233DB569BC0 49] iPhone8Plus, [00000233E0259F00][00000233DB56DD40 49] iPhoneX, [00000233E0239B00][00000233DEE3E200 49] iPhoneXS, [00000233E0258600][00000233DEE42380 49] iPhoneXSMax, [00000233E0238200][00000233DEE46500 49] iPhoneXR, [00000233E025B400][00000233DEE4A680 49] iPhone11, [00000233E0239400][00000233DEE4E800 49] iPhone11Pro, [00000233E0258800][00000233DEE52980 49] iPhone11ProMax, [00000233E0238900][00000233DEE56B00 49] iPhoneSE2, [00000233E0259C00][00000233DEE5AC80 49] iPhone12Mini, [00000233E0239D00][00000233DEE5EE00 49] iPhone12, [00000233E0259600][00000233DEE62F80 49] iPhone12Pro, [00000233E023B000][00000233DEE67100 49] iPhone12ProMax, [00000233E0259100][00000233DB555240 49] iPadPro105, [00000233E0238700][00000233DEE6B380 49] iPadPro129, [00000233E025AB00][00000233DEE6F4C0 49] iPadPro97, [00000233E023A700][00000233DEE77640 49] iPadPro2_129, [00000233E023BA00][00000233DEE7B7C0 49] iPad5, [00000233E026D900][00000233DEE7F940 49] iPad6, [00000233E023BB00][00000233DEE83AC0 49] iPad7, [00000233E026E200][00000233DEE87C40 49] iPad8, [00000233E0239300][00000233DEE8A100 49] iPadPro11, [00000233E026EC00][00000233DEE8E280 49] iPadPro2_11, [00000233E023A500][00000233DEE92400 49] iPadPro3_129, [00000233E026D000][00000233DEE96580 49] iPadPro4_129, [00000233E026F400][00000233DEE9A700 49] AppleTV, [00000233E025AC00][00000233DEE9E880 49] AppleTV4K, [00000233E026C100][00000233DEEA2A00 49] TVOS, [00000233E025B800][00000233DEEA6B80 49] Mac, [00000233E026C900][00000233DEEAAD00 49] MacClient, [00000233E0258700][00000233DEEAEE80 49] MacNoEditor, [00000233E026FF00][00000233DEEB3000 49] MacServer, [00000233E0259000][00000233DEEB7180 49] Linux, [00000233E026EF00][00000233DEE732C0 49] LinuxNoEditor, [00000233E0259D00][00000233DEEBB400 49] LinuxAArch64NoEditor, [00000233E0239A00][00000233DEEBF540 49] LinuxClient, [00000233E0258900][00000233DEEC76C0 49] LinuxAArch64Client, [00000233E0238B00][00000233DEECB840 49] LinuxServer, [00000233E025A000][00000233DEECF9C0 49] LinuxAArch64Server, [00000233E0238300][00000233DEED3B40 49] Android, [00000233E0258400][00000233DEED7CC0 49] Android_Low, [00000233E023B200][00000233DEEDA180 49] Android_Mid, [00000233E025A800][00000233DEEDE300 49] Android_High, [00000233E023BD00][00000233DEEE2480 49] Android_Default, [00000233E025BA00][00000233DEEE6600 49] Android_Adreno4xx, [00000233E0239000][00000233DEEEA780 49] Android_Adreno5xx_Low, [00000233E025B300][00000233DEEEE900 49] Android_Adreno5xx, [00000233E0238600][00000233DEEF2A80 49] Android_Adreno6xx, [00000233E0258200][00000233DEEF6C00 49] Android_Adreno6xx_Vulkan, [00000233E023AF00][00000233DEEFAD80 49] Android_Mali_T6xx, [00000233E025B900][00000233DEEFEF00 49] Android_Mali_T7xx, [00000233E0239800][00000233DEF03080 49] Android_Mali_T8xx, [00000233E025B700][00000233DEF07200 49] Android_Mali_G71, [00000233E023B100][00000233DEEC3340 49] Android_Mali_G72, [00000233E0259B00][00000233DEF0B480 49] Android_Mali_G72_Vulkan, [00000233E023BE00][00000233DEF0F5C0 49] Android_Mali_G76, [00000233E0258F00][00000233DEF13700 49] Android_Mali_G76_Vulkan, [00000233E023AD00][00000233DEF1B880 49] Android_Mali_G77, [00000233E025A300][00000233DEF1FA00 49] Android_Mali_G77_Vulkan, [00000233E0238C00][00000233DEF23B80 49] Android_Vulkan_SM5, [00000233E025BB00][00000233DEF27D00 49] Android_PowerVR_G6xxx, [00000233E0239F00][00000233DEF2A1C0 49] Android_PowerVR_GT7xxx, [00000233E025A100][00000233DEF2E340 49] Android_PowerVR_GE8xxx, [00000233E023A300][00000233DEF324C0 49] Android_PowerVR_GM9xxx, [00000233E025A500][00000233DEF36640 49] Android_PowerVR_GM9xxx_Vulkan, [00000233E0239900][00000233DEF3A7C0 49] Android_TegraK1, [00000233E025AA00][00000233DEF3E940 49] Android_Unknown_Vulkan, [00000233E0238400][00000233DEF42AC0 49] Lumin, [00000233E025AD00][00000233DEF46C40 49] Lumin_Desktop, [00000233E0239C00][00000233DEF4ADC0 49] HoloLens, 
[2021.03.13-17.39.47:668][  0]LogMeshReduction: Using QuadricMeshReduction for automatic static mesh reduction
[2021.03.13-17.39.47:668][  0]LogMeshReduction: Using SimplygonMeshReduction for automatic skeletal mesh reduction
[2021.03.13-17.39.47:668][  0]LogMeshReduction: Using ProxyLODMeshReduction for automatic mesh merging
[2021.03.13-17.39.47:668][  0]LogMeshReduction: No distributed automatic mesh merging module available
[2021.03.13-17.39.47:668][  0]LogMeshMerging: No distributed automatic mesh merging module available
[2021.03.13-17.39.47:738][  0]LogNetVersion: RaceGame 1.0.0, NetCL: 14830424, EngineNetVer: 16, GameNetVer: 0 (Checksum: 3636571145)
[2021.03.13-17.39.47:976][  0]LogHMD: PokeAHoleMaterial loaded successfully
[2021.03.13-17.39.48:065][  0]LogMoviePlayer: Initializing movie player
[2021.03.13-17.39.48:251][  0]LogTcpMessaging: Initializing TcpMessaging bridge
[2021.03.13-17.39.48:255][  0]LogUdpMessaging: Initializing bridge on interface 0.0.0.0:0 to multicast group 230.0.0.1:6666.
[2021.03.13-17.39.48:339][  0]SourceControl: Source control is disabled
[2021.03.13-17.39.48:339][  0]SourceControl: Source control is disabled
[2021.03.13-17.39.48:342][  0]SourceControl: Source control is disabled
[2021.03.13-17.39.48:347][  0]LogUProjectInfo: Found projects:
[2021.03.13-17.39.48:388][  0]LogAndroidPermission: UAndroidPermissionCallbackProxy::GetInstance
[2021.03.13-17.39.48:401][  0]LogAudioCaptureCore: Display: No Audio Capture implementations found. Audio input will be silent.
[2021.03.13-17.39.48:401][  0]LogAudioCaptureCore: Display: No Audio Capture implementations found. Audio input will be silent.
[2021.03.13-17.39.48:445][  0]LogOcInput: OculusInput pre-init called
[2021.03.13-17.39.48:452][  0]LogUObjectArray: 20223 objects as part of root set at end of initial load.
[2021.03.13-17.39.48:452][  0]LogUObjectAllocator: 5385920 out of 0 bytes used by permanent object pool.
[2021.03.13-17.39.48:452][  0]LogUObjectArray: CloseDisregardForGC: 0/0 objects in disregard for GC pool
[2021.03.13-17.39.48:492][  0]LogEngine: Initializing Engine...
[2021.03.13-17.39.48:493][  0]LogHMD: Failed to initialize OpenVR with code 110
[2021.03.13-17.39.48:493][  0]LogMagicLeap: Warning: VR disabled because ZI is not enabled.  To enable, in the editor, Edit -> Project Settings -> Plugins -> Magic Leap Plugin -> Enable Zero Iteration
[2021.03.13-17.39.48:495][  0]LogStats: UGameplayTagsManager::InitializeManager -  0.000 s
[2021.03.13-17.39.48:569][  0]LogInit: Initializing FReadOnlyCVARCache
[2021.03.13-17.39.48:569][  0]LogAudio: Display: Initializing Audio Device Manager...
[2021.03.13-17.39.48:573][  0]LogAudio: Display: Audio Device Manager Initialized
[2021.03.13-17.39.48:573][  0]LogAudio: Display: Creating Audio Device:                 Id: 1, Scope: Shared, Realtime: True
[2021.03.13-17.39.48:573][  0]LogAudioMixer: Display: Audio Mixer Platform Settings:
[2021.03.13-17.39.48:573][  0]LogAudioMixer: Display: 	Sample Rate:						  48000
[2021.03.13-17.39.48:573][  0]LogAudioMixer: Display: 	Callback Buffer Frame Size Requested: 1024
[2021.03.13-17.39.48:573][  0]LogAudioMixer: Display: 	Callback Buffer Frame Size To Use:	  1024
[2021.03.13-17.39.48:573][  0]LogAudioMixer: Display: 	Number of buffers to queue:			  2
[2021.03.13-17.39.48:573][  0]LogAudioMixer: Display: 	Max Channels (voices):				  32
[2021.03.13-17.39.48:573][  0]LogAudioMixer: Display: 	Number of Async Source Workers:		  0
[2021.03.13-17.39.48:573][  0]LogAudio: Display: AudioDevice MaxSources: 32
[2021.03.13-17.39.48:573][  0]LogAudio: Display: Using built-in audio occlusion.
[2021.03.13-17.39.48:574][  0]LogAudioMixer: Display: Initializing audio mixer.
[2021.03.13-17.39.48:585][  0]LogAudioMixer: Display: 0: FrontLeft
[2021.03.13-17.39.48:585][  0]LogAudioMixer: Display: 1: FrontRight
[2021.03.13-17.39.48:611][  0]LogAudioMixer: Display: Using Audio Device Realtek HD Audio 2nd output (Realtek(R) Audio)
[2021.03.13-17.39.48:618][  0]LogAudioMixer: Display: Initializing Sound Submixes...
[2021.03.13-17.39.48:619][  0]LogAudioMixer: Display: Creating Master Submix 'MasterSubmixDefault'
[2021.03.13-17.39.48:619][  0]LogAudioMixer: Display: Creating Master Submix 'MasterReverbSubmixDefault'
[2021.03.13-17.39.48:620][  0]LogAudioMixer: Display: Creating Master Submix 'MasterEQSubmixDefault'
[2021.03.13-17.39.48:620][  0]LogAudioMixer: FMixerPlatformXAudio2::StartAudioStream() called
[2021.03.13-17.39.48:620][  0]LogAudioMixer: Display: Output buffers initialized: Frames=1024, Channels=2, Samples=2048
[2021.03.13-17.39.48:621][  0]LogAudioMixer: Display: Starting AudioMixerPlatformInterface::RunInternal()
[2021.03.13-17.39.48:621][  0]LogAudioMixer: Display: FMixerPlatformXAudio2::SubmitBuffer() called for the first time
[2021.03.13-17.39.48:621][  0]LogInit: FAudioDevice initialized.
[2021.03.13-17.39.48:622][  0]LogNetVersion: Set ProjectVersion to 1.0.0.0. Version Checksum will be recalculated on next use.
[2021.03.13-17.39.48:622][  0]LogInit: Texture streaming: Enabled
[2021.03.13-17.39.48:672][  0]LogAudio: Display: Audio Device (ID: 1) registered with world 'Untitled'.
[2021.03.13-17.39.48:673][  0]LogSlate: Updating window title bar state: overlay mode, drag disabled, window buttons hidden, title bar hidden
[2021.03.13-17.39.48:673][  0]LogInit: Display: Game Engine Initialized.
[2021.03.13-17.39.48:674][  0]LogNiagaraEditor: GEditor isn't valid! Particle reset commands will not work for Niagara components!
[2021.03.13-17.39.48:726][  0]LogInit: Display: Starting Game.
[2021.03.13-17.39.48:727][  0]LogNet: Browse: /Game/StarterContent/Blueprints/Maps/Level2?Name=Player
[2021.03.13-17.39.48:727][  0]LogLoad: LoadMap: /Game/StarterContent/Blueprints/Maps/Level2?Name=Player
[2021.03.13-17.39.48:727][  0]LogWorld: BeginTearingDown for /Temp/Untitled_0
[2021.03.13-17.39.48:728][  0]LogWorld: UWorld::CleanupWorld for Untitled, bSessionEnded=true, bCleanupResources=true
[2021.03.13-17.39.48:728][  0]LogSlate: InvalidateAllWidgets triggered.  All widgets were invalidated
[2021.03.13-17.39.48:730][  0]LogAudio: Display: Audio Device unregistered from world 'None'.
[2021.03.13-17.39.48:732][  0]LogUObjectHash: Compacting FUObjectHashTables data took   0.66ms
[2021.03.13-17.39.49:117][  0]LogAudio: Display: Audio Device (ID: 1) registered with world 'Level2'.
[2021.03.13-17.39.49:123][  0]LogAIModule: Creating AISystem for world Level2
[2021.03.13-17.39.49:124][  0]LogLoad: Game class is 'level1_C'
[2021.03.13-17.39.49:167][  0]LogWorld: Bringing World /Game/StarterContent/Blueprints/Maps/Level2.Level2 up for play (max tick rate 0) at 2021.03.13-20.39.49
[2021.03.13-17.39.49:168][  0]LogWorld: Bringing up level for play took: 0.043676
[2021.03.13-17.39.49:169][  0]LogGameMode: Display: Match State Changed from EnteringMap to WaitingToStart
[2021.03.13-17.39.49:169][  0]LogGameState: Match State Changed from EnteringMap to WaitingToStart
[2021.03.13-17.39.49:169][  0]LogGameMode: Display: Match State Changed from WaitingToStart to InProgress
[2021.03.13-17.39.49:173][  0]LogViewport: Display: Viewport MouseCaptureMode Changed, CapturePermanently_IncludingInitialMouseDown -> CapturePermanently
[2021.03.13-17.39.49:174][  0]LogGameState: Match State Changed from WaitingToStart to InProgress
[2021.03.13-17.39.49:174][  0]LogLoad: Took 0.447148 seconds to LoadMap(/Game/StarterContent/Blueprints/Maps/Level2)
[2021.03.13-17.39.49:217][  0]LogSlate: Took 0.000204 seconds to synchronously load lazily loaded font '../../../Engine/Content/Slate/Fonts/Roboto-Regular.ttf' (155K)
[2021.03.13-17.39.49:237][  0]LogInit: Display: Engine is initialized. Leaving FEngineLoop::Init()
[2021.03.13-17.39.49:238][  0]LogLoad: (Engine Initialization) Total time: 3.99 seconds
[2021.03.13-17.39.49:238][  0]LogLoad: (Engine Initialization) Total Blueprint compile time: 0.00 seconds
[2021.03.13-17.39.49:238][  0]LogInit: First time updating LLM stats...
[2021.03.13-17.39.49:245][  0]LogRenderer: Reallocating scene render targets to support 256x256 Format 10 NumSamples 1 (Frame:1).
[2021.03.13-17.39.49:386][  0]LogRenderer: Reallocating scene render targets to support 1280x720 Format 10 NumSamples 1 (Frame:1).
[2021.03.13-17.39.49:781][  0]LogContentStreaming: Texture pool size now 1000 MB
[2021.03.13-17.39.49:802][  0]LogSlate: InvalidateAllWidgets triggered.  All widgets were invalidated
[2021.03.13-17.39.50:428][  1]LogSlate: Took 0.000142 seconds to synchronously load lazily loaded font '../../../Engine/Content/Slate/Fonts/Roboto-Regular.ttf' (155K)
[2021.03.13-17.39.53:243][206]LogGameMode: Display: Match State Changed from InProgress to LeavingMap
[2021.03.13-17.39.53:243][206]LogGameState: Match State Changed from InProgress to LeavingMap
[2021.03.13-17.39.53:243][206]LogNet: Browse: /Game/StarterContent/Blueprints/Maps/MainMenu
[2021.03.13-17.39.53:243][206]LogLoad: LoadMap: /Game/StarterContent/Blueprints/Maps/MainMenu
[2021.03.13-17.39.53:243][206]LogWorld: BeginTearingDown for /Game/StarterContent/Blueprints/Maps/Level2
[2021.03.13-17.39.53:245][206]LogWorld: UWorld::CleanupWorld for Level2, bSessionEnded=true, bCleanupResources=true
[2021.03.13-17.39.53:252][206]LogSlate: InvalidateAllWidgets triggered.  All widgets were invalidated
[2021.03.13-17.39.53:299][206]LogAudio: Display: Waited 46.943199 ms for audio thread.
[2021.03.13-17.39.53:305][206]LogAudio: Display: Audio Device unregistered from world 'None'.
[2021.03.13-17.39.53:330][206]LogUObjectHash: Compacting FUObjectHashTables data took   0.86ms
[2021.03.13-17.39.53:424][206]LogAudio: Display: Audio Device (ID: 1) registered with world 'MainMenu'.
[2021.03.13-17.39.53:425][206]LogAIModule: Creating AISystem for world MainMenu
[2021.03.13-17.39.53:425][206]LogLoad: Game class is 'GameMode'
[2021.03.13-17.39.53:426][206]LogWorld: Bringing World /Game/StarterContent/Blueprints/Maps/MainMenu.MainMenu up for play (max tick rate 0) at 2021.03.13-20.39.53
[2021.03.13-17.39.53:426][206]LogWorld: Bringing up level for play took: 0.000252
[2021.03.13-17.39.53:426][206]LogGameMode: FindPlayerStart: PATHS NOT DEFINED or NO PLAYERSTART with positive rating
[2021.03.13-17.39.53:427][206]LogGameMode: Display: Match State Changed from EnteringMap to WaitingToStart
[2021.03.13-17.39.53:427][206]LogGameState: Match State Changed from EnteringMap to WaitingToStart
[2021.03.13-17.39.53:427][206]LogGameMode: Display: Match State Changed from WaitingToStart to InProgress
[2021.03.13-17.39.53:427][206]LogPlayerController: Error: InputMode:UIOnly - Attempting to focus Non-Focusable widget SObjectWidget [Widget.cpp(799)]!
[2021.03.13-17.39.53:427][206]LogViewport: Display: Viewport MouseLockMode Changed, LockOnCapture -> DoNotLock
[2021.03.13-17.39.53:427][206]LogViewport: Display: Viewport MouseCaptureMode Changed, CapturePermanently -> NoCapture
[2021.03.13-17.39.53:427][206]LogGameState: Match State Changed from WaitingToStart to InProgress
[2021.03.13-17.39.53:428][206]LogLoad: Took 0.184454 seconds to LoadMap(/Game/StarterContent/Blueprints/Maps/MainMenu)
[2021.03.13-17.39.53:431][206]LogSlate: InvalidateAllWidgets triggered.  All widgets were invalidated
[2021.03.13-17.40.00:266][696]LogPackageName: SearchForPackageOnDisk took   0.057s to resolve LevelSelect.umap.
[2021.03.13-17.40.00:267][696]LogGameMode: Display: Match State Changed from InProgress to LeavingMap
[2021.03.13-17.40.00:267][696]LogGameState: Match State Changed from InProgress to LeavingMap
[2021.03.13-17.40.00:323][696]LogPackageName: SearchForPackageOnDisk took   0.056s to resolve LevelSelect.umap.
[2021.03.13-17.40.00:323][696]LogNet: Browse: /Game/StarterContent/Blueprints/Maps/LevelSelect
[2021.03.13-17.40.00:323][696]LogLoad: LoadMap: /Game/StarterContent/Blueprints/Maps/LevelSelect
[2021.03.13-17.40.00:323][696]LogWorld: BeginTearingDown for /Game/StarterContent/Blueprints/Maps/MainMenu
[2021.03.13-17.40.00:324][696]LogWorld: UWorld::CleanupWorld for MainMenu, bSessionEnded=true, bCleanupResources=true
[2021.03.13-17.40.00:324][696]LogSlate: InvalidateAllWidgets triggered.  All widgets were invalidated
[2021.03.13-17.40.00:359][696]LogAudio: Display: Waited 35.276100 ms for audio thread.
[2021.03.13-17.40.00:363][696]LogAudio: Display: Audio Device unregistered from world 'None'.
[2021.03.13-17.40.00:365][696]LogUObjectHash: Compacting FUObjectHashTables data took   0.55ms
[2021.03.13-17.40.00:378][696]LogAudio: Display: Audio Device (ID: 1) registered with world 'LevelSelect'.
[2021.03.13-17.40.00:379][696]LogAIModule: Creating AISystem for world LevelSelect
[2021.03.13-17.40.00:379][696]LogLoad: Game class is 'GameMode'
[2021.03.13-17.40.00:380][696]LogWorld: Bringing World /Game/StarterContent/Blueprints/Maps/LevelSelect.LevelSelect up for play (max tick rate 0) at 2021.03.13-20.40.00
[2021.03.13-17.40.00:380][696]LogWorld: Bringing up level for play took: 0.000308
[2021.03.13-17.40.00:380][696]LogGameMode: FindPlayerStart: PATHS NOT DEFINED or NO PLAYERSTART with positive rating
[2021.03.13-17.40.00:381][696]LogGameMode: Display: Match State Changed from EnteringMap to WaitingToStart
[2021.03.13-17.40.00:381][696]LogGameState: Match State Changed from EnteringMap to WaitingToStart
[2021.03.13-17.40.00:381][696]LogGameMode: Display: Match State Changed from WaitingToStart to InProgress
[2021.03.13-17.40.00:381][696]LogPlayerController: Error: InputMode:UIOnly - Attempting to focus Non-Focusable widget SObjectWidget [Widget.cpp(799)]!
[2021.03.13-17.40.00:381][696]LogGameState: Match State Changed from WaitingToStart to InProgress
[2021.03.13-17.40.00:382][696]LogLoad: Took 0.058363 seconds to LoadMap(/Game/StarterContent/Blueprints/Maps/LevelSelect)
[2021.03.13-17.40.02:465][844]LogPackageName: SearchForPackageOnDisk took   0.058s to resolve Level2.umap.
[2021.03.13-17.40.02:465][844]LogGameMode: Display: Match State Changed from InProgress to LeavingMap
[2021.03.13-17.40.02:465][844]LogGameState: Match State Changed from InProgress to LeavingMap
[2021.03.13-17.40.02:521][844]LogPackageName: SearchForPackageOnDisk took   0.056s to resolve Level2.umap.
[2021.03.13-17.40.02:521][844]LogNet: Browse: /Game/StarterContent/Blueprints/Maps/Level2
[2021.03.13-17.40.02:521][844]LogLoad: LoadMap: /Game/StarterContent/Blueprints/Maps/Level2
[2021.03.13-17.40.02:521][844]LogWorld: BeginTearingDown for /Game/StarterContent/Blueprints/Maps/LevelSelect
[2021.03.13-17.40.02:522][844]LogWorld: UWorld::CleanupWorld for LevelSelect, bSessionEnded=true, bCleanupResources=true
[2021.03.13-17.40.02:522][844]LogSlate: InvalidateAllWidgets triggered.  All widgets were invalidated
[2021.03.13-17.40.02:559][844]LogAudio: Display: Waited 37.061199 ms for audio thread.
[2021.03.13-17.40.02:562][844]LogAudio: Display: Audio Device unregistered from world 'None'.
[2021.03.13-17.40.02:563][844]LogUObjectHash: Compacting FUObjectHashTables data took   0.56ms
[2021.03.13-17.40.02:930][844]LogAudio: Display: Audio Device (ID: 1) registered with world 'Level2'.
[2021.03.13-17.40.02:931][844]LogAIModule: Creating AISystem for world Level2
[2021.03.13-17.40.02:931][844]LogLoad: Game class is 'level1_C'
[2021.03.13-17.40.02:973][844]LogWorld: Bringing World /Game/StarterContent/Blueprints/Maps/Level2.Level2 up for play (max tick rate 0) at 2021.03.13-20.40.02
[2021.03.13-17.40.02:973][844]LogWorld: Bringing up level for play took: 0.041660
[2021.03.13-17.40.02:974][844]LogGameMode: Display: Match State Changed from EnteringMap to WaitingToStart
[2021.03.13-17.40.02:974][844]LogGameState: Match State Changed from EnteringMap to WaitingToStart
[2021.03.13-17.40.02:974][844]LogGameMode: Display: Match State Changed from WaitingToStart to InProgress
[2021.03.13-17.40.02:976][844]LogViewport: Display: Viewport MouseLockMode Changed, DoNotLock -> LockOnCapture
[2021.03.13-17.40.02:976][844]LogViewport: Display: Viewport MouseCaptureMode Changed, NoCapture -> CapturePermanently
[2021.03.13-17.40.02:977][844]LogGameState: Match State Changed from WaitingToStart to InProgress
[2021.03.13-17.40.02:980][844]LogSlate: Took 0.000153 seconds to synchronously load lazily loaded font '../../../Engine/Content/Slate/Fonts/Roboto-Regular.ttf' (155K)
[2021.03.13-17.40.02:982][844]LogLoad: Took 0.460793 seconds to LoadMap(/Game/StarterContent/Blueprints/Maps/Level2)
[2021.03.13-17.41.00:233][925]LogSlate: Updating window title bar state: overlay mode, drag disabled, window buttons hidden, title bar hidden
[2021.03.13-17.41.02:748][106]LogGameMode: Display: Match State Changed from InProgress to LeavingMap
[2021.03.13-17.41.02:748][106]LogGameState: Match State Changed from InProgress to LeavingMap
[2021.03.13-17.41.02:748][106]LogNet: Browse: /Game/StarterContent/Blueprints/Maps/MainMenu
[2021.03.13-17.41.02:748][106]LogLoad: LoadMap: /Game/StarterContent/Blueprints/Maps/MainMenu
[2021.03.13-17.41.02:748][106]LogWorld: BeginTearingDown for /Game/StarterContent/Blueprints/Maps/Level2
[2021.03.13-17.41.02:749][106]LogStreaming: Display: FlushAsyncLoading: 1 QueuedPackages, 0 AsyncPackages
[2021.03.13-17.41.02:833][106]LogOutputDevice: Warning: 

Script Stack (2 frames):
MainMenu_C.ExecuteUbergraph_MainMenu
MainMenu_C.ReceiveBeginPlay

[2021.03.13-17.41.03:169][106]LogStats: FPlatformStackWalk::StackWalkAndDump -  0.336 s
[2021.03.13-17.41.03:169][106]LogOutputDevice: Error: === Handled ensure: ===
[2021.03.13-17.41.03:169][106]LogOutputDevice: Error: 
[2021.03.13-17.41.03:169][106]LogOutputDevice: Error: Ensure condition failed: !World->bIsTearingDown [File:D:/Build/++UE4/Sync/Engine/Source/Runtime/UMG/Private/UserWidget.cpp] [Line: 1961]
[2021.03.13-17.41.03:169][106]LogOutputDevice: Error: Widget Class MainMenu_C - Attempting to be created while tearing down the world 'Level2'
[2021.03.13-17.41.03:169][106]LogOutputDevice: Error: Stack: 
[2021.03.13-17.41.03:170][106]LogOutputDevice: Error: [Callstack] 0x00007ff8b8c5c3b5 UE4Editor-UMG.dll!UnknownFunction []
[2021.03.13-17.41.03:170][106]LogOutputDevice: Error: [Callstack] 0x00007ff8b8afb902 UE4Editor-UMG.dll!UnknownFunction []
[2021.03.13-17.41.03:170][106]LogOutputDevice: Error: [Callstack] 0x00007ff8b8a5d65b UE4Editor-UMG.dll!UnknownFunction []
[2021.03.13-17.41.03:170][106]LogOutputDevice: Error: [Callstack] 0x00007ff8b8af66a5 UE4Editor-UMG.dll!UnknownFunction []
[2021.03.13-17.41.03:170][106]LogOutputDevice: Error: [Callstack] 0x00007ff8b8c010cc UE4Editor-UMG.dll!UnknownFunction []
[2021.03.13-17.41.03:170][106]LogOutputDevice: Error: [Callstack] 0x00007ff8bec426a4 UE4Editor-CoreUObject.dll!UnknownFunction []
[2021.03.13-17.41.03:170][106]LogOutputDevice: Error: [Callstack] 0x00007ff8beeb8207 UE4Editor-CoreUObject.dll!UnknownFunction []
[2021.03.13-17.41.03:170][106]LogOutputDevice: Error: [Callstack] 0x00007ff8beecf843 UE4Editor-CoreUObject.dll!UnknownFunction []
[2021.03.13-17.41.03:170][106]LogOutputDevice: Error: [Callstack] 0x00007ff8beefd57f UE4Editor-CoreUObject.dll!UnknownFunction []
[2021.03.13-17.41.03:170][106]LogOutputDevice: Error: [Callstack] 0x00007ff8beed238d UE4Editor-CoreUObject.dll!UnknownFunction []
[2021.03.13-17.41.03:170][106]LogOutputDevice: Error: [Callstack] 0x00007ff8beea6bfa UE4Editor-CoreUObject.dll!UnknownFunction []
[2021.03.13-17.41.03:170][106]LogOutputDevice: Error: [Callstack] 0x00007ff8beed1f84 UE4Editor-CoreUObject.dll!UnknownFunction []
[2021.03.13-17.41.03:170][106]LogOutputDevice: Error: [Callstack] 0x00007ff8beed238d UE4Editor-CoreUObject.dll!UnknownFunction []
[2021.03.13-17.41.03:170][106]LogOutputDevice: Error: [Callstack] 0x00007ff8beed1794 UE4Editor-CoreUObject.dll!UnknownFunction []
[2021.03.13-17.41.03:170][106]LogOutputDevice: Error: [Callstack] 0x00007ff8bec426a4 UE4Editor-CoreUObject.dll!UnknownFunction []
[2021.03.13-17.41.03:170][106]LogOutputDevice: Error: [Callstack] 0x00007ff8beed0ef3 UE4Editor-CoreUObject.dll!UnknownFunction []
[2021.03.13-17.41.03:170][106]LogOutputDevice: Error: [Callstack] 0x00007ff8bbc8c125 UE4Editor-Engine.dll!UnknownFunction []
[2021.03.13-17.41.03:170][106]LogOutputDevice: Error: [Callstack] 0x00007ff8bbc5acc7 UE4Editor-Engine.dll!UnknownFunction []
[2021.03.13-17.41.03:170][106]LogOutputDevice: Error: [Callstack] 0x00007ff8bbc6410c UE4Editor-Engine.dll!UnknownFunction []
[2021.03.13-17.41.03:170][106]LogOutputDevice: Error: [Callstack] 0x00007ff8bc5986ef UE4Editor-Engine.dll!UnknownFunction []
[2021.03.13-17.41.03:170][106]LogOutputDevice: Error: [Callstack] 0x00007ff8bcfd88ed UE4Editor-Engine.dll!UnknownFunction []
[2021.03.13-17.41.03:170][106]LogOutputDevice: Error: [Callstack] 0x00007ff8bc5a9209 UE4Editor-Engine.dll!UnknownFunction []
[2021.03.13-17.41.03:170][106]LogOutputDevice: Error: [Callstack] 0x00007ff8bd02cd68 UE4Editor-Engine.dll!UnknownFunction []
[2021.03.13-17.41.03:170][106]LogOutputDevice: Error: [Callstack] 0x00007ff8bcff4ec2 UE4Editor-Engine.dll!UnknownFunction []
[2021.03.13-17.41.03:170][106]LogOutputDevice: Error: [Callstack] 0x00007ff8bcf03b16 UE4Editor-Engine.dll!UnknownFunction []
[2021.03.13-17.41.03:170][106]LogOutputDevice: Error: [Callstack] 0x00007ff8bceb0f52 UE4Editor-Engine.dll!UnknownFunction []
[2021.03.13-17.41.03:170][106]LogOutputDevice: Error: [Callstack] 0x00007ff8bcf231ed UE4Editor-Engine.dll!UnknownFunction []
[2021.03.13-17.41.03:170][106]LogOutputDevice: Error: [Callstack] 0x00007ff8bc37693d UE4Editor-Engine.dll!UnknownFunction []
[2021.03.13-17.41.03:170][106]LogOutputDevice: Error: [Callstack] 0x00007ff7ce819bda UE4Editor.exe!UnknownFunction []
[2021.03.13-17.41.03:170][106]LogOutputDevice: Error: [Callstack] 0x00007ff7ce8311ac UE4Editor.exe!UnknownFunction []
[2021.03.13-17.41.03:170][106]LogOutputDevice: Error: [Callstack] 0x00007ff7ce83128a UE4Editor.exe!UnknownFunction []
[2021.03.13-17.41.03:170][106]LogOutputDevice: Error: [Callstack] 0x00007ff7ce8452ed UE4Editor.exe!UnknownFunction []
[2021.03.13-17.41.03:170][106]LogOutputDevice: Error: [Callstack] 0x00007ff7ce84801a UE4Editor.exe!UnknownFunction []
[2021.03.13-17.41.03:170][106]LogOutputDevice: Error: [Callstack] 0x00007ff9179d7c24 KERNEL32.DLL!UnknownFunction []
[2021.03.13-17.41.03:170][106]LogOutputDevice: Error: [Callstack] 0x00007ff91916d721 ntdll.dll!UnknownFunction []
[2021.03.13-17.41.03:170][106]LogOutputDevice: Error: 
