﻿Log file open, 02/26/21 13:10:11
LogInit: LLM is enabled
LogInit: LLM CsvWriter: off TraceWriter: off
LogInit: Display: Running engine for game: RaceGame
LogPlatformFile: Not using cached read wrapper
LogTaskGraph: Started task graph with 5 named threads and 35 total threads with 3 sets of task threads.
LogStats: Stats thread started at 0.176928
LogD3D11RHI: Loaded GFSDK_Aftermath_Lib.x64.dll
LogICUInternationalization: ICU TimeZone Detection - Raw Offset: +3:00, Platform Override: ''
LogPluginManager: Mounting plugin MeshPainting
LogPluginManager: Mounting plugin XGEController
LogPluginManager: Mounting plugin Paper2D
LogPluginManager: Mounting plugin EnvironmentQueryEditor
LogPluginManager: Mounting plugin AISupport
LogPluginManager: Mounting plugin LightPropagationVolume
LogPluginManager: Mounting plugin AssetManagerEditor
LogPluginManager: Mounting plugin CurveEditorTools
LogPluginManager: Mounting plugin FacialAnimation
LogPluginManager: Mounting plugin DataValidation
LogPluginManager: Mounting plugin CryptoKeys
LogPluginManager: Mounting plugin GameplayTagsEditor
LogPluginManager: Mounting plugin GeometryMode
LogPluginManager: Mounting plugin MaterialAnalyzer
LogPluginManager: Mounting plugin MacGraphicsSwitching
LogPluginManager: Mounting plugin MobileLauncherProfileWizard
LogPluginManager: Mounting plugin PluginBrowser
LogPluginManager: Mounting plugin SpeedTreeImporter
LogPluginManager: Mounting plugin DatasmithContent
LogPluginManager: Mounting plugin VariantManagerContent
LogPluginManager: Mounting plugin Niagara
LogPluginManager: Mounting plugin LuminPlatformFeatures
LogPluginManager: Mounting plugin MagicLeap
LogPluginManager: Mounting plugin MagicLeapLightEstimation
LogPluginManager: Mounting plugin MagicLeapMedia
LogPluginManager: Mounting plugin MagicLeapPassableWorld
LogPluginManager: Mounting plugin MLSDK
LogPluginManager: Mounting plugin AndroidMedia
LogPluginManager: Mounting plugin AvfMedia
LogPluginManager: Mounting plugin ImgMedia
LogPluginManager: Mounting plugin MediaCompositing
LogPluginManager: Mounting plugin MediaPlayerEditor
LogPluginManager: Mounting plugin WebMMedia
LogPluginManager: Mounting plugin WmfMedia
LogPluginManager: Mounting plugin TcpMessaging
LogPluginManager: Mounting plugin UdpMessaging
LogPluginManager: Mounting plugin LauncherChunkInstaller
LogPluginManager: Mounting plugin OnlineSubsystem
LogPluginManager: Mounting plugin OnlineSubsystemNull
LogPluginManager: Mounting plugin OnlineSubsystemUtils
LogPluginManager: Mounting plugin ScreenshotTools
LogPluginManager: Mounting plugin ActorLayerUtilities
LogPluginManager: Mounting plugin AndroidDeviceProfileSelector
LogPluginManager: Mounting plugin AndroidMoviePlayer
LogPluginManager: Mounting plugin AndroidPermission
LogPluginManager: Mounting plugin AppleImageUtils
LogPluginManager: Mounting plugin AppleMoviePlayer
LogPluginManager: Mounting plugin ArchVisCharacter
LogPluginManager: Mounting plugin AssetTags
LogPluginManager: Mounting plugin AudioCapture
LogPluginManager: Mounting plugin AudioSynesthesia
LogPluginManager: Mounting plugin ChunkDownloader
LogPluginManager: Mounting plugin CustomMeshComponent
LogPluginManager: Mounting plugin EditableMesh
LogPluginManager: Mounting plugin ExampleDeviceProfileSelector
LogPluginManager: Mounting plugin CableComponent
LogPluginManager: Mounting plugin GoogleCloudMessaging
LogPluginManager: Mounting plugin GooglePAD
LogPluginManager: Mounting plugin IOSDeviceProfileSelector
LogPluginManager: Mounting plugin LinuxDeviceProfileSelector
LogPluginManager: Mounting plugin LocationServicesBPLibrary
LogPluginManager: Mounting plugin MobilePatchingUtils
LogPluginManager: Mounting plugin PhysXVehicles
LogPluginManager: Mounting plugin PostSplashScreen
LogPluginManager: Mounting plugin PropertyAccessEditor
LogPluginManager: Mounting plugin ProceduralMeshComponent
LogPluginManager: Mounting plugin RuntimePhysXCooking
LogPluginManager: Mounting plugin SignificanceManager
LogPluginManager: Mounting plugin SoundFields
LogPluginManager: Mounting plugin WebMMoviePlayer
LogPluginManager: Mounting plugin Synthesis
LogPluginManager: Mounting plugin WindowsMoviePlayer
LogPluginManager: Mounting plugin ActorSequence
LogPluginManager: Mounting plugin LevelSequenceEditor
LogPluginManager: Mounting plugin MatineeToLevelSequence
LogPluginManager: Mounting plugin AnimationSharing
LogPluginManager: Mounting plugin TemplateSequence
LogPluginManager: Mounting plugin CLionSourceCodeAccess
LogPluginManager: Mounting plugin CodeLiteSourceCodeAccess
LogPluginManager: Mounting plugin GitSourceControl
LogPluginManager: Mounting plugin KDevelopSourceCodeAccess
LogPluginManager: Mounting plugin NullSourceCodeAccess
LogPluginManager: Mounting plugin PluginUtils
LogPluginManager: Mounting plugin PerforceSourceControl
LogPluginManager: Mounting plugin PlasticSourceControl
LogPluginManager: Mounting plugin PropertyAccessNode
LogPluginManager: Mounting plugin RiderSourceCodeAccess
LogPluginManager: Mounting plugin SubversionSourceControl
LogPluginManager: Mounting plugin UObjectPlugin
LogPluginManager: Mounting plugin VisualStudioCodeSourceCodeAccess
LogPluginManager: Mounting plugin XCodeSourceCodeAccess
LogPluginManager: Mounting plugin VisualStudioSourceCodeAccess
LogPluginManager: Mounting plugin CameraShakePreviewer
LogPluginManager: Mounting plugin AlembicImporter
LogPluginManager: Mounting plugin BackChannel
LogPluginManager: Mounting plugin AutomationUtils
LogPluginManager: Mounting plugin ChaosClothEditor
LogPluginManager: Mounting plugin ChaosEditor
LogPluginManager: Mounting plugin ChaosCloth
LogPluginManager: Mounting plugin ChaosSolverPlugin
LogPluginManager: Mounting plugin ChaosNiagara
LogPluginManager: Mounting plugin CharacterAI
LogPluginManager: Mounting plugin GeometryCache
LogPluginManager: Mounting plugin GeometryCollectionPlugin
LogPluginManager: Mounting plugin GeometryProcessing
LogPluginManager: Mounting plugin PlanarCut
LogPluginManager: Mounting plugin MotoSynth
LogPluginManager: Mounting plugin ProxyLODPlugin
LogPluginManager: Mounting plugin PlatformCrypto
LogPluginManager: Mounting plugin SkeletalReduction
LogPluginManager: Mounting plugin ContentBrowserClassDataSource
LogPluginManager: Mounting plugin ContentBrowserAssetDataSource
LogPluginManager: Mounting plugin OnlineSubsystemIOS
LogPluginManager: Mounting plugin OnlineSubsystemGooglePlay
LogPluginManager: Mounting plugin OculusVR
LogPluginManager: Mounting plugin SteamVR
LogXGEController: Cleaning working directory: C:/Users/maxim/AppData/Local/Temp/UnrealXGEWorkingDir/
LogXGEController: Cannot use XGE Controller as Incredibuild is not installed on this machine.
LogInit: Using libcurl 7.55.1-DEV
LogInit:  - built for x86_64-pc-win32
LogInit:  - supports SSL with OpenSSL/1.1.1
LogInit:  - supports HTTP deflate (compression) using libz 1.2.8
LogInit:  - other features:
LogInit:      CURL_VERSION_SSL
LogInit:      CURL_VERSION_LIBZ
LogInit:      CURL_VERSION_IPV6
LogInit:      CURL_VERSION_ASYNCHDNS
LogInit:      CURL_VERSION_LARGEFILE
LogInit:      CURL_VERSION_IDN
LogInit:  CurlRequestOptions (configurable via config and command line):
LogInit:  - bVerifyPeer = true  - Libcurl will verify peer certificate
LogInit:  - bUseHttpProxy = false  - Libcurl will NOT use HTTP proxy
LogInit:  - bDontReuseConnections = false  - Libcurl will reuse connections
LogInit:  - MaxHostConnections = 16  - Libcurl will limit the number of connections to a host
LogInit:  - LocalHostAddr = Default
LogInit:  - BufferSize = 65536
LogOnline: OSS: Creating online subsystem instance for: NULL
LogInit: WinSock: version 1.1 (2.2), MaxSocks=32767, MaxUdp=65467
LogOnline: OSS: TryLoadSubsystemAndSetDefault: Loaded subsystem for module [NULL]
LogInit: Build: ++UE4+Release-4.26-CL-15228867
LogInit: Engine Version: 4.26.1-15228867+++UE4+Release-4.26
LogInit: Compatible Engine Version: 4.26.0-14830424+++UE4+Release-4.26
LogInit: Net CL: 14830424
LogInit: OS: Windows 10 (Release 1909) (), CPU: AMD Ryzen 5 3600 6-Core Processor              , GPU: NVIDIA GeForce GTX 1070
LogInit: Compiled (64-bit): Jan 28 2021 07:07:34
LogInit: Compiled with Visual C++: 19.24.28315.00
LogInit: Build Configuration: Development
LogInit: Branch Name: ++UE4+Release-4.26
LogInit: Command Line: 
LogInit: Base Directory: F:/Unreal/UE_4.26/Engine/Binaries/Win64/
LogInit: Allocator: TBB
LogInit: Installed Engine Build: 1
LogDevObjectVersion: Number of dev versions registered: 29
LogDevObjectVersion:   Dev-Blueprints (B0D832E4-1F89-4F0D-ACCF-7EB736FD4AA2): 10
LogDevObjectVersion:   Dev-Build (E1C64328-A22C-4D53-A36C-8E866417BD8C): 0
LogDevObjectVersion:   Dev-Core (375EC13C-06E4-48FB-B500-84F0262A717E): 4
LogDevObjectVersion:   Dev-Editor (E4B068ED-F494-42E9-A231-DA0B2E46BB41): 40
LogDevObjectVersion:   Dev-Framework (CFFC743F-43B0-4480-9391-14DF171D2073): 37
LogDevObjectVersion:   Dev-Mobile (B02B49B5-BB20-44E9-A304-32B752E40360): 3
LogDevObjectVersion:   Dev-Networking (A4E4105C-59A1-49B5-A7C5-40C4547EDFEE): 0
LogDevObjectVersion:   Dev-Online (39C831C9-5AE6-47DC-9A44-9C173E1C8E7C): 0
LogDevObjectVersion:   Dev-Physics (78F01B33-EBEA-4F98-B9B4-84EACCB95AA2): 4
LogDevObjectVersion:   Dev-Platform (6631380F-2D4D-43E0-8009-CF276956A95A): 0
LogDevObjectVersion:   Dev-Rendering (12F88B9F-8875-4AFC-A67C-D90C383ABD29): 44
LogDevObjectVersion:   Dev-Sequencer (7B5AE74C-D270-4C10-A958-57980B212A5A): 12
LogDevObjectVersion:   Dev-VR (D7296918-1DD6-4BDD-9DE2-64A83CC13884): 3
LogDevObjectVersion:   Dev-LoadTimes (C2A15278-BFE7-4AFE-6C17-90FF531DF755): 1
LogDevObjectVersion:   Private-Geometry (6EACA3D4-40EC-4CC1-B786-8BED09428FC5): 3
LogDevObjectVersion:   Dev-AnimPhys (29E575DD-E0A3-4627-9D10-D276232CDCEA): 17
LogDevObjectVersion:   Dev-Anim (AF43A65D-7FD3-4947-9873-3E8ED9C1BB05): 15
LogDevObjectVersion:   Dev-ReflectionCapture (6B266CEC-1EC7-4B8F-A30B-E4D90942FC07): 1
LogDevObjectVersion:   Dev-Automation (0DF73D61-A23F-47EA-B727-89E90C41499A): 1
LogDevObjectVersion:   FortniteMain (601D1886-AC64-4F84-AA16-D3DE0DEAC7D6): 43
LogDevObjectVersion:   FortniteRelease (E7086368-6B23-4C58-8439-1B7016265E91): 1
LogDevObjectVersion:   Dev-Enterprise (9DFFBCD6-494F-0158-E221-12823C92A888): 10
LogDevObjectVersion:   Dev-Niagara (F2AED0AC-9AFE-416F-8664-AA7FFA26D6FC): 1
LogDevObjectVersion:   Dev-Destruction (174F1F0B-B4C6-45A5-B13F-2EE8D0FB917D): 10
LogDevObjectVersion:   Dev-Physics-Ext (35F94A83-E258-406C-A318-09F59610247C): 40
LogDevObjectVersion:   Dev-PhysicsMaterial-Chaos (B68FC16E-8B1B-42E2-B453-215C058844FE): 1
LogDevObjectVersion:   Dev-CineCamera (B2E18506-4273-CFC2-A54E-F4BB758BBA07): 1
LogDevObjectVersion:   Dev-VirtualProduction (64F58936-FD1B-42BA-BA96-7289D5D0FA4E): 1
LogDevObjectVersion:   Dev-MediaFramework (6F0ED827-A609-4895-9C91-998D90180EA4): 2
LogInit: Presizing for max 25165824 objects, including 0 objects not considered by GC, pre-allocating 0 bytes for permanent pool.
LogConfig: Applying CVar settings from Section [/Script/Engine.StreamingSettings] File [F:/Project/RaceGame/RaceGame/Saved/Config/Windows/Engine.ini]
LogConfig: Setting CVar [[s.MinBulkDataSizeForAsyncLoading:131072]]
LogConfig: Setting CVar [[s.AsyncLoadingThreadEnabled:0]]
LogConfig: Setting CVar [[s.EventDrivenLoaderEnabled:1]]
LogConfig: Setting CVar [[s.WarnIfTimeLimitExceeded:0]]
LogConfig: Setting CVar [[s.TimeLimitExceededMultiplier:1.5]]
LogConfig: Setting CVar [[s.TimeLimitExceededMinTime:0.005]]
LogConfig: Setting CVar [[s.UseBackgroundLevelStreaming:1]]
LogConfig: Setting CVar [[s.PriorityAsyncLoadingExtraTime:15.0]]
LogConfig: Setting CVar [[s.LevelStreamingActorsUpdateTimeLimit:5.0]]
LogConfig: Setting CVar [[s.PriorityLevelStreamingActorsUpdateExtraTime:5.0]]
LogConfig: Setting CVar [[s.LevelStreamingComponentsRegistrationGranularity:10]]
LogConfig: Setting CVar [[s.UnregisterComponentsTimeLimit:1.0]]
LogConfig: Setting CVar [[s.LevelStreamingComponentsUnregistrationGranularity:5]]
LogConfig: Setting CVar [[s.FlushStreamingOnExit:1]]
LogInit: Object subsystem initialized
LogConfig: Setting CVar [[con.DebugEarlyDefault:1]]
LogConfig: Setting CVar [[r.setres:1280x720]]
[2021.02.26-10.10.11:518][  0]LogConfig: Setting CVar [[r.VSync:0]]
[2021.02.26-10.10.11:518][  0]LogConfig: Setting CVar [[r.RHICmdBypass:0]]
[2021.02.26-10.10.11:518][  0]LogConfig: Applying CVar settings from Section [/Script/Engine.RendererSettings] File [F:/Project/RaceGame/RaceGame/Saved/Config/Windows/Engine.ini]
[2021.02.26-10.10.11:518][  0]LogConfig: Setting CVar [[r.GPUCrashDebugging:0]]
[2021.02.26-10.10.11:518][  0]LogConfig: Applying CVar settings from Section [/Script/Engine.RendererOverrideSettings] File [F:/Project/RaceGame/RaceGame/Saved/Config/Windows/Engine.ini]
[2021.02.26-10.10.11:518][  0]LogConfig: Applying CVar settings from Section [/Script/Engine.StreamingSettings] File [F:/Project/RaceGame/RaceGame/Saved/Config/Windows/Engine.ini]
[2021.02.26-10.10.11:518][  0]LogConfig: Setting CVar [[s.MinBulkDataSizeForAsyncLoading:131072]]
[2021.02.26-10.10.11:518][  0]LogConfig: Setting CVar [[s.AsyncLoadingThreadEnabled:0]]
[2021.02.26-10.10.11:518][  0]LogConfig: Setting CVar [[s.EventDrivenLoaderEnabled:1]]
[2021.02.26-10.10.11:518][  0]LogConfig: Setting CVar [[s.WarnIfTimeLimitExceeded:0]]
[2021.02.26-10.10.11:518][  0]LogConfig: Setting CVar [[s.TimeLimitExceededMultiplier:1.5]]
[2021.02.26-10.10.11:518][  0]LogConfig: Setting CVar [[s.TimeLimitExceededMinTime:0.005]]
[2021.02.26-10.10.11:518][  0]LogConfig: Setting CVar [[s.UseBackgroundLevelStreaming:1]]
[2021.02.26-10.10.11:518][  0]LogConfig: Setting CVar [[s.PriorityAsyncLoadingExtraTime:15.0]]
[2021.02.26-10.10.11:518][  0]LogConfig: Setting CVar [[s.LevelStreamingActorsUpdateTimeLimit:5.0]]
[2021.02.26-10.10.11:518][  0]LogConfig: Setting CVar [[s.PriorityLevelStreamingActorsUpdateExtraTime:5.0]]
[2021.02.26-10.10.11:518][  0]LogConfig: Setting CVar [[s.LevelStreamingComponentsRegistrationGranularity:10]]
[2021.02.26-10.10.11:518][  0]LogConfig: Setting CVar [[s.UnregisterComponentsTimeLimit:1.0]]
[2021.02.26-10.10.11:518][  0]LogConfig: Setting CVar [[s.LevelStreamingComponentsUnregistrationGranularity:5]]
[2021.02.26-10.10.11:518][  0]LogConfig: Setting CVar [[s.FlushStreamingOnExit:1]]
[2021.02.26-10.10.11:518][  0]LogConfig: Applying CVar settings from Section [/Script/Engine.GarbageCollectionSettings] File [F:/Project/RaceGame/RaceGame/Saved/Config/Windows/Engine.ini]
[2021.02.26-10.10.11:518][  0]LogConfig: Setting CVar [[gc.MaxObjectsNotConsideredByGC:1]]
[2021.02.26-10.10.11:518][  0]LogConfig: Setting CVar [[gc.SizeOfPermanentObjectPool:0]]
[2021.02.26-10.10.11:518][  0]LogConfig: Setting CVar [[gc.FlushStreamingOnGC:0]]
[2021.02.26-10.10.11:518][  0]LogConfig: Setting CVar [[gc.NumRetriesBeforeForcingGC:10]]
[2021.02.26-10.10.11:518][  0]LogConfig: Setting CVar [[gc.AllowParallelGC:1]]
[2021.02.26-10.10.11:518][  0]LogConfig: Setting CVar [[gc.TimeBetweenPurgingPendingKillObjects:61.1]]
[2021.02.26-10.10.11:518][  0]LogConfig: Setting CVar [[gc.MaxObjectsInEditor:25165824]]
[2021.02.26-10.10.11:518][  0]LogConfig: Setting CVar [[gc.IncrementalBeginDestroyEnabled:1]]
[2021.02.26-10.10.11:518][  0]LogConfig: Setting CVar [[gc.CreateGCClusters:1]]
[2021.02.26-10.10.11:518][  0]LogConfig: Setting CVar [[gc.MinGCClusterSize:5]]
[2021.02.26-10.10.11:518][  0]LogConfig: Setting CVar [[gc.ActorClusteringEnabled:0]]
[2021.02.26-10.10.11:518][  0]LogConfig: Setting CVar [[gc.BlueprintClusteringEnabled:0]]
[2021.02.26-10.10.11:518][  0]LogConfig: Setting CVar [[gc.UseDisregardForGCOnDedicatedServers:0]]
[2021.02.26-10.10.11:519][  0]LogConfig: Setting CVar [[gc.MultithreadedDestructionEnabled:1]]
[2021.02.26-10.10.11:519][  0]LogConfig: Applying CVar settings from Section [/Script/Engine.NetworkSettings] File [F:/Project/RaceGame/RaceGame/Saved/Config/Windows/Engine.ini]
[2021.02.26-10.10.11:519][  0]LogConfig: Applying CVar settings from Section [/Script/UnrealEd.CookerSettings] File [F:/Project/RaceGame/RaceGame/Saved/Config/Windows/Engine.ini]
[2021.02.26-10.10.11:523][  0]LogConfig: Applying CVar settings from Section [ViewDistanceQuality@3] File [F:/Project/RaceGame/RaceGame/Saved/Config/Windows/Scalability.ini]
[2021.02.26-10.10.11:523][  0]LogConfig: Setting CVar [[r.SkeletalMeshLODBias:0]]
[2021.02.26-10.10.11:523][  0]LogConfig: Setting CVar [[r.ViewDistanceScale:1.0]]
[2021.02.26-10.10.11:523][  0]LogConfig: Applying CVar settings from Section [AntiAliasingQuality@3] File [F:/Project/RaceGame/RaceGame/Saved/Config/Windows/Scalability.ini]
[2021.02.26-10.10.11:523][  0]LogConfig: Setting CVar [[r.PostProcessAAQuality:4]]
[2021.02.26-10.10.11:523][  0]LogConfig: Applying CVar settings from Section [ShadowQuality@3] File [F:/Project/RaceGame/RaceGame/Saved/Config/Windows/Scalability.ini]
[2021.02.26-10.10.11:524][  0]LogConfig: Setting CVar [[r.LightFunctionQuality:1]]
[2021.02.26-10.10.11:524][  0]LogConfig: Setting CVar [[r.ShadowQuality:5]]
[2021.02.26-10.10.11:524][  0]LogConfig: Setting CVar [[r.Shadow.CSM.MaxCascades:10]]
[2021.02.26-10.10.11:524][  0]LogConfig: Setting CVar [[r.Shadow.MaxResolution:2048]]
[2021.02.26-10.10.11:524][  0]LogConfig: Setting CVar [[r.Shadow.MaxCSMResolution:2048]]
[2021.02.26-10.10.11:524][  0]LogConfig: Setting CVar [[r.Shadow.RadiusThreshold:0.01]]
[2021.02.26-10.10.11:524][  0]LogConfig: Setting CVar [[r.Shadow.DistanceScale:1.0]]
[2021.02.26-10.10.11:524][  0]LogConfig: Setting CVar [[r.Shadow.CSM.TransitionScale:1.0]]
[2021.02.26-10.10.11:524][  0]LogConfig: Setting CVar [[r.Shadow.PreShadowResolutionFactor:1.0]]
[2021.02.26-10.10.11:524][  0]LogConfig: Setting CVar [[r.DistanceFieldShadowing:1]]
[2021.02.26-10.10.11:524][  0]LogConfig: Setting CVar [[r.DistanceFieldAO:1]]
[2021.02.26-10.10.11:524][  0]LogConfig: Setting CVar [[r.AOQuality:2]]
[2021.02.26-10.10.11:524][  0]LogConfig: Setting CVar [[r.VolumetricFog:1]]
[2021.02.26-10.10.11:524][  0]LogConfig: Setting CVar [[r.VolumetricFog.GridPixelSize:8]]
[2021.02.26-10.10.11:524][  0]LogConfig: Setting CVar [[r.VolumetricFog.GridSizeZ:128]]
[2021.02.26-10.10.11:524][  0]LogConfig: Setting CVar [[r.VolumetricFog.HistoryMissSupersampleCount:4]]
[2021.02.26-10.10.11:524][  0]LogConfig: Setting CVar [[r.LightMaxDrawDistanceScale:1]]
[2021.02.26-10.10.11:524][  0]LogConfig: Setting CVar [[r.CapsuleShadows:1]]
[2021.02.26-10.10.11:524][  0]LogConfig: Applying CVar settings from Section [PostProcessQuality@3] File [F:/Project/RaceGame/RaceGame/Saved/Config/Windows/Scalability.ini]
[2021.02.26-10.10.11:524][  0]LogConfig: Setting CVar [[r.MotionBlurQuality:4]]
[2021.02.26-10.10.11:524][  0]LogConfig: Setting CVar [[r.AmbientOcclusionMipLevelFactor:0.4]]
[2021.02.26-10.10.11:524][  0]LogConfig: Setting CVar [[r.AmbientOcclusionMaxQuality:100]]
[2021.02.26-10.10.11:524][  0]LogConfig: Setting CVar [[r.AmbientOcclusionLevels:-1]]
[2021.02.26-10.10.11:524][  0]LogConfig: Setting CVar [[r.AmbientOcclusionRadiusScale:1.0]]
[2021.02.26-10.10.11:524][  0]LogConfig: Setting CVar [[r.DepthOfFieldQuality:2]]
[2021.02.26-10.10.11:524][  0]LogConfig: Setting CVar [[r.RenderTargetPoolMin:400]]
[2021.02.26-10.10.11:524][  0]LogConfig: Setting CVar [[r.LensFlareQuality:2]]
[2021.02.26-10.10.11:524][  0]LogConfig: Setting CVar [[r.SceneColorFringeQuality:1]]
[2021.02.26-10.10.11:524][  0]LogConfig: Setting CVar [[r.EyeAdaptationQuality:2]]
[2021.02.26-10.10.11:524][  0]LogConfig: Setting CVar [[r.BloomQuality:5]]
[2021.02.26-10.10.11:524][  0]LogConfig: Setting CVar [[r.FastBlurThreshold:100]]
[2021.02.26-10.10.11:524][  0]LogConfig: Setting CVar [[r.Upscale.Quality:3]]
[2021.02.26-10.10.11:524][  0]LogConfig: Setting CVar [[r.Tonemapper.GrainQuantization:1]]
[2021.02.26-10.10.11:524][  0]LogConfig: Setting CVar [[r.LightShaftQuality:1]]
[2021.02.26-10.10.11:524][  0]LogConfig: Setting CVar [[r.Filter.SizeScale:1]]
[2021.02.26-10.10.11:524][  0]LogConfig: Setting CVar [[r.Tonemapper.Quality:5]]
[2021.02.26-10.10.11:524][  0]LogConfig: Setting CVar [[r.DOF.Gather.AccumulatorQuality:1        ; higher gathering accumulator quality]]
[2021.02.26-10.10.11:524][  0]LogConfig: Setting CVar [[r.DOF.Gather.PostfilterMethod:1          ; Median3x3 postfilering method]]
[2021.02.26-10.10.11:524][  0]LogConfig: Setting CVar [[r.DOF.Gather.EnableBokehSettings:0       ; no bokeh simulation when gathering]]
[2021.02.26-10.10.11:524][  0]LogConfig: Setting CVar [[r.DOF.Gather.RingCount:4                 ; medium number of samples when gathering]]
[2021.02.26-10.10.11:524][  0]LogConfig: Setting CVar [[r.DOF.Scatter.ForegroundCompositing:1    ; additive foreground scattering]]
[2021.02.26-10.10.11:524][  0]LogConfig: Setting CVar [[r.DOF.Scatter.BackgroundCompositing:2    ; additive background scattering]]
[2021.02.26-10.10.11:524][  0]LogConfig: Setting CVar [[r.DOF.Scatter.EnableBokehSettings:1      ; bokeh simulation when scattering]]
[2021.02.26-10.10.11:524][  0]LogConfig: Setting CVar [[r.DOF.Scatter.MaxSpriteRatio:0.1         ; only a maximum of 10% of scattered bokeh]]
[2021.02.26-10.10.11:524][  0]LogConfig: Setting CVar [[r.DOF.Recombine.Quality:1                ; cheap slight out of focus]]
[2021.02.26-10.10.11:524][  0]LogConfig: Setting CVar [[r.DOF.Recombine.EnableBokehSettings:0    ; no bokeh simulation on slight out of focus]]
[2021.02.26-10.10.11:524][  0]LogConfig: Setting CVar [[r.DOF.TemporalAAQuality:1                ; more stable temporal accumulation]]
[2021.02.26-10.10.11:524][  0]LogConfig: Setting CVar [[r.DOF.Kernel.MaxForegroundRadius:0.025]]
[2021.02.26-10.10.11:524][  0]LogConfig: Setting CVar [[r.DOF.Kernel.MaxBackgroundRadius:0.025]]
[2021.02.26-10.10.11:524][  0]LogConfig: Applying CVar settings from Section [TextureQuality@3] File [F:/Project/RaceGame/RaceGame/Saved/Config/Windows/Scalability.ini]
[2021.02.26-10.10.11:524][  0]LogConfig: Setting CVar [[r.Streaming.MipBias:0]]
[2021.02.26-10.10.11:524][  0]LogConfig: Setting CVar [[r.Streaming.AmortizeCPUToGPUCopy:0]]
[2021.02.26-10.10.11:524][  0]LogConfig: Setting CVar [[r.Streaming.MaxNumTexturesToStreamPerFrame:0]]
[2021.02.26-10.10.11:524][  0]LogConfig: Setting CVar [[r.Streaming.Boost:1]]
[2021.02.26-10.10.11:524][  0]LogConfig: Setting CVar [[r.MaxAnisotropy:8]]
[2021.02.26-10.10.11:524][  0]LogConfig: Setting CVar [[r.VT.MaxAnisotropy:8]]
[2021.02.26-10.10.11:524][  0]LogConfig: Setting CVar [[r.Streaming.LimitPoolSizeToVRAM:0]]
[2021.02.26-10.10.11:524][  0]LogConfig: Setting CVar [[r.Streaming.PoolSize:1000]]
[2021.02.26-10.10.11:524][  0]LogConfig: Setting CVar [[r.Streaming.MaxEffectiveScreenSize:0]]
[2021.02.26-10.10.11:524][  0]LogConfig: Applying CVar settings from Section [EffectsQuality@3] File [F:/Project/RaceGame/RaceGame/Saved/Config/Windows/Scalability.ini]
[2021.02.26-10.10.11:524][  0]LogConfig: Setting CVar [[r.TranslucencyLightingVolumeDim:64]]
[2021.02.26-10.10.11:524][  0]LogConfig: Setting CVar [[r.RefractionQuality:2]]
[2021.02.26-10.10.11:524][  0]LogConfig: Setting CVar [[r.SSR.Quality:3]]
[2021.02.26-10.10.11:524][  0]LogConfig: Setting CVar [[r.SSR.HalfResSceneColor:0]]
[2021.02.26-10.10.11:524][  0]LogConfig: Setting CVar [[r.SceneColorFormat:4]]
[2021.02.26-10.10.11:524][  0]LogConfig: Setting CVar [[r.DetailMode:2]]
[2021.02.26-10.10.11:524][  0]LogConfig: Setting CVar [[r.TranslucencyVolumeBlur:1]]
[2021.02.26-10.10.11:524][  0]LogConfig: Setting CVar [[r.MaterialQualityLevel:1 ; High quality]]
[2021.02.26-10.10.11:524][  0]LogConfig: Setting CVar [[r.AnisotropicMaterials:1]]
[2021.02.26-10.10.11:524][  0]LogConfig: Setting CVar [[r.SSS.Scale:1]]
[2021.02.26-10.10.11:524][  0]LogConfig: Setting CVar [[r.SSS.SampleSet:2]]
[2021.02.26-10.10.11:524][  0]LogConfig: Setting CVar [[r.SSS.Quality:1]]
[2021.02.26-10.10.11:524][  0]LogConfig: Setting CVar [[r.SSS.HalfRes:0]]
[2021.02.26-10.10.11:524][  0]LogConfig: Setting CVar [[r.SSGI.Quality:3]]
[2021.02.26-10.10.11:524][  0]LogConfig: Setting CVar [[r.EmitterSpawnRateScale:1.0]]
[2021.02.26-10.10.11:524][  0]LogConfig: Setting CVar [[r.ParticleLightQuality:2]]
[2021.02.26-10.10.11:524][  0]LogConfig: Setting CVar [[r.SkyAtmosphere.AerialPerspectiveLUT.FastApplyOnOpaque:1 ; Always have FastSkyLUT 1 in this case to avoid wrong sky]]
[2021.02.26-10.10.11:524][  0]LogConfig: Setting CVar [[r.SkyAtmosphere.AerialPerspectiveLUT.SampleCountMaxPerSlice:4]]
[2021.02.26-10.10.11:524][  0]LogConfig: Setting CVar [[r.SkyAtmosphere.AerialPerspectiveLUT.DepthResolution:16.0]]
[2021.02.26-10.10.11:524][  0]LogConfig: Setting CVar [[r.SkyAtmosphere.FastSkyLUT:1]]
[2021.02.26-10.10.11:524][  0]LogConfig: Setting CVar [[r.SkyAtmosphere.FastSkyLUT.SampleCountMin:4.0]]
[2021.02.26-10.10.11:524][  0]LogConfig: Setting CVar [[r.SkyAtmosphere.FastSkyLUT.SampleCountMax:128.0]]
[2021.02.26-10.10.11:524][  0]LogConfig: Setting CVar [[r.SkyAtmosphere.SampleCountMin:4.0]]
[2021.02.26-10.10.11:524][  0]LogConfig: Setting CVar [[r.SkyAtmosphere.SampleCountMax:128.0]]
[2021.02.26-10.10.11:524][  0]LogConfig: Setting CVar [[r.SkyAtmosphere.TransmittanceLUT.UseSmallFormat:0]]
[2021.02.26-10.10.11:524][  0]LogConfig: Setting CVar [[r.SkyAtmosphere.TransmittanceLUT.SampleCount:10.0]]
[2021.02.26-10.10.11:524][  0]LogConfig: Setting CVar [[r.SkyAtmosphere.MultiScatteringLUT.SampleCount:15.0]]
[2021.02.26-10.10.11:524][  0]LogConfig: Applying CVar settings from Section [FoliageQuality@3] File [F:/Project/RaceGame/RaceGame/Saved/Config/Windows/Scalability.ini]
[2021.02.26-10.10.11:524][  0]LogConfig: Setting CVar [[foliage.DensityScale:1.0]]
[2021.02.26-10.10.11:524][  0]LogConfig: Setting CVar [[grass.DensityScale:1.0]]
[2021.02.26-10.10.11:524][  0]LogConfig: Applying CVar settings from Section [ShadingQuality@3] File [F:/Project/RaceGame/RaceGame/Saved/Config/Windows/Scalability.ini]
[2021.02.26-10.10.11:524][  0]LogConfig: Setting CVar [[r.HairStrands.SkyLighting.IntegrationType:2]]
[2021.02.26-10.10.11:524][  0]LogConfig: Setting CVar [[r.HairStrands.SkyAO.SampleCount:4]]
[2021.02.26-10.10.11:524][  0]LogConfig: Setting CVar [[r.HairStrands.Visibility.MSAA.SamplePerPixel:4]]
[2021.02.26-10.10.11:525][  0]LogInit: Selected Device Profile: [Windows]
[2021.02.26-10.10.11:525][  0]LogInit: Applying CVar settings loaded from the selected device profile: [Windows]
[2021.02.26-10.10.11:525][  0]LogHAL: Display: Platform has ~ 16 GB [17125625856 / 17179869184 / 16], which maps to Larger [LargestMinGB=32, LargerMinGB=12, DefaultMinGB=8, SmallerMinGB=6, SmallestMinGB=0)
[2021.02.26-10.10.11:525][  0]LogInit: Going up to parent DeviceProfile []
[2021.02.26-10.10.11:525][  0]LogConfig: Applying CVar settings from Section [ViewDistanceQuality@3] File [F:/Project/RaceGame/RaceGame/Saved/Config/Windows/Scalability.ini]
[2021.02.26-10.10.11:525][  0]LogConfig: Setting CVar [[r.SkeletalMeshLODBias:0]]
[2021.02.26-10.10.11:525][  0]LogConfig: Setting CVar [[r.ViewDistanceScale:1.0]]
[2021.02.26-10.10.11:525][  0]LogConfig: Applying CVar settings from Section [AntiAliasingQuality@3] File [F:/Project/RaceGame/RaceGame/Saved/Config/Windows/Scalability.ini]
[2021.02.26-10.10.11:525][  0]LogConfig: Setting CVar [[r.PostProcessAAQuality:4]]
[2021.02.26-10.10.11:525][  0]LogConfig: Applying CVar settings from Section [ShadowQuality@3] File [F:/Project/RaceGame/RaceGame/Saved/Config/Windows/Scalability.ini]
[2021.02.26-10.10.11:525][  0]LogConfig: Setting CVar [[r.LightFunctionQuality:1]]
[2021.02.26-10.10.11:525][  0]LogConfig: Setting CVar [[r.ShadowQuality:5]]
[2021.02.26-10.10.11:525][  0]LogConfig: Setting CVar [[r.Shadow.CSM.MaxCascades:10]]
[2021.02.26-10.10.11:525][  0]LogConfig: Setting CVar [[r.Shadow.MaxResolution:2048]]
[2021.02.26-10.10.11:525][  0]LogConfig: Setting CVar [[r.Shadow.MaxCSMResolution:2048]]
[2021.02.26-10.10.11:525][  0]LogConfig: Setting CVar [[r.Shadow.RadiusThreshold:0.01]]
[2021.02.26-10.10.11:525][  0]LogConfig: Setting CVar [[r.Shadow.DistanceScale:1.0]]
[2021.02.26-10.10.11:525][  0]LogConfig: Setting CVar [[r.Shadow.CSM.TransitionScale:1.0]]
[2021.02.26-10.10.11:525][  0]LogConfig: Setting CVar [[r.Shadow.PreShadowResolutionFactor:1.0]]
[2021.02.26-10.10.11:525][  0]LogConfig: Setting CVar [[r.DistanceFieldShadowing:1]]
[2021.02.26-10.10.11:525][  0]LogConfig: Setting CVar [[r.DistanceFieldAO:1]]
[2021.02.26-10.10.11:525][  0]LogConfig: Setting CVar [[r.AOQuality:2]]
[2021.02.26-10.10.11:525][  0]LogConfig: Setting CVar [[r.VolumetricFog:1]]
[2021.02.26-10.10.11:525][  0]LogConfig: Setting CVar [[r.VolumetricFog.GridPixelSize:8]]
[2021.02.26-10.10.11:525][  0]LogConfig: Setting CVar [[r.VolumetricFog.GridSizeZ:128]]
[2021.02.26-10.10.11:525][  0]LogConfig: Setting CVar [[r.VolumetricFog.HistoryMissSupersampleCount:4]]
[2021.02.26-10.10.11:525][  0]LogConfig: Setting CVar [[r.LightMaxDrawDistanceScale:1]]
[2021.02.26-10.10.11:525][  0]LogConfig: Setting CVar [[r.CapsuleShadows:1]]
[2021.02.26-10.10.11:525][  0]LogConfig: Applying CVar settings from Section [PostProcessQuality@3] File [F:/Project/RaceGame/RaceGame/Saved/Config/Windows/Scalability.ini]
[2021.02.26-10.10.11:525][  0]LogConfig: Setting CVar [[r.MotionBlurQuality:4]]
[2021.02.26-10.10.11:525][  0]LogConfig: Setting CVar [[r.AmbientOcclusionMipLevelFactor:0.4]]
[2021.02.26-10.10.11:525][  0]LogConfig: Setting CVar [[r.AmbientOcclusionMaxQuality:100]]
[2021.02.26-10.10.11:525][  0]LogConfig: Setting CVar [[r.AmbientOcclusionLevels:-1]]
[2021.02.26-10.10.11:525][  0]LogConfig: Setting CVar [[r.AmbientOcclusionRadiusScale:1.0]]
[2021.02.26-10.10.11:525][  0]LogConfig: Setting CVar [[r.DepthOfFieldQuality:2]]
[2021.02.26-10.10.11:525][  0]LogConfig: Setting CVar [[r.RenderTargetPoolMin:400]]
[2021.02.26-10.10.11:525][  0]LogConfig: Setting CVar [[r.LensFlareQuality:2]]
[2021.02.26-10.10.11:525][  0]LogConfig: Setting CVar [[r.SceneColorFringeQuality:1]]
[2021.02.26-10.10.11:525][  0]LogConfig: Setting CVar [[r.EyeAdaptationQuality:2]]
[2021.02.26-10.10.11:525][  0]LogConfig: Setting CVar [[r.BloomQuality:5]]
[2021.02.26-10.10.11:525][  0]LogConfig: Setting CVar [[r.FastBlurThreshold:100]]
[2021.02.26-10.10.11:525][  0]LogConfig: Setting CVar [[r.Upscale.Quality:3]]
[2021.02.26-10.10.11:525][  0]LogConfig: Setting CVar [[r.Tonemapper.GrainQuantization:1]]
[2021.02.26-10.10.11:525][  0]LogConfig: Setting CVar [[r.LightShaftQuality:1]]
[2021.02.26-10.10.11:525][  0]LogConfig: Setting CVar [[r.Filter.SizeScale:1]]
[2021.02.26-10.10.11:525][  0]LogConfig: Setting CVar [[r.Tonemapper.Quality:5]]
[2021.02.26-10.10.11:525][  0]LogConfig: Setting CVar [[r.DOF.Gather.AccumulatorQuality:1        ; higher gathering accumulator quality]]
[2021.02.26-10.10.11:525][  0]LogConfig: Setting CVar [[r.DOF.Gather.PostfilterMethod:1          ; Median3x3 postfilering method]]
[2021.02.26-10.10.11:525][  0]LogConfig: Setting CVar [[r.DOF.Gather.EnableBokehSettings:0       ; no bokeh simulation when gathering]]
[2021.02.26-10.10.11:525][  0]LogConfig: Setting CVar [[r.DOF.Gather.RingCount:4                 ; medium number of samples when gathering]]
[2021.02.26-10.10.11:525][  0]LogConfig: Setting CVar [[r.DOF.Scatter.ForegroundCompositing:1    ; additive foreground scattering]]
[2021.02.26-10.10.11:525][  0]LogConfig: Setting CVar [[r.DOF.Scatter.BackgroundCompositing:2    ; additive background scattering]]
[2021.02.26-10.10.11:525][  0]LogConfig: Setting CVar [[r.DOF.Scatter.EnableBokehSettings:1      ; bokeh simulation when scattering]]
[2021.02.26-10.10.11:525][  0]LogConfig: Setting CVar [[r.DOF.Scatter.MaxSpriteRatio:0.1         ; only a maximum of 10% of scattered bokeh]]
[2021.02.26-10.10.11:525][  0]LogConfig: Setting CVar [[r.DOF.Recombine.Quality:1                ; cheap slight out of focus]]
[2021.02.26-10.10.11:525][  0]LogConfig: Setting CVar [[r.DOF.Recombine.EnableBokehSettings:0    ; no bokeh simulation on slight out of focus]]
[2021.02.26-10.10.11:525][  0]LogConfig: Setting CVar [[r.DOF.TemporalAAQuality:1                ; more stable temporal accumulation]]
[2021.02.26-10.10.11:525][  0]LogConfig: Setting CVar [[r.DOF.Kernel.MaxForegroundRadius:0.025]]
[2021.02.26-10.10.11:525][  0]LogConfig: Setting CVar [[r.DOF.Kernel.MaxBackgroundRadius:0.025]]
[2021.02.26-10.10.11:525][  0]LogConfig: Applying CVar settings from Section [TextureQuality@3] File [F:/Project/RaceGame/RaceGame/Saved/Config/Windows/Scalability.ini]
[2021.02.26-10.10.11:525][  0]LogConfig: Setting CVar [[r.Streaming.MipBias:0]]
[2021.02.26-10.10.11:525][  0]LogConfig: Setting CVar [[r.Streaming.AmortizeCPUToGPUCopy:0]]
[2021.02.26-10.10.11:525][  0]LogConfig: Setting CVar [[r.Streaming.MaxNumTexturesToStreamPerFrame:0]]
[2021.02.26-10.10.11:525][  0]LogConfig: Setting CVar [[r.Streaming.Boost:1]]
[2021.02.26-10.10.11:525][  0]LogConfig: Setting CVar [[r.MaxAnisotropy:8]]
[2021.02.26-10.10.11:525][  0]LogConfig: Setting CVar [[r.VT.MaxAnisotropy:8]]
[2021.02.26-10.10.11:525][  0]LogConfig: Setting CVar [[r.Streaming.LimitPoolSizeToVRAM:0]]
[2021.02.26-10.10.11:525][  0]LogConfig: Setting CVar [[r.Streaming.PoolSize:1000]]
[2021.02.26-10.10.11:525][  0]LogConfig: Setting CVar [[r.Streaming.MaxEffectiveScreenSize:0]]
[2021.02.26-10.10.11:525][  0]LogConfig: Applying CVar settings from Section [EffectsQuality@3] File [F:/Project/RaceGame/RaceGame/Saved/Config/Windows/Scalability.ini]
[2021.02.26-10.10.11:525][  0]LogConfig: Setting CVar [[r.TranslucencyLightingVolumeDim:64]]
[2021.02.26-10.10.11:525][  0]LogConfig: Setting CVar [[r.RefractionQuality:2]]
[2021.02.26-10.10.11:525][  0]LogConfig: Setting CVar [[r.SSR.Quality:3]]
[2021.02.26-10.10.11:525][  0]LogConfig: Setting CVar [[r.SSR.HalfResSceneColor:0]]
[2021.02.26-10.10.11:525][  0]LogConfig: Setting CVar [[r.SceneColorFormat:4]]
[2021.02.26-10.10.11:525][  0]LogConfig: Setting CVar [[r.DetailMode:2]]
[2021.02.26-10.10.11:525][  0]LogConfig: Setting CVar [[r.TranslucencyVolumeBlur:1]]
[2021.02.26-10.10.11:525][  0]LogConfig: Setting CVar [[r.MaterialQualityLevel:1 ; High quality]]
[2021.02.26-10.10.11:525][  0]LogConfig: Setting CVar [[r.AnisotropicMaterials:1]]
[2021.02.26-10.10.11:525][  0]LogConfig: Setting CVar [[r.SSS.Scale:1]]
[2021.02.26-10.10.11:525][  0]LogConfig: Setting CVar [[r.SSS.SampleSet:2]]
[2021.02.26-10.10.11:525][  0]LogConfig: Setting CVar [[r.SSS.Quality:1]]
[2021.02.26-10.10.11:525][  0]LogConfig: Setting CVar [[r.SSS.HalfRes:0]]
[2021.02.26-10.10.11:525][  0]LogConfig: Setting CVar [[r.SSGI.Quality:3]]
[2021.02.26-10.10.11:525][  0]LogConfig: Setting CVar [[r.EmitterSpawnRateScale:1.0]]
[2021.02.26-10.10.11:525][  0]LogConfig: Setting CVar [[r.ParticleLightQuality:2]]
[2021.02.26-10.10.11:525][  0]LogConfig: Setting CVar [[r.SkyAtmosphere.AerialPerspectiveLUT.FastApplyOnOpaque:1 ; Always have FastSkyLUT 1 in this case to avoid wrong sky]]
[2021.02.26-10.10.11:525][  0]LogConfig: Setting CVar [[r.SkyAtmosphere.AerialPerspectiveLUT.SampleCountMaxPerSlice:4]]
[2021.02.26-10.10.11:525][  0]LogConfig: Setting CVar [[r.SkyAtmosphere.AerialPerspectiveLUT.DepthResolution:16.0]]
[2021.02.26-10.10.11:526][  0]LogConfig: Setting CVar [[r.SkyAtmosphere.FastSkyLUT:1]]
[2021.02.26-10.10.11:526][  0]LogConfig: Setting CVar [[r.SkyAtmosphere.FastSkyLUT.SampleCountMin:4.0]]
[2021.02.26-10.10.11:526][  0]LogConfig: Setting CVar [[r.SkyAtmosphere.FastSkyLUT.SampleCountMax:128.0]]
[2021.02.26-10.10.11:526][  0]LogConfig: Setting CVar [[r.SkyAtmosphere.SampleCountMin:4.0]]
[2021.02.26-10.10.11:526][  0]LogConfig: Setting CVar [[r.SkyAtmosphere.SampleCountMax:128.0]]
[2021.02.26-10.10.11:526][  0]LogConfig: Setting CVar [[r.SkyAtmosphere.TransmittanceLUT.UseSmallFormat:0]]
[2021.02.26-10.10.11:526][  0]LogConfig: Setting CVar [[r.SkyAtmosphere.TransmittanceLUT.SampleCount:10.0]]
[2021.02.26-10.10.11:526][  0]LogConfig: Setting CVar [[r.SkyAtmosphere.MultiScatteringLUT.SampleCount:15.0]]
[2021.02.26-10.10.11:526][  0]LogConfig: Applying CVar settings from Section [FoliageQuality@3] File [F:/Project/RaceGame/RaceGame/Saved/Config/Windows/Scalability.ini]
[2021.02.26-10.10.11:526][  0]LogConfig: Setting CVar [[foliage.DensityScale:1.0]]
[2021.02.26-10.10.11:526][  0]LogConfig: Setting CVar [[grass.DensityScale:1.0]]
[2021.02.26-10.10.11:526][  0]LogConfig: Applying CVar settings from Section [ShadingQuality@3] File [F:/Project/RaceGame/RaceGame/Saved/Config/Windows/Scalability.ini]
[2021.02.26-10.10.11:526][  0]LogConfig: Setting CVar [[r.HairStrands.SkyLighting.IntegrationType:2]]
[2021.02.26-10.10.11:526][  0]LogConfig: Setting CVar [[r.HairStrands.SkyAO.SampleCount:4]]
[2021.02.26-10.10.11:526][  0]LogConfig: Setting CVar [[r.HairStrands.Visibility.MSAA.SamplePerPixel:4]]
[2021.02.26-10.10.11:526][  0]LogConfig: Applying CVar settings from Section [Startup] File [../../../Engine/Config/ConsoleVariables.ini]
[2021.02.26-10.10.11:526][  0]LogConfig: Setting CVar [[net.UseAdaptiveNetUpdateFrequency:0]]
[2021.02.26-10.10.11:526][  0]LogConfig: Setting CVar [[p.chaos.AllowCreatePhysxBodies:1]]
[2021.02.26-10.10.11:526][  0]LogConfig: Setting CVar [[fx.SkipVectorVMBackendOptimizations:1]]
[2021.02.26-10.10.11:526][  0]LogConfig: Applying CVar settings from Section [ConsoleVariables] File [F:/Project/RaceGame/RaceGame/Saved/Config/Windows/Engine.ini]
[2021.02.26-10.10.11:526][  0]LogInit: Computer: DESKTOP-O81D5O1
[2021.02.26-10.10.11:526][  0]LogInit: User: maxim
[2021.02.26-10.10.11:526][  0]LogInit: CPU Page size=4096, Cores=6
[2021.02.26-10.10.11:526][  0]LogInit: High frequency timer resolution =10.000000 MHz
[2021.02.26-10.10.11:526][  0]LogMemory: Memory total: Physical=15.9GB (16GB approx)
[2021.02.26-10.10.11:526][  0]LogMemory: Platform Memory Stats for Windows
[2021.02.26-10.10.11:526][  0]LogMemory: Process Physical Memory: 136.49 MB used, 136.50 MB peak
[2021.02.26-10.10.11:526][  0]LogMemory: Process Virtual Memory: 111.99 MB used, 111.99 MB peak
[2021.02.26-10.10.11:526][  0]LogMemory: Physical Memory: 7304.08 MB used,  9028.19 MB free, 16332.27 MB total
[2021.02.26-10.10.11:526][  0]LogMemory: Virtual Memory: 134180592.00 MB used,  37133.55 MB free, 134217728.00 MB total
[2021.02.26-10.10.11:531][  0]LogWindows: WindowsPlatformFeatures enabled
[2021.02.26-10.10.11:562][  0]LogInit: Physics initialised using underlying interface: PhysX
[2021.02.26-10.10.11:564][  0]LogInit: Using OS detected language (ru-RU).
[2021.02.26-10.10.11:564][  0]LogInit: Using OS detected locale (ru-RU).
[2021.02.26-10.10.11:565][  0]LogTextLocalizationManager: No specific localization for 'ru-RU' exists, so the 'ru' localization will be used.
[2021.02.26-10.10.11:565][  0]LogTextLocalizationResource: LocRes '../../../Engine/Content/Localization/Editor/ru/Editor.locres' could not be opened for reading!
[2021.02.26-10.10.11:565][  0]LogTextLocalizationResource: LocRes '../../../Engine/Content/Localization/EditorTutorials/ru/EditorTutorials.locres' could not be opened for reading!
[2021.02.26-10.10.11:565][  0]LogTextLocalizationResource: LocRes '../../../Engine/Content/Localization/Keywords/ru/Keywords.locres' could not be opened for reading!
[2021.02.26-10.10.11:565][  0]LogTextLocalizationResource: LocRes '../../../Engine/Content/Localization/Category/ru/Category.locres' could not be opened for reading!
[2021.02.26-10.10.11:565][  0]LogTextLocalizationResource: LocRes '../../../Engine/Content/Localization/ToolTips/ru/ToolTips.locres' could not be opened for reading!
[2021.02.26-10.10.11:565][  0]LogTextLocalizationResource: LocRes '../../../Engine/Content/Localization/PropertyNames/ru/PropertyNames.locres' could not be opened for reading!
[2021.02.26-10.10.11:565][  0]LogTextLocalizationResource: LocRes '../../../Engine/Content/Localization/Engine/ru/Engine.locres' could not be opened for reading!
[2021.02.26-10.10.11:566][  0]LogInit: Setting process to per monitor DPI aware
[2021.02.26-10.10.11:575][  0]LogWindowsTextInputMethodSystem: Display: IME system deactivated.
[2021.02.26-10.10.11:594][  0]LogSlate: New Slate User Created.  User Index 0, Is Virtual User: 0
[2021.02.26-10.10.11:594][  0]LogSlate: Slate User Registered.  User Index 0, Is Virtual User: 0
[2021.02.26-10.10.11:689][  0]LogHMD: Failed to initialize OpenVR with code 110
[2021.02.26-10.10.11:689][  0]LogD3D11RHI: D3D11 min allowed feature level: 11_0
[2021.02.26-10.10.11:690][  0]LogD3D11RHI: D3D11 max allowed feature level: 11_0
[2021.02.26-10.10.11:690][  0]LogD3D11RHI: D3D11 adapters:
[2021.02.26-10.10.11:748][  0]LogD3D11RHI:    0. 'NVIDIA GeForce GTX 1070' (Feature Level 11_0)
[2021.02.26-10.10.11:748][  0]LogD3D11RHI:       8088/0/8166 MB DedicatedVideo/DedicatedSystem/SharedSystem, Outputs:1, VendorId:0x10de
[2021.02.26-10.10.11:750][  0]LogD3D11RHI:    1. 'Microsoft Basic Render Driver' (Feature Level 11_0)
[2021.02.26-10.10.11:750][  0]LogD3D11RHI:       0/0/8166 MB DedicatedVideo/DedicatedSystem/SharedSystem, Outputs:0, VendorId:0x1414
[2021.02.26-10.10.11:750][  0]LogD3D11RHI: Chosen D3D11 Adapter: 0
[2021.02.26-10.10.11:757][  0]LogD3D11RHI: Creating new Direct3DDevice
[2021.02.26-10.10.11:757][  0]LogD3D11RHI:     GPU DeviceId: 0x1b81 (for the marketing name, search the web for "GPU Device Id")
[2021.02.26-10.10.11:757][  0]LogWindows: EnumDisplayDevices:
[2021.02.26-10.10.11:757][  0]LogWindows:    0. 'NVIDIA GeForce GTX 1070' (P:1 D:1)
[2021.02.26-10.10.11:757][  0]LogWindows:    1. 'NVIDIA GeForce GTX 1070' (P:0 D:0)
[2021.02.26-10.10.11:757][  0]LogWindows:    2. 'NVIDIA GeForce GTX 1070' (P:0 D:0)
[2021.02.26-10.10.11:757][  0]LogWindows:    3. 'NVIDIA GeForce GTX 1070' (P:0 D:0)
[2021.02.26-10.10.11:757][  0]LogWindows: DebugString: FoundDriverCount:4 
[2021.02.26-10.10.11:757][  0]LogD3D11RHI:     Adapter Name: NVIDIA GeForce GTX 1070
[2021.02.26-10.10.11:757][  0]LogD3D11RHI:   Driver Version: 460.79 (internal:27.21.14.6079, unified:460.79)
[2021.02.26-10.10.11:757][  0]LogD3D11RHI:      Driver Date: 12-3-2020
[2021.02.26-10.10.11:757][  0]LogRHI: Texture pool is 5661 MB (70% of 8088 MB)
[2021.02.26-10.10.11:805][  0]LogD3D11RHI: RHI has support for 64 bit atomics
[2021.02.26-10.10.11:805][  0]LogD3D11RHI: Async texture creation enabled
[2021.02.26-10.10.11:805][  0]LogD3D11RHI: Array index from any shader is supported
[2021.02.26-10.10.11:824][  0]LogD3D11RHI: GPU Timing Frequency: 1000.000000 (Debug: 2 1)
[2021.02.26-10.10.11:825][  0]LogRHI: GeForceNow SDK initialized: 1
[2021.02.26-10.10.12:043][  0]LogTargetPlatformManager: Display: Loaded TargetPlatform 'AllDesktop'
[2021.02.26-10.10.12:060][  0]LogTargetPlatformManager: Display: Loaded TargetPlatform 'Android'
[2021.02.26-10.10.12:060][  0]LogTargetPlatformManager: Display: Loaded TargetPlatform 'Android_ASTC'
[2021.02.26-10.10.12:060][  0]LogTargetPlatformManager: Display: Loaded TargetPlatform 'Android_DXT'
[2021.02.26-10.10.12:061][  0]LogTargetPlatformManager: Display: Loaded TargetPlatform 'Android_ETC2'
[2021.02.26-10.10.12:061][  0]LogTargetPlatformManager: Display: Loaded TargetPlatform 'AndroidClient'
[2021.02.26-10.10.12:061][  0]LogTargetPlatformManager: Display: Loaded TargetPlatform 'Android_ASTCClient'
[2021.02.26-10.10.12:061][  0]LogTargetPlatformManager: Display: Loaded TargetPlatform 'Android_DXTClient'
[2021.02.26-10.10.12:061][  0]LogTargetPlatformManager: Display: Loaded TargetPlatform 'Android_ETC2Client'
[2021.02.26-10.10.12:061][  0]LogTargetPlatformManager: Display: Loaded TargetPlatform 'Android_Multi'
[2021.02.26-10.10.12:061][  0]LogTargetPlatformManager: Display: Loaded TargetPlatform 'Android_MultiClient'
[2021.02.26-10.10.12:079][  0]LogTargetPlatformManager: Display: Loaded TargetPlatform 'IOSClient'
[2021.02.26-10.10.12:079][  0]LogTargetPlatformManager: Display: Loaded TargetPlatform 'IOS'
[2021.02.26-10.10.12:087][  0]LogTargetPlatformManager: Display: Loaded TargetPlatform 'Linux'
[2021.02.26-10.10.12:094][  0]LogTargetPlatformManager: Display: Loaded TargetPlatform 'LinuxNoEditor'
[2021.02.26-10.10.12:101][  0]LogTargetPlatformManager: Display: Loaded TargetPlatform 'LinuxClient'
[2021.02.26-10.10.12:108][  0]LogTargetPlatformManager: Display: Loaded TargetPlatform 'LinuxServer'
[2021.02.26-10.10.12:115][  0]LogTargetPlatformManager: Display: Loaded TargetPlatform 'LinuxAArch64NoEditor'
[2021.02.26-10.10.12:122][  0]LogTargetPlatformManager: Display: Loaded TargetPlatform 'LinuxAArch64Client'
[2021.02.26-10.10.12:129][  0]LogTargetPlatformManager: Display: Loaded TargetPlatform 'LinuxAArch64Server'
[2021.02.26-10.10.12:148][  0]LogTargetPlatformManager: Display: Loaded TargetPlatform 'Lumin'
[2021.02.26-10.10.12:148][  0]LogTargetPlatformManager: Display: Loaded TargetPlatform 'LuminClient'
[2021.02.26-10.10.12:155][  0]LogTargetPlatformManager: Display: Loaded TargetPlatform 'MacNoEditor'
[2021.02.26-10.10.12:162][  0]LogTargetPlatformManager: Display: Loaded TargetPlatform 'Mac'
[2021.02.26-10.10.12:169][  0]LogTargetPlatformManager: Display: Loaded TargetPlatform 'MacClient'
[2021.02.26-10.10.12:176][  0]LogTargetPlatformManager: Display: Loaded TargetPlatform 'MacServer'
[2021.02.26-10.10.12:187][  0]LogTargetPlatformManager: Display: Loaded TargetPlatform 'TVOSClient'
[2021.02.26-10.10.12:187][  0]LogTargetPlatformManager: Display: Loaded TargetPlatform 'TVOS'
[2021.02.26-10.10.12:194][  0]LogTargetPlatformManager: Display: Loaded TargetPlatform 'WindowsNoEditor'
[2021.02.26-10.10.12:201][  0]LogTargetPlatformManager: Display: Loaded TargetPlatform 'Windows'
[2021.02.26-10.10.12:208][  0]LogTargetPlatformManager: Display: Loaded TargetPlatform 'WindowsClient'
[2021.02.26-10.10.12:215][  0]LogTargetPlatformManager: Display: Loaded TargetPlatform 'WindowsServer'
[2021.02.26-10.10.12:215][  0]LogTargetPlatformManager: Display: Building Assets For Windows
[2021.02.26-10.10.12:222][  0]LogAudioDebug: Display: Lib vorbis DLL was dynamically loaded.
[2021.02.26-10.10.12:274][  0]LogRendererCore: Ray tracing is disabled. Reason: r.RayTracing=0.
[2021.02.26-10.10.12:274][  0]LogShaderCompilers: Guid format shader working directory is 5 characters bigger than the processId version (../../../../../Project/RaceGame/RaceGame/Intermediate/Shaders/WorkingDirectory/20844/).
[2021.02.26-10.10.12:274][  0]LogShaderCompilers: Cleaned the shader compiler working directory 'C:/Users/maxim/AppData/Local/Temp/UnrealShaderWorkingDir/8F3E72224B20890227837EB863B60AFF/'.
[2021.02.26-10.10.12:274][  0]LogShaderCompilers: Cannot use XGE Shader Compiler as Incredibuild is not installed on this machine.
[2021.02.26-10.10.12:274][  0]LogShaderCompilers: Display: Using Local Shader Compiler.
[2021.02.26-10.10.12:905][  0]LogDerivedDataCache: Display: Max Cache Size: 512 MB
[2021.02.26-10.10.12:942][  0]LogDerivedDataCache: Loaded boot cache 0.04s 77MB C:/Users/maxim/AppData/Local/UnrealEngine/4.26/DerivedDataCache/Boot.ddc.
[2021.02.26-10.10.12:943][  0]LogDerivedDataCache: Display: Loaded Boot cache: C:/Users/maxim/AppData/Local/UnrealEngine/4.26/DerivedDataCache/Boot.ddc
[2021.02.26-10.10.12:943][  0]LogDerivedDataCache: FDerivedDataBackendGraph:  Pak pak cache file ../../../../../Project/RaceGame/RaceGame/DerivedDataCache/DDC.ddp not found, will not use a pak cache.
[2021.02.26-10.10.12:943][  0]LogDerivedDataCache: Unable to find inner node Pak for hierarchical cache Hierarchy.
[2021.02.26-10.10.12:943][  0]LogDerivedDataCache: FDerivedDataBackendGraph:  CompressedPak pak cache file ../../../../../Project/RaceGame/RaceGame/DerivedDataCache/Compressed.ddp not found, will not use a pak cache.
[2021.02.26-10.10.12:943][  0]LogDerivedDataCache: Unable to find inner node CompressedPak for hierarchical cache Hierarchy.
[2021.02.26-10.10.12:954][  0]LogDerivedDataCache: Display: Pak cache opened for reading ../../../Engine/DerivedDataCache/Compressed.ddp.
[2021.02.26-10.10.12:954][  0]LogDerivedDataCache: FDerivedDataBackendGraph:  EnterprisePak pak cache file ../../../Enterprise/DerivedDataCache/Compressed.ddp not found, will not use a pak cache.
[2021.02.26-10.10.12:954][  0]LogDerivedDataCache: Unable to find inner node EnterprisePak for hierarchical cache Hierarchy.
[2021.02.26-10.10.12:990][  0]LogDerivedDataCache: Speed tests for C:/Users/maxim/AppData/Local/UnrealEngine/Common/DerivedDataCache took 0.04 seconds
[2021.02.26-10.10.12:990][  0]LogDerivedDataCache: Display: Performance to C:/Users/maxim/AppData/Local/UnrealEngine/Common/DerivedDataCache: Latency=0.02ms. RandomReadSpeed=1875.13MBs, RandomWriteSpeed=26.52MBs. Assigned SpeedClass 'Local'
[2021.02.26-10.10.12:990][  0]LogDerivedDataCache: Using Local data cache path C:/Users/maxim/AppData/Local/UnrealEngine/Common/DerivedDataCache: Writable
[2021.02.26-10.10.12:990][  0]LogDerivedDataCache: Shared data cache path not found in *engine.ini, will not use an Shared cache.
[2021.02.26-10.10.12:990][  0]LogDerivedDataCache: Unable to find inner node Shared for hierarchical cache Hierarchy.
[2021.02.26-10.10.13:031][  0]LogSlate: Using FreeType 2.10.0
[2021.02.26-10.10.13:031][  0]LogSlate: SlateFontServices - WITH_FREETYPE: 1, WITH_HARFBUZZ: 1
[2021.02.26-10.10.13:050][  0]LogAssetRegistry: FAssetRegistry took 0.0025 seconds to start up
[2021.02.26-10.10.13:235][  0]LogInit: Selected Device Profile: [Windows]
[2021.02.26-10.10.13:235][  0]LogInit: Active device profile: [000001813CBBE000][000001813C97B5C0 49] Windows
[2021.02.26-10.10.13:236][  0]LogInit: Profiles: [000001813CBBE000][000001813C97B5C0 49] Windows, [000001813CB2A000][000001813C995700 49] WindowsNoEditor, [000001813CBBD400][000001813C999840 49] WindowsServer, [000001813CB2AB00][000001813C9AD9C0 49] WindowsClient, [000001813CBBC900][00000181302D5B40 49] IOS, [000001813CB28200][00000181302D9CC0 49] iPadAir, [000001813CBBE200][00000181302DC180 49] iPadAir2, [000001813D7EE600][00000181302E8440 49] IPadPro, [000001813D7EE700][00000181302E0480 49] iPadAir3, [000001813CB29200][00000181302EC600 49] iPadAir4, [000001813D7EFF00][00000181302F0780 49] iPadMini2, [000001813CB28C00][00000181302FC900 49] iPadMini3, [000001813D7EE400][0000018130300A80 49] iPadMini4, [000001813CB2AD00][0000018130304C00 49] iPadMini5, [000001813D811F00][0000018130318EC0 49] iPhone6, [000001813D812000][0000018130308F00 49] iPodTouch6, [000001813D7EDB00][00000181303211C0 49] iPhone7, [000001813D7EDA00][000001813031D200 49] iPodTouch7, [000001813D813700][0000018130325380 49] iPhone5S, [000001813D7ED700][0000018130329500 49] iPhone6Plus, [000001813D812F00][000001813C9A9640 49] iPhone6S, [000001813D7EC900][000001813032D780 49] iPhone6SPlus, [000001813D813500][00000181303318C0 49] iPhone7Plus, [000001813D7EF100][000001813034DA00 49] iPhoneSE, [000001813D812100][0000018130355B80 49] iPhone8, [000001813D7ED900][0000018130359D00 49] iPhone8Plus, [000001813D813F00][000001813035C1C0 49] iPhoneX, [000001813D7ECB00][0000018130360340 49] iPhoneXS, [000001813D810600][00000181303644C0 49] iPhoneXSMax, [000001813D7ECF00][0000018130368640 49] iPhoneXR, [000001813D812500][000001813036C7C0 49] iPhone11, [000001813D7EF400][0000018130370940 49] iPhone11Pro, [000001813D810800][0000018130374AC0 49] iPhone11ProMax, [000001813D7EC200][0000018130378C40 49] iPhoneSE2, [000001813D811C00][000001813037CDC0 49] iPhone12Mini, [000001813D7EDD00][000001813D9E0F40 49] iPhone12, [000001813D811600][000001813D9E50C0 49] iPhone12Pro, [000001813D7ED400][000001813D9E9240 49] iPhone12ProMax, [000001813D811100][000001813DA193C0 49] iPadPro105, [000001813D7EC300][000001813DA1D540 49] iPadPro129, [000001813D813300][0000018130351680 49] iPadPro97, [000001813D7EF900][000001813DA217C0 49] iPadPro2_129, [000001813D813600][000001813DA25900 49] iPad5, [000001813CBBE300][000001813DA29A40 49] iPad6, [000001813D810500][000001813DA31BC0 49] iPad7, [000001813CBBF200][000001813DA35D40 49] iPad8, [000001813D812300][000001813DA38200 49] iPadPro11, [000001813CBBE700][000001813DA3C380 49] iPadPro2_11, [000001813D811300][000001813DA40500 49] iPadPro3_129, [000001813CBBD100][000001813DA44680 49] iPadPro4_129, [000001813D812B00][000001813DA48800 49] AppleTV, [000001813CBBEC00][000001813DA4C980 49] AppleTV4K, [000001813D812D00][000001813DA50B00 49] TVOS, [000001813CBBDC00][000001813DA54C80 49] Mac, [000001813D810900][000001813DA58E00 49] MacClient, [000001813CBBC700][000001813DA5CF80 49] MacNoEditor, [000001813D812600][000001813DA61100 49] MacServer, [000001813CBBCC00][000001813DA65280 49] Linux, [000001813D811200][000001813DA69400 49] LinuxNoEditor, [000001813CBBD900][000001813DA6D580 49] LinuxAArch64NoEditor, [000001813D811800][000001813DA71700 49] LinuxClient, [000001813CBBEB00][000001813DA2D840 49] LinuxAArch64Client, [000001813D811500][000001813DA75980 49] LinuxServer, [000001813CBBE500][000001813DA79AC0 49] LinuxAArch64Server, [000001813D812A00][000001813DA81C40 49] Android, [000001813CBBE800][000001813DA84100 49] Android_Low, [000001813D812E00][000001813DA88280 49] Android_Mid, [000001813CBBD600][000001813DA8C400 49] Android_High, [000001813D810C00][000001813DA90580 49] Android_Default, [000001813CBBE400][000001813DA94700 49] Android_Adreno4xx, [000001813D810200][000001813DA98880 49] Android_Adreno5xx_Low, [000001813CBBCD00][000001813DA9CA00 49] Android_Adreno5xx, [000001813D813200][000001813DAA0B80 49] Android_Adreno6xx, [000001813CBBCA00][000001813DAA4D00 49] Android_Adreno6xx_Vulkan, [000001813D811700][000001813DAA8E80 49] Android_Mali_T6xx, [000001813CBBC800][000001813DAAD000 49] Android_Mali_T7xx, [000001813D813A00][000001813DAB1180 49] Android_Mali_T8xx, [000001813CBBED00][000001813DAB5300 49] Android_Mali_G71, [000001813D811D00][000001813DAB9480 49] Android_Mali_G72, [000001813CBBC600][000001813DABD600 49] Android_Mali_G72_Vulkan, [000001813D811E00][000001813DAC1780 49] Android_Mali_G76, [000001813CBBEF00][000001813DA7D8C0 49] Android_Mali_G76_Vulkan, [000001813D7EFB00][000001813DAC5A00 49] Android_Mali_G77, [000001813CB2BC00][000001813DAC9B40 49] Android_Mali_G77_Vulkan, [000001813D7EF600][000001813DAD1CC0 49] Android_Vulkan_SM5, [000001813CB28A00][000001813DAD4180 49] Android_PowerVR_G6xxx, [000001813D7ED300][000001813DAD8300 49] Android_PowerVR_GT7xxx, [000001813CB2B700][000001813DADC480 49] Android_PowerVR_GE8xxx, [000001813D7EF800][000001813DAE0600 49] Android_PowerVR_GM9xxx, [000001813CB29F00][000001813DAE4780 49] Android_PowerVR_GM9xxx_Vulkan, [000001813D7EC600][000001813DAE8900 49] Android_TegraK1, [000001813CB2A300][000001813DAECA80 49] Android_Unknown_Vulkan, [000001813D7ED500][000001813DAF0C00 49] Lumin, [000001813CB2B200][000001813DAF4D80 49] Lumin_Desktop, [000001813D7EDC00][000001813DAF8F00 49] HoloLens, 
[2021.02.26-10.10.13:324][  0]LogMeshReduction: Using QuadricMeshReduction for automatic static mesh reduction
[2021.02.26-10.10.13:324][  0]LogMeshReduction: Using SimplygonMeshReduction for automatic skeletal mesh reduction
[2021.02.26-10.10.13:324][  0]LogMeshReduction: Using ProxyLODMeshReduction for automatic mesh merging
[2021.02.26-10.10.13:324][  0]LogMeshReduction: No distributed automatic mesh merging module available
[2021.02.26-10.10.13:324][  0]LogMeshMerging: No distributed automatic mesh merging module available
[2021.02.26-10.10.13:338][  0]LogNetVersion: RaceGame 1.0.0, NetCL: 14830424, EngineNetVer: 16, GameNetVer: 0 (Checksum: 3636571145)
[2021.02.26-10.10.13:651][  0]LogHMD: PokeAHoleMaterial loaded successfully
[2021.02.26-10.10.13:679][  0]LogPackageLocalizationCache: Processed 22 localized package path(s) for 1 prioritized culture(s) in 0.027067 seconds
[2021.02.26-10.10.13:684][  0]LogUObjectArray: 16830 objects as part of root set at end of initial load.
[2021.02.26-10.10.13:684][  0]LogUObjectAllocator: 4209472 out of 0 bytes used by permanent object pool.
[2021.02.26-10.10.13:684][  0]LogUObjectArray: CloseDisregardForGC: 0/0 objects in disregard for GC pool
[2021.02.26-10.10.13:984][  0]LogTcpMessaging: Initializing TcpMessaging bridge
[2021.02.26-10.10.13:988][  0]LogUdpMessaging: Initializing bridge on interface 0.0.0.0:0 to multicast group 230.0.0.1:6666.
[2021.02.26-10.10.14:154][  0]LogAndroidPermission: UAndroidPermissionCallbackProxy::GetInstance
[2021.02.26-10.10.14:171][  0]LogAudioCaptureCore: Display: No Audio Capture implementations found. Audio input will be silent.
[2021.02.26-10.10.14:171][  0]LogAudioCaptureCore: Display: No Audio Capture implementations found. Audio input will be silent.
[2021.02.26-10.10.14:236][  0]SourceControl: Source control is disabled
[2021.02.26-10.10.14:236][  0]SourceControl: Source control is disabled
[2021.02.26-10.10.14:239][  0]SourceControl: Source control is disabled
[2021.02.26-10.10.14:242][  0]SourceControl: Source control is disabled
[2021.02.26-10.10.14:248][  0]SourceControl: Source control is disabled
[2021.02.26-10.10.14:254][  0]LogUProjectInfo: Found projects:
[2021.02.26-10.10.14:348][  0]LogCollectionManager: Loaded 0 collections in 0.000602 seconds
[2021.02.26-10.10.14:367][  0]LogFileCache: Scanning file cache for directory 'F:/Project/RaceGame/RaceGame/Saved/Collections/' took 0.00s
[2021.02.26-10.10.14:367][  0]LogFileCache: Scanning file cache for directory 'F:/Project/RaceGame/RaceGame/Content/Developers/maxim/Collections/' took 0.00s
[2021.02.26-10.10.14:367][  0]LogFileCache: Scanning file cache for directory 'F:/Project/RaceGame/RaceGame/Content/Collections/' took 0.00s
[2021.02.26-10.10.14:367][  0]LogOcInput: OculusInput pre-init called
[2021.02.26-10.10.14:376][  0]LogWindows: Failed to load 'OVRPlugin.dll' (GetLastError=126)
[2021.02.26-10.10.14:376][  0]LogWindows: File 'OVRPlugin.dll' does not exist
[2021.02.26-10.10.14:420][  0]LogEngine: Initializing Engine...
[2021.02.26-10.10.14:421][  0]LogHMD: Failed to initialize OpenVR with code 110
[2021.02.26-10.10.14:421][  0]LogMagicLeap: Warning: VR disabled because ZI is not enabled.  To enable, in the editor, Edit -> Project Settings -> Plugins -> Magic Leap Plugin -> Enable Zero Iteration
[2021.02.26-10.10.14:422][  0]LogStats: UGameplayTagsManager::InitializeManager -  0.000 s
[2021.02.26-10.10.14:500][  0]LogInit: Initializing FReadOnlyCVARCache
[2021.02.26-10.10.14:507][  0]LogAIModule: Creating AISystem for world Untitled
[2021.02.26-10.10.14:514][  0]LogAudio: Display: Initializing Audio Device Manager...
[2021.02.26-10.10.14:518][  0]LogAudio: Display: Audio Device Manager Initialized
[2021.02.26-10.10.14:518][  0]LogAudio: Display: Creating Audio Device:                 Id: 1, Scope: Shared, Realtime: True
[2021.02.26-10.10.14:518][  0]LogAudioMixer: Display: Audio Mixer Platform Settings:
[2021.02.26-10.10.14:518][  0]LogAudioMixer: Display: 	Sample Rate:						  48000
[2021.02.26-10.10.14:518][  0]LogAudioMixer: Display: 	Callback Buffer Frame Size Requested: 1024
[2021.02.26-10.10.14:518][  0]LogAudioMixer: Display: 	Callback Buffer Frame Size To Use:	  1024
[2021.02.26-10.10.14:518][  0]LogAudioMixer: Display: 	Number of buffers to queue:			  2
[2021.02.26-10.10.14:518][  0]LogAudioMixer: Display: 	Max Channels (voices):				  32
[2021.02.26-10.10.14:518][  0]LogAudioMixer: Display: 	Number of Async Source Workers:		  0
[2021.02.26-10.10.14:518][  0]LogAudio: Display: AudioDevice MaxSources: 32
[2021.02.26-10.10.14:518][  0]LogAudio: Display: Using built-in audio occlusion.
[2021.02.26-10.10.14:518][  0]LogAudioMixer: Display: Initializing audio mixer.
[2021.02.26-10.10.14:528][  0]LogAudioMixer: Display: 0: FrontLeft
[2021.02.26-10.10.14:528][  0]LogAudioMixer: Display: 1: FrontRight
[2021.02.26-10.10.14:553][  0]LogAudioMixer: Display: Using Audio Device Realtek HD Audio 2nd output (Realtek(R) Audio)
[2021.02.26-10.10.14:556][  0]LogAudioMixer: Display: Initializing Sound Submixes...
[2021.02.26-10.10.14:557][  0]LogAudioMixer: Display: Creating Master Submix 'MasterSubmixDefault'
[2021.02.26-10.10.14:557][  0]LogAudioMixer: Display: Creating Master Submix 'MasterReverbSubmixDefault'
[2021.02.26-10.10.14:558][  0]LogAudioMixer: Display: Creating Master Submix 'MasterEQSubmixDefault'
[2021.02.26-10.10.14:558][  0]LogAudioMixer: FMixerPlatformXAudio2::StartAudioStream() called
[2021.02.26-10.10.14:558][  0]LogAudioMixer: Display: Output buffers initialized: Frames=1024, Channels=2, Samples=2048
[2021.02.26-10.10.14:559][  0]LogAudioMixer: Display: Starting AudioMixerPlatformInterface::RunInternal()
[2021.02.26-10.10.14:559][  0]LogAudioMixer: Display: FMixerPlatformXAudio2::SubmitBuffer() called for the first time
[2021.02.26-10.10.14:559][  0]LogInit: FAudioDevice initialized.
[2021.02.26-10.10.14:559][  0]LogAudio: Display: Audio Device (ID: 1) registered with world 'Untitled'.
[2021.02.26-10.10.14:559][  0]LogNetVersion: Set ProjectVersion to 1.0.0.0. Version Checksum will be recalculated on next use.
[2021.02.26-10.10.14:642][  0]LogDerivedDataCache: Saved boot cache 0.08s 77MB C:/Users/maxim/AppData/Local/UnrealEngine/4.26/DerivedDataCache/Boot.ddc.
[2021.02.26-10.10.14:646][  0]LogInit: Texture streaming: Enabled
[2021.02.26-10.10.14:656][  0]LogAnalytics: Display: [UEEditor.Rocket.Release] APIServer = https://datarouter.ol.epicgames.com/. AppVersion = 4.26.1-15228867+++UE4+Release-4.26
[2021.02.26-10.10.14:659][  0]LogEngineSessionManager: EngineSessionManager initialized
[2021.02.26-10.10.14:659][  0]LogEngineSessionManager: EngineSessionManager sent abnormal shutdown report. Type=Crashed, SessionId={139B5D9F-44F9-5A32-65B4-599C68D037EA}
[2021.02.26-10.10.14:659][  0]LogEditorSessionSummary: Verbose: Initializing EditorSessionSummaryWriter for editor session tracking
[2021.02.26-10.10.14:661][  0]LogEditorSessionSummary: EditorSessionSummaryWriter initialized
[2021.02.26-10.10.14:691][  0]LogInit: Transaction tracking system initialized
[2021.02.26-10.10.14:710][  0]BlueprintLog: New page: Editor Load
[2021.02.26-10.10.14:768][  0]LocalizationService: Localization service is disabled
[2021.02.26-10.10.14:787][  0]TimingProfiler: Initialize
[2021.02.26-10.10.14:787][  0]TimingProfiler: OnSessionChanged
[2021.02.26-10.10.14:787][  0]LoadingProfiler: Initialize
[2021.02.26-10.10.14:787][  0]LoadingProfiler: OnSessionChanged
[2021.02.26-10.10.14:787][  0]NetworkingProfiler: Initialize
[2021.02.26-10.10.14:787][  0]NetworkingProfiler: OnSessionChanged
[2021.02.26-10.10.14:787][  0]MemoryProfiler: Initialize
[2021.02.26-10.10.14:787][  0]MemoryProfiler: OnSessionChanged
[2021.02.26-10.10.14:887][  0]LogCook: Display: CookSettings for Memory: MemoryMaxUsedVirtual 0MiB, MemoryMaxUsedPhysical 16384MiB, MemoryMinFreeVirtual 0MiB, MemoryMinFreePhysical 1024MiB
[2021.02.26-10.10.14:887][  0]LogCook: Display: Mobile HDR setting 1
[2021.02.26-10.10.14:916][  0]LogFileCache: Scanning file cache for directory 'F:/Project/RaceGame/RaceGame/Content/' took 0.00s
[2021.02.26-10.10.15:132][  0]LogInit: Display: Engine is initialized. Leaving FEngineLoop::Init()
[2021.02.26-10.10.15:134][  0]SourceControl: Source control is disabled
[2021.02.26-10.10.15:134][  0]LogUnrealEdMisc: Loading editor; pre map load, took 4.233
[2021.02.26-10.10.15:134][  0]Cmd: MAP LOAD FILE="../../../../../Project/RaceGame/RaceGame/Content/StarterContent/Maps/Minimal_Default.umap" TEMPLATE=0 SHOWPROGRESS=1 FEATURELEVEL=3
[2021.02.26-10.10.15:134][  0]LightingResults: New page: Lighting Build
[2021.02.26-10.10.15:135][  0]LogWorld: UWorld::CleanupWorld for Untitled, bSessionEnded=true, bCleanupResources=true
[2021.02.26-10.10.15:135][  0]LogSlate: InvalidateAllWidgets triggered.  All widgets were invalidated
[2021.02.26-10.10.15:135][  0]MapCheck: New page: Map Check
[2021.02.26-10.10.15:135][  0]LightingResults: New page: Lighting Build
[2021.02.26-10.10.15:139][  0]LogUObjectHash: Compacting FUObjectHashTables data took   0.72ms
[2021.02.26-10.10.15:176][  0]LogLinker: Warning: [AssetLog] F:\Project\RaceGame\RaceGame\Content\StarterContent\Maps\Minimal_Default.umap: Failed to load '/Game/StarterContent/Maps/Minimal_Default_BuiltData': Can't find file.
[2021.02.26-10.10.15:176][  0]LogLinker: Warning: [AssetLog] F:\Project\RaceGame\RaceGame\Content\StarterContent\Maps\Minimal_Default.umap: Failed to load '/Game/StarterContent/Maps/Minimal_Default_BuiltData': Can't find file.
[2021.02.26-10.10.15:181][  0]LogLinker: Warning: [AssetLog] F:\Project\RaceGame\RaceGame\Content\StarterContent\Maps\Minimal_Default.umap: Failed to load '/Game/StarterContent/Maps/Minimal_Default_BuiltData': Can't find file.
[2021.02.26-10.10.15:183][  0]LogLinker: Warning: Failed to load '/Game/StarterContent/Maps/Minimal_Default_BuiltData': Can't find file.
[2021.02.26-10.10.15:183][  0]LogLinker: Warning: Failed to load '/Game/StarterContent/Maps/Minimal_Default_BuiltData': Can't find file.
[2021.02.26-10.10.15:188][  0]LogLinker: Warning: [AssetLog] F:\Project\RaceGame\RaceGame\Content\StarterContent\Maps\Minimal_Default.umap: Failed to load '/Game/StarterContent/Maps/Minimal_Default_BuiltData': Can't find file.
[2021.02.26-10.10.15:188][  0]LoadErrors: Failed to load /Game/StarterContent/Maps/Minimal_Default_BuiltData.Minimal_Default_BuiltData Referenced by PersistentLevel
[2021.02.26-10.10.15:235][  0]LogAudio: Display: Audio Device (ID: 1) registered with world 'Minimal_Default'.
[2021.02.26-10.10.15:236][  0]LogAIModule: Creating AISystem for world Minimal_Default
[2021.02.26-10.10.15:239][  0]LogEditorServer: Finished looking for orphan Actors (0.000 secs)
[2021.02.26-10.10.15:242][  0]LogUObjectHash: Compacting FUObjectHashTables data took   0.74ms
[2021.02.26-10.10.15:242][  0]Cmd: MAP CHECKDEP NOCLEARLOG
[2021.02.26-10.10.15:242][  0]MapCheck: Map check complete: 0 Error(s), 0 Warning(s), took 0,079ms to complete.
[2021.02.26-10.10.15:243][  0]LogFileHelpers: Loading map 'Minimal_Default' took 0.108
[2021.02.26-10.10.15:244][  0]LogUnrealEdMisc: Total Editor Startup Time, took 4.343
[2021.02.26-10.10.15:358][  0]LogSlate: Updating window title bar state: overlay mode, drag disabled, window buttons hidden, title bar hidden
[2021.02.26-10.10.15:363][  0]LogSlate: Updating window title bar state: overlay mode, drag disabled, window buttons hidden, title bar hidden
[2021.02.26-10.10.15:367][  0]LogSlate: Updating window title bar state: overlay mode, drag disabled, window buttons hidden, title bar hidden
[2021.02.26-10.10.15:372][  0]LogSlate: Updating window title bar state: overlay mode, drag disabled, window buttons hidden, title bar hidden
[2021.02.26-10.10.15:383][  0]LogNativeClassHierarchy: Verbose: Native class hierarchy populated in 0.0086 seconds. Added 3601 classes and 859 folders.
[2021.02.26-10.10.15:385][  0]LogNativeClassHierarchy: Verbose: Native class hierarchy updated for 'WidgetCarousel' in 0.0002 seconds. Added 0 classes and 0 folders.
[2021.02.26-10.10.15:386][  0]LogPakFile: PakFile PrimaryIndexSize=187
[2021.02.26-10.10.15:386][  0]LogPakFile: PakFile PathHashIndexSize=101
[2021.02.26-10.10.15:386][  0]LogPakFile: PakFile FullDirectoryIndexSize=148
[2021.02.26-10.10.15:386][  0]LogPakFile: OnPakFileMounted2Time == 0.000006
[2021.02.26-10.10.15:386][  0]LogPakFile: PakFile PrimaryIndexSize=189
[2021.02.26-10.10.15:386][  0]LogPakFile: PakFile PathHashIndexSize=101
[2021.02.26-10.10.15:386][  0]LogPakFile: PakFile FullDirectoryIndexSize=152
[2021.02.26-10.10.15:386][  0]LogPakFile: OnPakFileMounted2Time == 0.000007
[2021.02.26-10.10.15:386][  0]LogPakFile: PakFile PrimaryIndexSize=191
[2021.02.26-10.10.15:386][  0]LogPakFile: PakFile PathHashIndexSize=101
[2021.02.26-10.10.15:386][  0]LogPakFile: PakFile FullDirectoryIndexSize=160
[2021.02.26-10.10.15:386][  0]LogPakFile: OnPakFileMounted2Time == 0.000007
[2021.02.26-10.10.15:387][  0]LogPakFile: PakFile PrimaryIndexSize=185
[2021.02.26-10.10.15:387][  0]LogPakFile: PakFile PathHashIndexSize=101
[2021.02.26-10.10.15:387][  0]LogPakFile: PakFile FullDirectoryIndexSize=148
[2021.02.26-10.10.15:387][  0]LogPakFile: OnPakFileMounted2Time == 0.000008
[2021.02.26-10.10.15:387][  0]LogPakFile: PakFile PrimaryIndexSize=190
[2021.02.26-10.10.15:387][  0]LogPakFile: PakFile PathHashIndexSize=101
[2021.02.26-10.10.15:387][  0]LogPakFile: PakFile FullDirectoryIndexSize=154
[2021.02.26-10.10.15:387][  0]LogPakFile: OnPakFileMounted2Time == 0.000009
[2021.02.26-10.10.15:387][  0]LogPakFile: PakFile PrimaryIndexSize=192
[2021.02.26-10.10.15:387][  0]LogPakFile: PakFile PathHashIndexSize=101
[2021.02.26-10.10.15:387][  0]LogPakFile: PakFile FullDirectoryIndexSize=158
[2021.02.26-10.10.15:387][  0]LogPakFile: OnPakFileMounted2Time == 0.000010
[2021.02.26-10.10.15:388][  0]LogPakFile: PakFile PrimaryIndexSize=182
[2021.02.26-10.10.15:388][  0]LogPakFile: PakFile PathHashIndexSize=101
[2021.02.26-10.10.15:388][  0]LogPakFile: PakFile FullDirectoryIndexSize=138
[2021.02.26-10.10.15:388][  0]LogPakFile: OnPakFileMounted2Time == 0.000010
[2021.02.26-10.10.15:388][  0]LogPakFile: PakFile PrimaryIndexSize=184
[2021.02.26-10.10.15:388][  0]LogPakFile: PakFile PathHashIndexSize=101
[2021.02.26-10.10.15:388][  0]LogPakFile: PakFile FullDirectoryIndexSize=142
[2021.02.26-10.10.15:388][  0]LogPakFile: OnPakFileMounted2Time == 0.000011
[2021.02.26-10.10.15:388][  0]LogPakFile: PakFile PrimaryIndexSize=188
[2021.02.26-10.10.15:388][  0]LogPakFile: PakFile PathHashIndexSize=101
[2021.02.26-10.10.15:388][  0]LogPakFile: PakFile FullDirectoryIndexSize=150
[2021.02.26-10.10.15:388][  0]LogPakFile: OnPakFileMounted2Time == 0.000012
[2021.02.26-10.10.15:389][  0]LogPakFile: PakFile PrimaryIndexSize=182
[2021.02.26-10.10.15:389][  0]LogPakFile: PakFile PathHashIndexSize=101
[2021.02.26-10.10.15:389][  0]LogPakFile: PakFile FullDirectoryIndexSize=138
[2021.02.26-10.10.15:389][  0]LogPakFile: OnPakFileMounted2Time == 0.000013
[2021.02.26-10.10.15:389][  0]LogPakFile: PakFile PrimaryIndexSize=184
[2021.02.26-10.10.15:389][  0]LogPakFile: PakFile PathHashIndexSize=101
[2021.02.26-10.10.15:389][  0]LogPakFile: PakFile FullDirectoryIndexSize=142
[2021.02.26-10.10.15:389][  0]LogPakFile: OnPakFileMounted2Time == 0.000013
[2021.02.26-10.10.15:389][  0]LogPakFile: PakFile PrimaryIndexSize=183
[2021.02.26-10.10.15:389][  0]LogPakFile: PakFile PathHashIndexSize=101
[2021.02.26-10.10.15:389][  0]LogPakFile: PakFile FullDirectoryIndexSize=140
[2021.02.26-10.10.15:389][  0]LogPakFile: OnPakFileMounted2Time == 0.000014
[2021.02.26-10.10.15:390][  0]LogPakFile: PakFile PrimaryIndexSize=185
[2021.02.26-10.10.15:390][  0]LogPakFile: PakFile PathHashIndexSize=101
[2021.02.26-10.10.15:390][  0]LogPakFile: PakFile FullDirectoryIndexSize=144
[2021.02.26-10.10.15:390][  0]LogPakFile: OnPakFileMounted2Time == 0.000015
[2021.02.26-10.10.15:390][  0]LogPakFile: PakFile PrimaryIndexSize=188
[2021.02.26-10.10.15:390][  0]LogPakFile: PakFile PathHashIndexSize=101
[2021.02.26-10.10.15:390][  0]LogPakFile: PakFile FullDirectoryIndexSize=150
[2021.02.26-10.10.15:390][  0]LogPakFile: OnPakFileMounted2Time == 0.000016
[2021.02.26-10.10.15:390][  0]LogPakFile: PakFile PrimaryIndexSize=190
[2021.02.26-10.10.15:390][  0]LogPakFile: PakFile PathHashIndexSize=101
[2021.02.26-10.10.15:390][  0]LogPakFile: PakFile FullDirectoryIndexSize=154
[2021.02.26-10.10.15:390][  0]LogPakFile: OnPakFileMounted2Time == 0.000017
[2021.02.26-10.10.15:391][  0]LogPakFile: PakFile PrimaryIndexSize=187
[2021.02.26-10.10.15:391][  0]LogPakFile: PakFile PathHashIndexSize=101
[2021.02.26-10.10.15:391][  0]LogPakFile: PakFile FullDirectoryIndexSize=148
[2021.02.26-10.10.15:391][  0]LogPakFile: OnPakFileMounted2Time == 0.000017
[2021.02.26-10.10.15:391][  0]LogPakFile: PakFile PrimaryIndexSize=189
[2021.02.26-10.10.15:391][  0]LogPakFile: PakFile PathHashIndexSize=101
[2021.02.26-10.10.15:391][  0]LogPakFile: PakFile FullDirectoryIndexSize=152
[2021.02.26-10.10.15:391][  0]LogPakFile: OnPakFileMounted2Time == 0.000018
[2021.02.26-10.10.15:391][  0]LogPakFile: PakFile PrimaryIndexSize=183
[2021.02.26-10.10.15:391][  0]LogPakFile: PakFile PathHashIndexSize=101
[2021.02.26-10.10.15:391][  0]LogPakFile: PakFile FullDirectoryIndexSize=140
[2021.02.26-10.10.15:391][  0]LogPakFile: OnPakFileMounted2Time == 0.000019
[2021.02.26-10.10.15:392][  0]LogPakFile: PakFile PrimaryIndexSize=185
[2021.02.26-10.10.15:392][  0]LogPakFile: PakFile PathHashIndexSize=101
[2021.02.26-10.10.15:392][  0]LogPakFile: PakFile FullDirectoryIndexSize=144
[2021.02.26-10.10.15:392][  0]LogPakFile: OnPakFileMounted2Time == 0.000020
[2021.02.26-10.10.15:392][  0]LogPakFile: PakFile PrimaryIndexSize=185
[2021.02.26-10.10.15:392][  0]LogPakFile: PakFile PathHashIndexSize=101
[2021.02.26-10.10.15:392][  0]LogPakFile: PakFile FullDirectoryIndexSize=144
[2021.02.26-10.10.15:392][  0]LogPakFile: OnPakFileMounted2Time == 0.000021
[2021.02.26-10.10.15:392][  0]LogPakFile: PakFile PrimaryIndexSize=187
[2021.02.26-10.10.15:392][  0]LogPakFile: PakFile PathHashIndexSize=101
[2021.02.26-10.10.15:392][  0]LogPakFile: PakFile FullDirectoryIndexSize=148
[2021.02.26-10.10.15:392][  0]LogPakFile: OnPakFileMounted2Time == 0.000021
[2021.02.26-10.10.15:393][  0]LogPakFile: PakFile PrimaryIndexSize=183
[2021.02.26-10.10.15:393][  0]LogPakFile: PakFile PathHashIndexSize=101
[2021.02.26-10.10.15:393][  0]LogPakFile: PakFile FullDirectoryIndexSize=140
[2021.02.26-10.10.15:393][  0]LogPakFile: OnPakFileMounted2Time == 0.000022
[2021.02.26-10.10.15:393][  0]LogPakFile: PakFile PrimaryIndexSize=186
[2021.02.26-10.10.15:393][  0]LogPakFile: PakFile PathHashIndexSize=101
[2021.02.26-10.10.15:393][  0]LogPakFile: PakFile FullDirectoryIndexSize=146
[2021.02.26-10.10.15:393][  0]LogPakFile: OnPakFileMounted2Time == 0.000023
[2021.02.26-10.10.15:393][  0]LogPakFile: PakFile PrimaryIndexSize=188
[2021.02.26-10.10.15:393][  0]LogPakFile: PakFile PathHashIndexSize=101
[2021.02.26-10.10.15:393][  0]LogPakFile: PakFile FullDirectoryIndexSize=150
[2021.02.26-10.10.15:393][  0]LogPakFile: OnPakFileMounted2Time == 0.000024
[2021.02.26-10.10.15:394][  0]LogPakFile: PakFile PrimaryIndexSize=185
[2021.02.26-10.10.15:394][  0]LogPakFile: PakFile PathHashIndexSize=101
[2021.02.26-10.10.15:394][  0]LogPakFile: PakFile FullDirectoryIndexSize=144
[2021.02.26-10.10.15:394][  0]LogPakFile: OnPakFileMounted2Time == 0.000024
[2021.02.26-10.10.15:394][  0]LogPakFile: PakFile PrimaryIndexSize=192
[2021.02.26-10.10.15:394][  0]LogPakFile: PakFile PathHashIndexSize=101
[2021.02.26-10.10.15:394][  0]LogPakFile: PakFile FullDirectoryIndexSize=158
[2021.02.26-10.10.15:394][  0]LogPakFile: OnPakFileMounted2Time == 0.000025
[2021.02.26-10.10.15:412][  0]LogNativeClassHierarchy: Verbose: Native class hierarchy updated for 'AddContentDialog' in 0.0002 seconds. Added 0 classes and 0 folders.
[2021.02.26-10.10.15:413][  0]LogNativeClassHierarchy: Verbose: Native class hierarchy updated for 'SceneOutliner' in 0.0001 seconds. Added 2 classes and 0 folders.
[2021.02.26-10.10.15:441][  0]LogSlate: Took 0.000115 seconds to synchronously load lazily loaded font '../../../Engine/Content/Slate/Fonts/Roboto-Regular.ttf' (155K)
[2021.02.26-10.10.15:444][  0]LogSlate: Took 0.000071 seconds to synchronously load lazily loaded font '../../../Engine/Content/Slate/Fonts/Roboto-Bold.ttf' (160K)
[2021.02.26-10.10.15:446][  0]LogSlate: Took 0.000068 seconds to synchronously load lazily loaded font '../../../Engine/Content/Editor/Slate/Fonts/FontAwesome.ttf' (139K)
[2021.02.26-10.10.15:518][  0]LogRenderer: Reallocating scene render targets to support 1240x572 Format 10 NumSamples 1 (Frame:1).
[2021.02.26-10.10.16:110][  0]LogNativeClassHierarchy: Verbose: Native class hierarchy updated for 'HierarchicalLODOutliner' in 0.0002 seconds. Added 0 classes and 0 folders.
[2021.02.26-10.10.16:110][  0]LogLoad: (Engine Initialization) Total time: 5.21 seconds
[2021.02.26-10.10.16:110][  0]LogLoad: (Engine Initialization) Total Blueprint compile time: 0.00 seconds
[2021.02.26-10.10.16:110][  0]LogInit: First time updating LLM stats...
[2021.02.26-10.10.16:139][  0]LogAssetRegistry: Asset discovery search completed in 3.0900 seconds
[2021.02.26-10.10.16:140][  0]LogCollectionManager: Fixed up redirectors for 0 collections in 0.000002 seconds (updated 0 objects)
[2021.02.26-10.10.16:158][  0]LogContentStreaming: Texture pool size now 1000 MB
[2021.02.26-10.10.16:218][  0]LogSlate: Took 0.000088 seconds to synchronously load lazily loaded font '../../../Engine/Content/Slate/Fonts/DroidSansMono.ttf' (77K)
[2021.02.26-10.10.16:244][  2]LogSlate: Took 0.000100 seconds to synchronously load lazily loaded font '../../../Engine/Content/Slate/Fonts/Roboto-Light.ttf' (167K)
[2021.02.26-10.10.33:427][ 42]LogSlate: Window 'Message Log' being destroyed
[2021.02.26-10.10.33:430][ 42]LogSlate: Window 'Message Log' being destroyed
[2021.02.26-10.10.38:265][602]LogUObjectHash: Compacting FUObjectHashTables data took   0.56ms
[2021.02.26-10.10.38:269][602]LogSlate: Took 0.000097 seconds to synchronously load lazily loaded font '../../../Engine/Content/Slate/Fonts/Roboto-Light.ttf' (167K)
[2021.02.26-10.10.38:456][602]LogAssetEditorSubsystem: Opening Asset editor for World /Game/StarterContent/Maps/Level1.Level1
[2021.02.26-10.10.38:456][602]Cmd: MAP LOAD FILE="../../../../../Project/RaceGame/RaceGame/Content/StarterContent/Maps/Level1.umap" TEMPLATE=0 SHOWPROGRESS=1 FEATURELEVEL=3
[2021.02.26-10.10.38:456][602]LightingResults: New page: Lighting Build
[2021.02.26-10.10.38:456][602]LoadErrors: New page: Loading map: Level1.umap
[2021.02.26-10.10.38:490][602]LogWorld: UWorld::CleanupWorld for Minimal_Default, bSessionEnded=true, bCleanupResources=true
[2021.02.26-10.10.38:490][602]LogSlate: InvalidateAllWidgets triggered.  All widgets were invalidated
[2021.02.26-10.10.38:490][602]MapCheck: New page: Map Check
[2021.02.26-10.10.38:490][602]LightingResults: New page: Lighting Build
[2021.02.26-10.10.38:493][602]LogAudio: Display: Audio Device unregistered from world 'None'.
[2021.02.26-10.10.38:495][602]LogUObjectHash: Compacting FUObjectHashTables data took   0.88ms
[2021.02.26-10.10.38:495][602]LogAudio: Display: Audio Device (ID: 1) registered with world 'Level1'.
[2021.02.26-10.10.38:665][602]LogEditorServer: Finished looking for orphan Actors (0.000 secs)
[2021.02.26-10.10.38:665][602]LogAIModule: Creating AISystem for world Level1
[2021.02.26-10.10.38:674][602]LogUObjectHash: Compacting FUObjectHashTables data took   0.67ms
[2021.02.26-10.10.38:685][602]Cmd: MAP CHECKDEP NOCLEARLOG
[2021.02.26-10.10.38:685][602]MapCheck: Map check complete: 0 Error(s), 0 Warning(s), took 0,072ms to complete.
[2021.02.26-10.10.38:685][602]LogFileHelpers: Loading map 'Level1' took 0.229
[2021.02.26-10.10.50:318][950]LogEditorViewport: Clicking on Actor (LMB): Landscape (Landscape)
[2021.02.26-10.11.07:564][567]LogMaterial: Display: Missing cached shader map for material M_Ground_Moss, compiling. 
[2021.02.26-10.11.07:756][567]LogShaderCompilers: Display: Worker (1/9): shaders left to compile 46
[2021.02.26-10.11.07:756][567]LogShaderCompilers: Display: Worker (2/9): shaders left to compile 40
[2021.02.26-10.11.07:756][567]LogShaderCompilers: Display: Worker (3/9): shaders left to compile 34
[2021.02.26-10.11.07:756][567]LogShaderCompilers: Display: Worker (4/9): shaders left to compile 28
[2021.02.26-10.11.07:756][567]LogShaderCompilers: Display: Worker (5/9): shaders left to compile 22
[2021.02.26-10.11.07:756][567]LogShaderCompilers: Display: Worker (6/9): shaders left to compile 16
[2021.02.26-10.11.07:756][567]LogShaderCompilers: Display: Worker (7/9): shaders left to compile 10
[2021.02.26-10.11.07:756][567]LogShaderCompilers: Display: Worker (8/9): shaders left to compile 4
[2021.02.26-10.11.15:144][243]LogMaterial: Display: Missing cached shader map for material M_Ground_Grass, compiling. 
[2021.02.26-10.11.15:370][243]LogShaderCompilers: Display: Worker (1/9): shaders left to compile 46
[2021.02.26-10.11.15:370][243]LogShaderCompilers: Display: Worker (2/9): shaders left to compile 40
[2021.02.26-10.11.15:370][243]LogShaderCompilers: Display: Worker (3/9): shaders left to compile 34
[2021.02.26-10.11.15:370][243]LogShaderCompilers: Display: Worker (4/9): shaders left to compile 28
[2021.02.26-10.11.15:370][243]LogShaderCompilers: Display: Worker (5/9): shaders left to compile 22
[2021.02.26-10.11.15:370][243]LogShaderCompilers: Display: Worker (6/9): shaders left to compile 16
[2021.02.26-10.11.15:370][243]LogShaderCompilers: Display: Worker (7/9): shaders left to compile 10
[2021.02.26-10.11.15:370][243]LogShaderCompilers: Display: Worker (8/9): shaders left to compile 4
[2021.02.26-10.11.23:800][127]Cmd: OBJ SAVEPACKAGE PACKAGE="/Game/StarterContent/Maps/Level1" FILE="../../../../../Project/RaceGame/RaceGame/Content/StarterContent/Maps/Level1.umap" SILENT=true AUTOSAVING=false KEEPDIRTY=false
[2021.02.26-10.11.23:806][127]LogUObjectHash: Compacting FUObjectHashTables data took   0.28ms
[2021.02.26-10.11.24:547][127]LogSavePackage: Moving '../../../../../Project/RaceGame/RaceGame/Saved/Level10D393C41401160D12740499CA4666ECB.tmp' to '../../../../../Project/RaceGame/RaceGame/Content/StarterContent/Maps/Level1.umap'
[2021.02.26-10.11.24:612][127]AssetCheck: New page: Asset Save: Level1
[2021.02.26-10.11.24:612][127]LogContentValidation: Display: Validating World /Game/StarterContent/Maps/Level1.Level1
[2021.02.26-10.11.29:819][741]LogTexture: Display: Building textures: Texture2D_2 (G8, 128X128)
[2021.02.26-10.11.29:839][741]LogSlate: Took 0.000154 seconds to synchronously load lazily loaded font '../../../Engine/Content/Slate/Fonts/Roboto-Italic.ttf' (157K)
[2021.02.26-10.13.04:591][957]LogAssetEditorSubsystem: Opening Asset editor for StaticMesh /Game/StarterContent/Architecture/Floor_400x400.Floor_400x400
[2021.02.26-10.13.10:396][459]LogMaterial: Display: Material /Game/StarterContent/Materials/M_Concrete_Tiles.M_Concrete_Tiles needed to have new flag set bUsedWithSplineMeshes !
[2021.02.26-10.13.10:397][459]LogMaterial: Display: Missing cached shader map for material M_Concrete_Tiles, compiling. 
[2021.02.26-10.13.10:431][459]LogShaderCompilers: Display: Worker (1/9): shaders left to compile 42
[2021.02.26-10.13.10:431][459]LogShaderCompilers: Display: Worker (2/9): shaders left to compile 36
[2021.02.26-10.13.10:431][459]LogShaderCompilers: Display: Worker (3/9): shaders left to compile 30
[2021.02.26-10.13.10:431][459]LogShaderCompilers: Display: Worker (4/9): shaders left to compile 24
[2021.02.26-10.13.10:431][459]LogShaderCompilers: Display: Worker (5/9): shaders left to compile 18
[2021.02.26-10.13.10:431][459]LogShaderCompilers: Display: Worker (6/9): shaders left to compile 12
[2021.02.26-10.13.10:431][459]LogShaderCompilers: Display: Worker (7/9): shaders left to compile 6
[2021.02.26-10.13.28:639][ 98]LogMaterial: Display: Material /Game/StarterContent/Materials/M_Rock_Marble_Polished.M_Rock_Marble_Polished needed to have new flag set bUsedWithSplineMeshes !
[2021.02.26-10.13.28:640][ 98]LogMaterial: Display: Missing cached shader map for material M_Rock_Marble_Polished, compiling. 
[2021.02.26-10.13.28:673][ 98]LogShaderCompilers: Display: Worker (1/9): shaders left to compile 42
[2021.02.26-10.13.28:673][ 98]LogShaderCompilers: Display: Worker (2/9): shaders left to compile 36
[2021.02.26-10.13.28:673][ 98]LogShaderCompilers: Display: Worker (3/9): shaders left to compile 30
[2021.02.26-10.13.28:673][ 98]LogShaderCompilers: Display: Worker (4/9): shaders left to compile 24
[2021.02.26-10.13.28:673][ 98]LogShaderCompilers: Display: Worker (5/9): shaders left to compile 18
[2021.02.26-10.13.28:673][ 98]LogShaderCompilers: Display: Worker (6/9): shaders left to compile 12
[2021.02.26-10.13.28:673][ 98]LogShaderCompilers: Display: Worker (7/9): shaders left to compile 6
[2021.02.26-10.13.44:958][570]Cmd: OBJ SAVEPACKAGE PACKAGE="/Game/StarterContent/Architecture/Floor_400x400" FILE="../../../../../Project/RaceGame/RaceGame/Content/StarterContent/Architecture/Floor_400x400.uasset" SILENT=true
[2021.02.26-10.13.44:967][570]LogSavePackage: Moving '../../../../../Project/RaceGame/RaceGame/Saved/Floor_400x4005FEABE5B490393FA00E2A3B0E802AD75.tmp' to '../../../../../Project/RaceGame/RaceGame/Content/StarterContent/Architecture/Floor_400x400.uasset'
[2021.02.26-10.13.44:976][570]AssetCheck: New page: Asset Save: Floor_400x400
[2021.02.26-10.13.44:976][570]LogContentValidation: Display: Validating StaticMesh /Game/StarterContent/Architecture/Floor_400x400.Floor_400x400
[2021.02.26-10.13.46:325][703]LogSlate: Window 'Floor_400x400' being destroyed
[2021.02.26-10.13.46:328][703]LogSlate: Window 'Floor_400x400' being destroyed
[2021.02.26-10.13.46:335][703]LogWorld: UWorld::CleanupWorld for World_2, bSessionEnded=true, bCleanupResources=true
[2021.02.26-10.13.46:335][703]LogSlate: InvalidateAllWidgets triggered.  All widgets were invalidated
[2021.02.26-10.14.50:964][247]Cmd: OBJ SAVEPACKAGE PACKAGE="/Game/StarterContent/Maps/Level1" FILE="../../../../../Project/RaceGame/RaceGame/Content/StarterContent/Maps/Level1.umap" SILENT=true AUTOSAVING=false KEEPDIRTY=false
[2021.02.26-10.14.50:989][247]LogUObjectHash: Compacting FUObjectHashTables data took   0.83ms
[2021.02.26-10.14.51:052][247]LogTexture: Display: Building textures: Texture2D_4 (BGRA8, 512X512)
[2021.02.26-10.14.51:055][247]LogTexture: Display: Building textures: Texture2D_5 (BGRA8, 512X512)
[2021.02.26-10.14.51:708][247]LogSavePackage: Moving '../../../../../Project/RaceGame/RaceGame/Saved/Level175482E7B479F8C551FB5489F109292A8.tmp' to '../../../../../Project/RaceGame/RaceGame/Content/StarterContent/Maps/Level1.umap'
[2021.02.26-10.14.51:759][247]AssetCheck: New page: Asset Save: Level1
[2021.02.26-10.14.51:759][247]LogContentValidation: Display: Validating World /Game/StarterContent/Maps/Level1.Level1
[2021.02.26-10.24.50:791][ 69]LogUObjectHash: Compacting FUObjectHashTables data took   0.82ms
[2021.02.26-10.24.50:795][ 69]LogFileHelpers: Editor autosave (incl. external actors) for '/Game/StarterContent/Maps/Level1' took 0.008
[2021.02.26-10.24.50:796][ 69]OBJ SavePackage: Generating thumbnails for [1] asset(s) in package [/Game/StarterContent/Materials/M_Concrete_Tiles] ([1] browsable assets)...
[2021.02.26-10.24.50:804][ 69]OBJ SavePackage:     Rendered thumbnail for [Material /Game/StarterContent/Materials/M_Concrete_Tiles.M_Concrete_Tiles]
[2021.02.26-10.24.50:804][ 69]OBJ SavePackage: Finished generating thumbnails for package [/Game/StarterContent/Materials/M_Concrete_Tiles]
[2021.02.26-10.24.50:816][ 69]LogSavePackage: Moving '../../../../../Project/RaceGame/RaceGame/Saved/M_Concrete_Tiles_Auto14E708B504104D14D92C105931C7AE966.tmp' to '../../../../../Project/RaceGame/RaceGame/Saved/Autosaves/Game/StarterContent/Materials/M_Concrete_Tiles_Auto1.uasset'
[2021.02.26-10.24.50:817][ 69]OBJ SavePackage: Generating thumbnails for [1] asset(s) in package [/Game/StarterContent/Materials/M_Rock_Marble_Polished] ([1] browsable assets)...
[2021.02.26-10.24.50:824][ 69]OBJ SavePackage:     Rendered thumbnail for [Material /Game/StarterContent/Materials/M_Rock_Marble_Polished.M_Rock_Marble_Polished]
[2021.02.26-10.24.50:824][ 69]OBJ SavePackage: Finished generating thumbnails for package [/Game/StarterContent/Materials/M_Rock_Marble_Polished]
[2021.02.26-10.24.50:836][ 69]LogSavePackage: Moving '../../../../../Project/RaceGame/RaceGame/Saved/M_Rock_Marble_Polished_Auto124144D2E442963B1306A8E8E99D17F42.tmp' to '../../../../../Project/RaceGame/RaceGame/Saved/Autosaves/Game/StarterContent/Materials/M_Rock_Marble_Polished_Auto1.uasset'
[2021.02.26-10.24.50:836][ 69]LogFileHelpers: Auto-saving content packages took 0.040
