{
	"AssetInfoVersion": 1,
	"ShaderCodeToAssets": [
		{
			"ShaderMapHash": "3676434BDC62FFC0F194E7846C01EA9919113508",
			"Assets": [
				"../../../Engine/Content/EngineMaterials/PhAT_JointLimitMaterial.uasset"
			]
		},
		{
			"ShaderMapHash": "CE21B809E59889F66B6C39810C16E6D2FD37E319",
			"Assets": [
				"../../../Engine/Content/EngineMaterials/GizmoMaterial.uasset"
			]
		},
		{
			"ShaderMapHash": "925C0CC2C8424631A2DA6FECA250D0FFCC2C0D85",
			"Assets": [
				"../../../Engine/Content/EngineMaterials/M_InvalidLightmapSettings.uasset"
			]
		},
		{
			"ShaderMapHash": "A3AE248A6F05AA5BB9DDF24C32A2BFFC45368F79",
			"Assets": [
				"../../../Engine/Content/EngineMaterials/EmissiveMeshMaterial.uasset"
			]
		},
		{
			"ShaderMapHash": "E2C58873EE5237CF535FE59E114BCAB3435AC135",
			"Assets": [
				"../../../Engine/Content/EngineDebugMaterials/DebugMeshMaterial.uasset"
			]
		},
		{
			"ShaderMapHash": "8B55463DC6EBA46E7658781E872CD1A10795C143",
			"Assets": [
				"../../../Engine/Content/EngineMaterials/RemoveSurfaceMaterial.uasset",
				"../../../../../1/RaceGame/RaceGame/Content/StarterContent/Blueprints/Assets/M_LightStage_Skybox_Master.uasset"
			]
		},
		{
			"ShaderMapHash": "27E36195FF2A8E5C7EFA35B1A3664D37FBA9F873",
			"Assets": [
				"../../Plugins/Runtime/Oculus/OculusVR/Content/Materials/OculusMR_OpaqueColoredMaterial.uasset",
				"../../../Engine/Content/ArtTools/RenderToTexture/Materials/Debug/M_Emissive_Color.uasset"
			]
		},
		{
			"ShaderMapHash": "931F231FB74937674709FE04BDE3FC7716568737",
			"Assets": [
				"../../Plugins/Runtime/Oculus/OculusVR/Content/Materials/OculusMR_ChromaKey.uasset"
			]
		},
		{
			"ShaderMapHash": "DF359B4AC9B32187F758CF45B384EAE9D1313955",
			"Assets": [
				"../../../Engine/Content/EngineDebugMaterials/M_VolumeRenderSphereTracePP.uasset"
			]
		},
		{
			"ShaderMapHash": "8360B2E05E6638EAA2E6836157E4086C378527DA",
			"Assets": [
				"../../Plugins/Editor/SpeedTreeImporter/Content/SpeedTree9/SpeedTreeBillboardMaster.uasset"
			]
		},
		{
			"ShaderMapHash": "2A4BE9B1E447C0CC116AB74C5A912C9B2633BF8A",
			"Assets": [
				"../../Plugins/Editor/SpeedTreeImporter/Content/SpeedTree9/SpeedTreeMaster.uasset"
			]
		},
		{
			"ShaderMapHash": "1882B8A86961777F9222264C52EBE9583D56600D",
			"Assets": [
				"../../../Engine/Content/EngineDebugMaterials/WireframeMaterial.uasset"
			]
		},
		{
			"ShaderMapHash": "4212E1855B4A0C933DE28474B88E21135631201D",
			"Assets": [
				"../../../Engine/Content/EngineDebugMaterials/VertexColorMaterial.uasset"
			]
		},
		{
			"ShaderMapHash": "5EB0E9214B12D20C714F8FAC77380E20870BC318",
			"Assets": [
				"../../../Engine/Content/EngineMaterials/DefaultMaterial.uasset"
			]
		},
		{
			"ShaderMapHash": "4FFAF38520D73293207E565918C6B57F7F8E13C9",
			"Assets": [
				"../../Plugins/2D/Paper2D/Content/OpaqueUnlitSpriteMaterial.uasset"
			]
		},
		{
			"ShaderMapHash": "AA183A99EA3140216EA834319D300E20373F5E93",
			"Assets": [
				"../../Plugins/2D/Paper2D/Content/DefaultSpriteMaterial.uasset"
			]
		},
		{
			"ShaderMapHash": "A3609E644F6C533B8F9A24D27AB2285E2D39571D",
			"Assets": [
				"../../Plugins/Runtime/Oculus/OculusVR/Content/Materials/PokeAHoleMaterial.uasset"
			]
		},
		{
			"ShaderMapHash": "E63575823B1855A5BC7AB84D061AC356FBBDAFC1",
			"Assets": [
				"../../../Engine/Content/EngineDebugMaterials/M_SimpleUnlitTranslucent.uasset"
			]
		},
		{
			"ShaderMapHash": "27D4F827A19CAA0A888D888857CDDC3BC8720D5C",
			"Assets": [
				"../../../Engine/Content/EditorMaterials/Camera/CineMat.uasset"
			]
		},
		{
			"ShaderMapHash": "BAE22A1ABB1CBB248257C342C906E5D3F2723A2D",
			"Assets": [
				"../../../Engine/Content/VREditor/TransformGizmo/TranslucentTransformGizmoMaterial.uasset"
			]
		},
		{
			"ShaderMapHash": "D23C75799DEF0E787A73E61A3035F2635A865E7A",
			"Assets": [
				"../../../Engine/Content/VREditor/TransformGizmo/TransformGizmoMaterial.uasset"
			]
		},
		{
			"ShaderMapHash": "32D281FF7B9F2B531B6A63F9B56F1FAE852490FB",
			"Assets": [
				"../../../Engine/Content/EngineMaterials/Widget3DPassThrough_Masked_OneSided.uasset"
			]
		},
		{
			"ShaderMapHash": "F00F2F9A3CD07DA7457B6B987ED11B739EA06895",
			"Assets": [
				"../../../Engine/Content/EngineMaterials/Widget3DPassThrough_Masked.uasset"
			]
		},
		{
			"ShaderMapHash": "E9F51EE54132DCE7BFFBA8FE653EF3CE494B7150",
			"Assets": [
				"../../../Engine/Content/EngineMaterials/Widget3DPassThrough_Opaque_OneSided.uasset"
			]
		},
		{
			"ShaderMapHash": "AB2C31709D966AFC311EA77E8CF43C110BEBDFC9",
			"Assets": [
				"../../../Engine/Content/EngineMaterials/Widget3DPassThrough_Opaque.uasset"
			]
		},
		{
			"ShaderMapHash": "A62102EDF7922A29CF3165F3274B8B16B91B7432",
			"Assets": [
				"../../../Engine/Content/EngineMaterials/Widget3DPassThrough_Translucent_OneSided.uasset",
				"../../../Engine/Content/EngineMaterials/Widget3DPassThrough.uasset"
			]
		},
		{
			"ShaderMapHash": "EAE9DA31087D494255A0610F70EF6D831D19D10E",
			"Assets": [
				"../../../Engine/Content/EngineMaterials/Widget3DPassThrough_Translucent.uasset"
			]
		},
		{
			"ShaderMapHash": "6CDD0D67BE2F0A1AEAFF29AA516B67EADD0D23CB",
			"Assets": [
				"../../../Engine/Content/VREditor/TransformGizmo/Xray.uasset",
				"../../../../../1/RaceGame/RaceGame/Content/StarterContent/Maps/Level2Content/Borde_main/xrom.uasset",
				"../../../../../1/RaceGame/RaceGame/Content/StarterContent/Maps/Level2Content/Borde_main/Vray__light.uasset",
				"../../../../../1/RaceGame/RaceGame/Content/StarterContent/Maps/Level2Content/Borde_main/TRAVIRTIN.uasset",
				"../../../../../1/RaceGame/RaceGame/Content/StarterContent/Maps/Level2Content/Borde_main/Travertin_tiles_1.uasset",
				"../../../../../1/RaceGame/RaceGame/Content/StarterContent/Maps/Level2Content/Borde_main/Travertin_boz.uasset",
				"../../../../../1/RaceGame/RaceGame/Content/StarterContent/Maps/Level2Content/Borde_main/Travertin_bejivi.uasset",
				"../../../../../1/RaceGame/RaceGame/Content/StarterContent/Maps/Level2Content/Borde_main/Chrom.uasset",
				"../../../../../1/RaceGame/RaceGame/Content/StarterContent/Maps/Level2Content/Borde_main/a.uasset"
			]
		},
		{
			"ShaderMapHash": "01CEDF17BAA9E625CF968FC6207B8445F31E8B20",
			"Assets": [
				"../../../Engine/Content/VREditor/TransformGizmo/Main.uasset"
			]
		},
		{
			"ShaderMapHash": "7A5E8F202B8EC49330571FE4E974F4C1DC111699",
			"Assets": [
				"../../../Engine/Content/EngineMaterials/BaseFlattenMaterial.uasset"
			]
		},
		{
			"ShaderMapHash": "56B1B26291F2A93036D693A99C17271296B6D747",
			"Assets": [
				"../../../Engine/Content/EngineSky/VolumetricClouds/m_SimpleVolumetricCloud.uasset"
			]
		},
		{
			"ShaderMapHash": "5E54F8731E4DB06305E2C922AD4FA917B06EF3DF",
			"Assets": [
				"../../../Engine/Content/EngineMaterials/DefaultPostProcessMaterial.uasset"
			]
		},
		{
			"ShaderMapHash": "AD3B1EE8E520055A0DFECE9D37E93134BDCCB50E",
			"Assets": [
				"../../../Engine/Content/EngineMaterials/DefaultLightFunctionMaterial.uasset"
			]
		},
		{
			"ShaderMapHash": "0042AAEE9D5EF1F678BC41F998BFA45A32FB002E",
			"Assets": [
				"../../../Engine/Content/EngineMaterials/DefaultDeferredDecalMaterial.uasset"
			]
		},
		{
			"ShaderMapHash": "052826F9417262545AE9470F132F0345CDFAAD45",
			"Assets": [
				"../../../Engine/Content/EngineMaterials/WorldGridMaterial.uasset"
			]
		},
		{
			"ShaderMapHash": "5D5CE78AF765895B0E693106AA943D2E2F24E78A",
			"Assets": [
				"../../../Engine/Content/EngineMaterials/DefaultTextMaterialOpaque.uasset"
			]
		},
		{
			"ShaderMapHash": "E932F11163617C99E4A55994787FFB8E85240FC0",
			"Assets": [
				"../../Plugins/2D/Paper2D/Content/TranslucentUnlitSpriteMaterial.uasset"
			]
		},
		{
			"ShaderMapHash": "84E77B16DB6849A87F7F4730D1BD9FAFFE41D989",
			"Assets": [
				"../../../Engine/Content/EditorMaterials/PreviewShadowIndicatorMaterial.uasset"
			]
		},
		{
			"ShaderMapHash": "040BB8DCB003F495FD9AD7E67786CBEADDF172C5",
			"Assets": [
				"../../../Engine/Content/EngineDebugMaterials/DebugEditorMaterial.uasset"
			]
		},
		{
			"ShaderMapHash": "8FB63F8915A970DB147CFEDC3D02E019EDDEC70F",
			"Assets": [
				"../../../../../1/RaceGame/RaceGame/Content/StarterContent/Maps/levelsmaterials/level1_material.uasset"
			]
		},
		{
			"ShaderMapHash": "4FE3282AB0F6C2789225C1FD03EF54E56158CD16",
			"Assets": [
				"../../../Engine/Content/EngineSky/M_Sky_Panning_Clouds2.uasset"
			]
		},
		{
			"ShaderMapHash": "3056C52E75C69735322CBB28DCB82FE13B2B79E4",
			"Assets": [
				"../../../../../1/RaceGame/RaceGame/Content/StarterContent/Materials/M_Water_Ocean.uasset"
			]
		},
		{
			"ShaderMapHash": "FB2D21D70E35E4BEE0A80F9ABD2AA162C2725DC8",
			"Assets": [
				"../../../Engine/Content/EngineMaterials/AntiAliasedTextMaterialTranslucent.uasset"
			]
		},
		{
			"ShaderMapHash": "D84796E04193CDD3D09219BCCA9815B10E5D0CBF",
			"Assets": [
				"../../../../../1/RaceGame/RaceGame/Content/StarterContent/playermodels/CyberCar/material/Ceber.uasset"
			]
		},
		{
			"ShaderMapHash": "402CCCC18BB855398B3ECA954DD9F7BE64A3C8CC",
			"Assets": [
				"../../../../../1/RaceGame/RaceGame/Content/StarterContent/minimap/minimap_mat.uasset"
			]
		},
		{
			"ShaderMapHash": "56AF93D3C755EBF960CBCB278AB41708E0562D72",
			"Assets": [
				"../../../../../1/RaceGame/RaceGame/Content/StarterContent/Materials/checkpoint_next.uasset"
			]
		},
		{
			"ShaderMapHash": "5886B7B6A450D08B5763DE5F90A1B4AEDF748086",
			"Assets": [
				"../../../../../1/RaceGame/RaceGame/Content/StarterContent/Materials/checkpoint_passed_not_passed.uasset"
			]
		},
		{
			"ShaderMapHash": "135D2082B583D1212187C0AFA69C0DDA982569CD",
			"Assets": [
				"../../../../../1/RaceGame/RaceGame/Content/StarterContent/Materials/MasterSolidColor_2.uasset",
				"../../../../../1/RaceGame/RaceGame/Content/StarterContent/Materials/MasterSolidColor.uasset"
			]
		},
		{
			"ShaderMapHash": "78CCB0353A456910EFD2CF379FFD8D3F893A75DF",
			"Assets": [
				"../../../../../1/RaceGame/RaceGame/Content/StarterContent/Materials/MasterGrid_3.uasset",
				"../../../../../1/RaceGame/RaceGame/Content/StarterContent/Materials/MasterGrid.uasset",
				"../../../../../1/RaceGame/RaceGame/Content/StarterContent/Materials/MasterGrid_2.uasset"
			]
		},
		{
			"ShaderMapHash": "C92742D609EAB70F01775F714942A6C29D653CCB",
			"Assets": [
				"../../../../../1/RaceGame/RaceGame/Content/StarterContent/Materials/M_Brick_Clay_New.uasset"
			]
		},
		{
			"ShaderMapHash": "62E4BDFC5A9EA0213436306B87B8BC6C4C14F371",
			"Assets": [
				"../../../../../1/RaceGame/RaceGame/Content/StarterContent/Maps/Level2Content/Borde/gray.uasset"
			]
		},
		{
			"ShaderMapHash": "850B47A5B7B1E42C60CF3FAE51A3EFD8156AE4FF",
			"Assets": [
				"../../../../../1/RaceGame/RaceGame/Content/StarterContent/Maps/Level2Content/Borde/concrete.uasset"
			]
		},
		{
			"ShaderMapHash": "4E6C3971D3B580C051C9B0FFED72ABB927D99655",
			"Assets": [
				"../../../../../1/RaceGame/RaceGame/Content/StarterContent/Materials/M_Concrete_Tiles.uasset"
			]
		},
		{
			"ShaderMapHash": "3818614F599727BBB6343EADAF1877CDC0DB6D3C",
			"Assets": [
				"../../../../../1/RaceGame/RaceGame/Content/StarterContent/Maps/Level2.uasset"
			]
		},
		{
			"ShaderMapHash": "FD2325E266AE8FA725B570B13BA1ADA3CF25BCDD",
			"Assets": [
				"../../../../../1/RaceGame/RaceGame/Content/StarterContent/Materials/M_Basic_Wall.uasset"
			]
		},
		{
			"ShaderMapHash": "7277344F370D7DAEE96886B49639C63BD13B5248",
			"Assets": [
				"../../../../../1/RaceGame/RaceGame/Content/StarterContent/Props/Road.uasset"
			]
		},
		{
			"ShaderMapHash": "5541C38277A508BCB4C3E1B85C952CC1F32FBE0E",
			"Assets": [
				"../../../../../1/RaceGame/RaceGame/Content/StarterContent/Materials/mapmaterial/models/Medieval_house3/Medieval_house_3.uasset"
			]
		},
		{
			"ShaderMapHash": "18CF84ED6976367CBBB87D897209065357BA1241",
			"Assets": [
				"../../../../../1/RaceGame/RaceGame/Content/StarterContent/Shapes/Material.uasset"
			]
		},
		{
			"ShaderMapHash": "EAB0B97F3D6BF314148942617569E6D069DB41B6",
			"Assets": [
				"../../../../../1/RaceGame/RaceGame/Content/StarterContent/Props/Materials/M_TableRound.uasset"
			]
		},
		{
			"ShaderMapHash": "EFE9C51D7D26BE67A352B90A2DD61C0CB3F83628",
			"Assets": [
				"../../../../../1/RaceGame/RaceGame/Content/StarterContent/Props/Materials/M_StatueGlass.uasset"
			]
		},
		{
			"ShaderMapHash": "0FE92F7A80E331B9101AF184E6B800D00D3EB9DB",
			"Assets": [
				"../../../../../1/RaceGame/RaceGame/Content/StarterContent/Props/Materials/M_Statue.uasset"
			]
		},
		{
			"ShaderMapHash": "D0A5BD060D872B75828943511D69D48BF71E0001",
			"Assets": [
				"../../../../../1/RaceGame/RaceGame/Content/StarterContent/Props/Materials/M_Shelf.uasset"
			]
		},
		{
			"ShaderMapHash": "BC284EE8C793349B8654BD175C1C54EBFB2E35E5",
			"Assets": [
				"../../../../../1/RaceGame/RaceGame/Content/StarterContent/Props/Materials/M_Rock.uasset"
			]
		},
		{
			"ShaderMapHash": "70368F7B49ECE232067D5BD15961AA3CC786F482",
			"Assets": [
				"../../../../../1/RaceGame/RaceGame/Content/StarterContent/Props/Materials/M_MaterialSphere_Plain.uasset"
			]
		},
		{
			"ShaderMapHash": "F77242BBCAA16CAF0ABDEC597BEE76FD973EF259",
			"Assets": [
				"../../../../../1/RaceGame/RaceGame/Content/StarterContent/Props/Materials/M_MaterialSphere.uasset"
			]
		},
		{
			"ShaderMapHash": "03BFE8C92D3E44B603EAF5E33C4BF599277B94F1",
			"Assets": [
				"../../../../../1/RaceGame/RaceGame/Content/StarterContent/Props/Materials/M_Lamp.uasset"
			]
		},
		{
			"ShaderMapHash": "1F50C05C09A2E83257010B93662F36A1D7586D7B",
			"Assets": [
				"../../../../../1/RaceGame/RaceGame/Content/StarterContent/Props/Materials/M_Frame.uasset"
			]
		},
		{
			"ShaderMapHash": "6E599DC21F2566D0BD88F79500302F569700EB5A",
			"Assets": [
				"../../../../../1/RaceGame/RaceGame/Content/StarterContent/Props/Materials/M_Door.uasset"
			]
		},
		{
			"ShaderMapHash": "05CA42638EE90D304218AEB1B7B87783A9160FCC",
			"Assets": [
				"../../../../../1/RaceGame/RaceGame/Content/StarterContent/Props/Materials/M_Chair.uasset"
			]
		},
		{
			"ShaderMapHash": "BDE733D4C48705524848E0FC78DA95D2A7F58691",
			"Assets": [
				"../../../../../1/RaceGame/RaceGame/Content/StarterContent/Props/Materials/M_Bush.uasset"
			]
		},
		{
			"ShaderMapHash": "0E973070055579D6B1D8237BC3514E2EB5A9D826",
			"Assets": [
				"../../../../../1/RaceGame/RaceGame/Content/StarterContent/Materials/M_Basic_Floor.uasset"
			]
		},
		{
			"ShaderMapHash": "661B17B3FB1267A7AD137C3C858DC2C6584CC410",
			"Assets": [
				"../../../../../1/RaceGame/RaceGame/Content/StarterContent/Materials/M_Glass.uasset"
			]
		},
		{
			"ShaderMapHash": "A8E593D530597CB87355800679A19D3E8FFBB9B8",
			"Assets": [
				"../../../../../1/RaceGame/RaceGame/Content/StarterContent/Materials/Fixed_Template_Master.uasset"
			]
		},
		{
			"ShaderMapHash": "DB4934A2E00EE0FDF69589DC315ADDDD53E3E1BC",
			"Assets": [
				"../../../../../1/RaceGame/RaceGame/Content/StarterContent/Materials/Landscape.uasset"
			]
		},
		{
			"ShaderMapHash": "CD933023BC95EDEE719C4BE3E713D4CB688585F6",
			"Assets": [
				"../../../../../1/RaceGame/RaceGame/Content/StarterContent/Materials/mapmaterial/MapLayer.uasset"
			]
		},
		{
			"ShaderMapHash": "2C43E71F4FF427356FADE1D51282B108222BAAC8",
			"Assets": [
				"../../../../../1/RaceGame/RaceGame/Content/StarterContent/Materials/Road_1.uasset",
				"../../../../../1/RaceGame/RaceGame/Content/StarterContent/Materials/Road.uasset"
			]
		},
		{
			"ShaderMapHash": "5EBD21CA1F39FA1FA02DEF349FEDA14BF73B3CE5",
			"Assets": [
				"../../../../../1/RaceGame/RaceGame/Content/StarterContent/Materials/M_Wood_Walnut.uasset"
			]
		},
		{
			"ShaderMapHash": "A117C7B87E28982B2B7748403CF78CB2A469DB47",
			"Assets": [
				"../../../../../1/RaceGame/RaceGame/Content/StarterContent/Materials/M_Wood_Pine.uasset"
			]
		},
		{
			"ShaderMapHash": "CA043011157D3F0E5F3B4FCE1F0A4C84C560655E",
			"Assets": [
				"../../../../../1/RaceGame/RaceGame/Content/StarterContent/Materials/M_Wood_Oak.uasset"
			]
		},
		{
			"ShaderMapHash": "5ABD78BA44D1E298C35E2A3BF1F8F3EACB327EE2",
			"Assets": [
				"../../../../../1/RaceGame/RaceGame/Content/StarterContent/Materials/M_Wood_Floor_Walnut_Worn.uasset"
			]
		},
		{
			"ShaderMapHash": "44ED270A4214EA2432ECBB32DA9FB374AC10D1F6",
			"Assets": [
				"../../../../../1/RaceGame/RaceGame/Content/StarterContent/Materials/M_Wood_Floor_Walnut_Polished.uasset"
			]
		},
		{
			"ShaderMapHash": "20689FD0D7E875120C64E551FB54E38E339986AF",
			"Assets": [
				"../../../../../1/RaceGame/RaceGame/Content/StarterContent/Materials/M_Water_Lake.uasset"
			]
		},
		{
			"ShaderMapHash": "DD0DB34222B3D5F9997B7B7FB6C9CFB8E4FF516F",
			"Assets": [
				"../../../../../1/RaceGame/RaceGame/Content/StarterContent/Materials/M_Tech_Panel.uasset"
			]
		},
		{
			"ShaderMapHash": "E40FBC0160D2B45CB2B96AA25F2A6F0A533CB413",
			"Assets": [
				"../../../../../1/RaceGame/RaceGame/Content/StarterContent/Materials/M_Tech_Hex_Tile_Pulse.uasset"
			]
		},
		{
			"ShaderMapHash": "9764E3011D5F4472F5095EEA14B3DA6D6067BD44",
			"Assets": [
				"../../../../../1/RaceGame/RaceGame/Content/StarterContent/Materials/M_Tech_Hex_Tile.uasset"
			]
		},
		{
			"ShaderMapHash": "808E590D94508EA9DFA8A4995C7170374E274A6A",
			"Assets": [
				"../../../../../1/RaceGame/RaceGame/Content/StarterContent/Materials/M_Tech_Checker_Dot.uasset"
			]
		},
		{
			"ShaderMapHash": "D701E00C4341906CE59DF4C43A465BC00DA71ACB",
			"Assets": [
				"../../../../../1/RaceGame/RaceGame/Content/StarterContent/Materials/M_Rock_Slate.uasset"
			]
		},
		{
			"ShaderMapHash": "970764AA63DCE76F0F71D01B2C4A4F8C7803DF70",
			"Assets": [
				"../../../../../1/RaceGame/RaceGame/Content/StarterContent/Materials/M_Rock_Sandstone.uasset"
			]
		},
		{
			"ShaderMapHash": "E651BF08DA68CEDE056E87239B7BACAE9E6B980C",
			"Assets": [
				"../../../../../1/RaceGame/RaceGame/Content/StarterContent/Materials/M_Rock_Marble_Polished.uasset"
			]
		},
		{
			"ShaderMapHash": "A17D44B321AAA8A941CDEC62C941F9B15F50F1E4",
			"Assets": [
				"../../../../../1/RaceGame/RaceGame/Content/StarterContent/Materials/M_Rock_Basalt.uasset"
			]
		},
		{
			"ShaderMapHash": "94CB72591BFB1AA0F8993301571CBEC81649DBD4",
			"Assets": [
				"../../../../../1/RaceGame/RaceGame/Content/StarterContent/Materials/M_Metal_Steel.uasset"
			]
		},
		{
			"ShaderMapHash": "4442ECD6AF786883A2D80448E4265B33E8AD9323",
			"Assets": [
				"../../../../../1/RaceGame/RaceGame/Content/StarterContent/Materials/M_Metal_Rust.uasset"
			]
		},
		{
			"ShaderMapHash": "D0B077EFD5B2AEAE662EBCA6D98D4D99245F1A66",
			"Assets": [
				"../../../../../1/RaceGame/RaceGame/Content/StarterContent/Materials/M_Metal_Gold.uasset"
			]
		},
		{
			"ShaderMapHash": "2BBD5E57E1782D1F2887171B320BCF984EFA55A0",
			"Assets": [
				"../../../../../1/RaceGame/RaceGame/Content/StarterContent/Materials/M_Metal_Copper.uasset"
			]
		},
		{
			"ShaderMapHash": "114D1F72B756BFD8919F9D877527F4D6EE46AFB9",
			"Assets": [
				"../../../../../1/RaceGame/RaceGame/Content/StarterContent/Materials/M_Metal_Chrome.uasset"
			]
		},
		{
			"ShaderMapHash": "00D65A8AC680436C92F1335346B2CB71546895B0",
			"Assets": [
				"../../../../../1/RaceGame/RaceGame/Content/StarterContent/Materials/M_Metal_Burnished_Steel.uasset"
			]
		},
		{
			"ShaderMapHash": "716511C7F2553049BE686CC038AC13A042496EEB",
			"Assets": [
				"../../../../../1/RaceGame/RaceGame/Content/StarterContent/Materials/M_Metal_Brushed_Nickel.uasset"
			]
		},
		{
			"ShaderMapHash": "BE283DFD2AE6CACE32851AAE8594E28655F11585",
			"Assets": [
				"../../../../../1/RaceGame/RaceGame/Content/StarterContent/Materials/M_Ground_Moss.uasset"
			]
		},
		{
			"ShaderMapHash": "A5623A7246D9C37E244D4F1BF9DAA428D5E010D1",
			"Assets": [
				"../../../../../1/RaceGame/RaceGame/Content/StarterContent/Materials/M_Ground_Gravel.uasset"
			]
		},
		{
			"ShaderMapHash": "2CB2505DC37386508890CD8B7AA8259D32DB51DE",
			"Assets": [
				"../../../../../1/RaceGame/RaceGame/Content/StarterContent/Materials/M_Concrete_Poured.uasset"
			]
		},
		{
			"ShaderMapHash": "DFBC3ECA43EA2DACAD9CE4A535A90896A66ABCDF",
			"Assets": [
				"../../../../../1/RaceGame/RaceGame/Content/StarterContent/Materials/M_Concrete_Panels.uasset"
			]
		},
		{
			"ShaderMapHash": "9732BB67E7B01B76E3A36DEC3FB06B83D5A1B032",
			"Assets": [
				"../../../../../1/RaceGame/RaceGame/Content/StarterContent/Materials/M_Concrete_Grime.uasset"
			]
		},
		{
			"ShaderMapHash": "C9C8E782F3F46C917FBB4556885514C762EE6E02",
			"Assets": [
				"../../../../../1/RaceGame/RaceGame/Content/StarterContent/Materials/M_ColorGrid_LowSpec.uasset"
			]
		},
		{
			"ShaderMapHash": "99409896C3E6DBCF4A554C37365C25B380AB4994",
			"Assets": [
				"../../../../../1/RaceGame/RaceGame/Content/StarterContent/Materials/M_CobbleStone_Smooth.uasset"
			]
		},
		{
			"ShaderMapHash": "894C7354ACE316054282CECB3D7CAA3188137158",
			"Assets": [
				"../../../../../1/RaceGame/RaceGame/Content/StarterContent/Materials/M_CobbleStone_Rough.uasset"
			]
		},
		{
			"ShaderMapHash": "01C8C1CB329D586C1591D113A5786B084D31BA32",
			"Assets": [
				"../../../../../1/RaceGame/RaceGame/Content/StarterContent/Materials/M_CobbleStone_Pebble.uasset"
			]
		},
		{
			"ShaderMapHash": "72013F85FC5045433FA0BA0AA1D58B5988AAC479",
			"Assets": [
				"../../../../../1/RaceGame/RaceGame/Content/StarterContent/Materials/M_Ceramic_Tile_Checker.uasset"
			]
		},
		{
			"ShaderMapHash": "84AE8662EB7A05DAF1062FB06388163A632706CA",
			"Assets": [
				"../../../../../1/RaceGame/RaceGame/Content/StarterContent/Materials/M_Brick_Hewn_Stone.uasset"
			]
		},
		{
			"ShaderMapHash": "81BBF38C47BCCBB08F85C024513C7A72D27D603A",
			"Assets": [
				"../../../../../1/RaceGame/RaceGame/Content/StarterContent/Materials/M_Brick_Cut_Stone.uasset"
			]
		},
		{
			"ShaderMapHash": "8783C3F34079967805E0FC7756662EE44E9F2ABD",
			"Assets": [
				"../../../../../1/RaceGame/RaceGame/Content/StarterContent/Materials/M_Brick_Clay_Old.uasset"
			]
		},
		{
			"ShaderMapHash": "4C2BD69FDA51A8977763FC8E2CFBB7D6E2056076",
			"Assets": [
				"../../../../../1/RaceGame/RaceGame/Content/StarterContent/Materials/M_Brick_Clay_Beveled.uasset"
			]
		},
		{
			"ShaderMapHash": "FCAC9CD95037A5AD3304161E9E9FFB366B34A74F",
			"Assets": [
				"../../../../../1/RaceGame/RaceGame/Content/StarterContent/Materials/M_AssetPlatform.uasset"
			]
		},
		{
			"ShaderMapHash": "B1792DD387C7D34880F6DCA4465C5BEDF6D36971",
			"Assets": [
				"../../../Engine/Content/EditorMaterials/Thumbnails/SkySphereMaterial.uasset"
			]
		},
		{
			"ShaderMapHash": "ECF211909B951137D59C1A4B4AC46570D95B1FC7",
			"Assets": [
				"../../../../../1/RaceGame/RaceGame/Content/StarterContent/Blueprints/Assets/M_LightStage_Skybox_HDRI.uasset"
			]
		},
		{
			"ShaderMapHash": "0AC2BA719308A71FEA3C7A05B90B1323A0E2DC16",
			"Assets": [
				"../../../../../1/RaceGame/RaceGame/Content/StarterContent/Blueprints/Assets/M_LightStage_Arrows.uasset"
			]
		},
		{
			"ShaderMapHash": "34D321116196EC88C905CD562C2229FACD6AFC10",
			"Assets": [
				"../../../../../1/RaceGame/RaceGame/Content/StarterContent/ArenaMesh/CubeMaterial.uasset"
			]
		},
		{
			"ShaderMapHash": "0774B5B11D3253C8AD294FEAA29C30489CBAE7C6",
			"Assets": [
				"../../../../../1/RaceGame/RaceGame/Content/StarterContent/Maps/Level3.uasset",
				"../../../../../1/RaceGame/RaceGame/Content/StarterContent/Maps/Level1.uasset",
				"../../../../../1/RaceGame/RaceGame/Content/StarterContent/Maps/Level.uasset"
			]
		},
		{
			"ShaderMapHash": "6656376EE9DC2D4D6C2C9813709C9DDB48A68D6F",
			"Assets": [
				"../../../../../1/RaceGame/RaceGame/Content/StarterContent/Maps/Level3.uasset",
				"../../../../../1/RaceGame/RaceGame/Content/StarterContent/Maps/Level1.uasset",
				"../../../../../1/RaceGame/RaceGame/Content/StarterContent/Maps/Level.uasset"
			]
		},
		{
			"ShaderMapHash": "833A5D4728805DD2B11293DB0F6C53B92739F772",
			"Assets": [
				"../../../../../1/RaceGame/RaceGame/Content/StarterContent/Maps/Level3.uasset",
				"../../../../../1/RaceGame/RaceGame/Content/StarterContent/Maps/Level1.uasset",
				"../../../../../1/RaceGame/RaceGame/Content/StarterContent/Maps/Level.uasset"
			]
		},
		{
			"ShaderMapHash": "E7FA9A5ECB75B237EA89AAC443ABB2E0C5A6010F",
			"Assets": [
				"../../../../../1/RaceGame/RaceGame/Content/StarterContent/Maps/Level3.uasset"
			]
		},
		{
			"ShaderMapHash": "6BE7F25C4315B58FC055B90BADC02B7A2E4EB11F",
			"Assets": [
				"../../../../../1/RaceGame/RaceGame/Content/StarterContent/Maps/Level.uasset"
			]
		},
		{
			"ShaderMapHash": "75985B2E975CF35B17D9FA9B6531442F2E4D0BBD",
			"Assets": [
				"../../../../../1/RaceGame/RaceGame/Content/PhotoR_Backgrounds/Materials/Mountain_Winter/pr_background_mountain_e_M_winter.uasset",
				"../../../../../1/RaceGame/RaceGame/Content/PhotoR_Backgrounds/Materials/Mountain_Winter/pr_background_mountain_d_M_winter.uasset",
				"../../../../../1/RaceGame/RaceGame/Content/PhotoR_Backgrounds/Materials/Mountain_Winter/pr_background_mountain_c_M_winter.uasset",
				"../../../../../1/RaceGame/RaceGame/Content/PhotoR_Backgrounds/Materials/Mountain_Winter/pr_background_mountain_b_M_winter.uasset",
				"../../../../../1/RaceGame/RaceGame/Content/PhotoR_Backgrounds/Materials/Mountain_Winter/pr_background_mountain_a_M_winter.uasset"
			]
		},
		{
			"ShaderMapHash": "F1707FA7F829E1D4A985D14A20BFA4EC1CD604EC",
			"Assets": [
				"../../../../../1/RaceGame/RaceGame/Content/PhotoR_Backgrounds/Materials/Mountain_Summer/pr_background_mountain_e_M_summer.uasset",
				"../../../../../1/RaceGame/RaceGame/Content/PhotoR_Backgrounds/Materials/Mountain_Summer/pr_background_mountain_d_M_summer.uasset",
				"../../../../../1/RaceGame/RaceGame/Content/PhotoR_Backgrounds/Materials/Mountain_Summer/pr_background_mountain_c_M_summer.uasset",
				"../../../../../1/RaceGame/RaceGame/Content/PhotoR_Backgrounds/Materials/Mountain_Summer/pr_background_mountain_b_M_summer.uasset",
				"../../../../../1/RaceGame/RaceGame/Content/PhotoR_Backgrounds/Materials/Mountain_Summer/pr_background_mountain_a_M_summer.uasset"
			]
		},
		{
			"ShaderMapHash": "02DE0363D22C68D1C4BD7EDC68BD8AC59DB617A5",
			"Assets": [
				"../../../../../1/RaceGame/RaceGame/Content/PhotoR_Backgrounds/Materials/Mountain_Spring/pr_background_mountain_e_M_spring.uasset",
				"../../../../../1/RaceGame/RaceGame/Content/PhotoR_Backgrounds/Materials/Mountain_Spring/pr_background_mountain_d_M_spring.uasset",
				"../../../../../1/RaceGame/RaceGame/Content/PhotoR_Backgrounds/Materials/Mountain_Spring/pr_background_mountain_c_M_spring.uasset",
				"../../../../../1/RaceGame/RaceGame/Content/PhotoR_Backgrounds/Materials/Mountain_Spring/pr_background_mountain_b_M_spring.uasset",
				"../../../../../1/RaceGame/RaceGame/Content/PhotoR_Backgrounds/Materials/Mountain_Spring/pr_background_mountain_a_M_spring.uasset"
			]
		},
		{
			"ShaderMapHash": "3733710911477EEC1872603106061A609F75E461",
			"Assets": [
				"../../../../../1/RaceGame/RaceGame/Content/PhotoR_Backgrounds/Materials/Mountain_Fall/pr_background_mountain_e_M_fall.uasset",
				"../../../../../1/RaceGame/RaceGame/Content/PhotoR_Backgrounds/Materials/Mountain_Fall/pr_background_mountain_d_M_fall.uasset",
				"../../../../../1/RaceGame/RaceGame/Content/PhotoR_Backgrounds/Materials/Mountain_Fall/pr_background_mountain_c_M_fall.uasset",
				"../../../../../1/RaceGame/RaceGame/Content/PhotoR_Backgrounds/Materials/Mountain_Fall/pr_background_mountain_b_M_fall.uasset",
				"../../../../../1/RaceGame/RaceGame/Content/PhotoR_Backgrounds/Materials/Mountain_Fall/pr_background_mountain_a_M_fall.uasset"
			]
		},
		{
			"ShaderMapHash": "CBA89DAAADC7F749535F395602AC8C69A938866B",
			"Assets": [
				"../../../../../1/RaceGame/RaceGame/Content/PhotoR_Backgrounds/Materials/Mobile/Mobile_mountain_e_M_summer.uasset",
				"../../../../../1/RaceGame/RaceGame/Content/PhotoR_Backgrounds/Materials/Mobile/Mobile_mountain_d_M_summer.uasset",
				"../../../../../1/RaceGame/RaceGame/Content/PhotoR_Backgrounds/Materials/Mobile/Mobile_mountain_c_M_summer.uasset",
				"../../../../../1/RaceGame/RaceGame/Content/PhotoR_Backgrounds/Materials/Mobile/Mobile_mountain_b_M_summer.uasset",
				"../../../../../1/RaceGame/RaceGame/Content/PhotoR_Backgrounds/Materials/Mobile/Mobile_mountain_a_M_summer.uasset",
				"../../../../../1/RaceGame/RaceGame/Content/PhotoR_Backgrounds/Materials/Mobile/Mobile_desert.uasset",
				"../../../../../1/RaceGame/RaceGame/Content/PhotoR_Backgrounds/Materials/Mobile/Mobile_canyon_c.uasset",
				"../../../../../1/RaceGame/RaceGame/Content/PhotoR_Backgrounds/Materials/Mobile/Mobile_canyon_b.uasset",
				"../../../../../1/RaceGame/RaceGame/Content/PhotoR_Backgrounds/Materials/Mobile/Mobile_canyon_a.uasset",
				"../../../../../1/RaceGame/RaceGame/Content/PhotoR_Backgrounds/Materials/Mobile/Mobile_afghan_b.uasset",
				"../../../../../1/RaceGame/RaceGame/Content/PhotoR_Backgrounds/Materials/Mobile/Mobile_afghan_a.uasset",
				"../../../../../1/RaceGame/RaceGame/Content/PhotoR_Backgrounds/Materials/Mobile/Mobile_mountain_e_M_winter.uasset",
				"../../../../../1/RaceGame/RaceGame/Content/PhotoR_Backgrounds/Materials/Mobile/Mobile_mountain_e_M_spring.uasset",
				"../../../../../1/RaceGame/RaceGame/Content/PhotoR_Backgrounds/Materials/Mobile/Mobile_mountain_e_M_fall.uasset",
				"../../../../../1/RaceGame/RaceGame/Content/PhotoR_Backgrounds/Materials/Mobile/Mobile_mountain_d_M_winter.uasset",
				"../../../../../1/RaceGame/RaceGame/Content/PhotoR_Backgrounds/Materials/Mobile/Mobile_mountain_d_M_spring.uasset",
				"../../../../../1/RaceGame/RaceGame/Content/PhotoR_Backgrounds/Materials/Mobile/Mobile_mountain_d_M_fall.uasset",
				"../../../../../1/RaceGame/RaceGame/Content/PhotoR_Backgrounds/Materials/Mobile/Mobile_mountain_c_M_winter.uasset",
				"../../../../../1/RaceGame/RaceGame/Content/PhotoR_Backgrounds/Materials/Mobile/Mobile_mountain_c_M_spring.uasset",
				"../../../../../1/RaceGame/RaceGame/Content/PhotoR_Backgrounds/Materials/Mobile/Mobile_mountain_c_M_fall.uasset",
				"../../../../../1/RaceGame/RaceGame/Content/PhotoR_Backgrounds/Materials/Mobile/Mobile_mountain_b_M_winter.uasset",
				"../../../../../1/RaceGame/RaceGame/Content/PhotoR_Backgrounds/Materials/Mobile/Mobile_mountain_b_M_spring.uasset",
				"../../../../../1/RaceGame/RaceGame/Content/PhotoR_Backgrounds/Materials/Mobile/Mobile_mountain_b_M_fall.uasset",
				"../../../../../1/RaceGame/RaceGame/Content/PhotoR_Backgrounds/Materials/Mobile/Mobile_mountain_a_M_winter.uasset",
				"../../../../../1/RaceGame/RaceGame/Content/PhotoR_Backgrounds/Materials/Mobile/Mobile_mountain_a_M_spring.uasset",
				"../../../../../1/RaceGame/RaceGame/Content/PhotoR_Backgrounds/Materials/Mobile/Mobile_mountain_a_M_fall.uasset"
			]
		},
		{
			"ShaderMapHash": "82AC32A69A674F4F405F341A95C91F4E6FD11F53",
			"Assets": [
				"../../../../../1/RaceGame/RaceGame/Content/PhotoR_Backgrounds/Materials/Desert/desert_outer_mesh_splat_map.uasset"
			]
		},
		{
			"ShaderMapHash": "E2DFD0780F02A51D7075EAB81292FA243BC0BA79",
			"Assets": [
				"../../../../../1/RaceGame/RaceGame/Content/PhotoR_Backgrounds/Materials/Canyon/canyon_outer_mesh_3_splat_map.uasset"
			]
		},
		{
			"ShaderMapHash": "13CA3ED66E561274A9986A4BA31E578E7F5961E8",
			"Assets": [
				"../../../../../1/RaceGame/RaceGame/Content/PhotoR_Backgrounds/Materials/Canyon/canyon_outer_mesh_2_splat_map.uasset"
			]
		},
		{
			"ShaderMapHash": "504C9C7FA462F8C937EB23FC40B191BF120F03C6",
			"Assets": [
				"../../../../../1/RaceGame/RaceGame/Content/PhotoR_Backgrounds/Materials/Canyon/canyon_outer_mesh_1_splat_map.uasset"
			]
		},
		{
			"ShaderMapHash": "53BBD0C55D799EC4A193D5E375AE126C22637C46",
			"Assets": [
				"../../../../../1/RaceGame/RaceGame/Content/PhotoR_Backgrounds/Materials/Afghan/afghan_mountain_b.uasset"
			]
		},
		{
			"ShaderMapHash": "D4BC209EC3E8B353FF339E619A924D049E3E55D4",
			"Assets": [
				"../../../../../1/RaceGame/RaceGame/Content/PhotoR_Backgrounds/Materials/Afghan/afghan_mountain_a.uasset"
			]
		},
		{
			"ShaderMapHash": "DA59E3F9447EC65312D6D854FE96C3EC75CF2113",
			"Assets": [
				"../../../../../1/RaceGame/RaceGame/Content/PhotoR_Backgrounds/Meshes/template_yellow.uasset",
				"../../../../../1/RaceGame/RaceGame/Content/PhotoR_Backgrounds/Meshes/template_white.uasset",
				"../../../../../1/RaceGame/RaceGame/Content/PhotoR_Backgrounds/Meshes/template_red.uasset"
			]
		},
		{
			"ShaderMapHash": "424252C82D14577D1D11DC46D1887F3E69EB2BC4",
			"Assets": [
				"../../../../../1/RaceGame/RaceGame/Content/PhotoR_Backgrounds/Materials/billboard_snow.uasset"
			]
		},
		{
			"ShaderMapHash": "9B6D47C6ECD73C700820A619B6578C6DBBA24CF4",
			"Assets": [
				"../../../../../1/RaceGame/RaceGame/Content/PhotoR_Backgrounds/Materials/billboard.uasset"
			]
		},
		{
			"ShaderMapHash": "76A6BF7ED3231B4883A9547EE7C498E53A1F217E",
			"Assets": [
				"../../../../../1/RaceGame/RaceGame/Content/PhotoR_Backgrounds/Materials/billboard_fall.uasset"
			]
		},
		{
			"ShaderMapHash": "C2119CBE6EE9697A6B9239A3EDEC917273851518",
			"Assets": [
				"../../../../../1/RaceGame/RaceGame/Content/PhotoR_Backgrounds/Materials/Splat_maps/mountain_e.uasset",
				"../../../../../1/RaceGame/RaceGame/Content/PhotoR_Backgrounds/Materials/Splat_maps/mountain_a_splat.uasset"
			]
		},
		{
			"ShaderMapHash": "4790A0AFE1509425B0428FC4779EB15A24A4071E",
			"Assets": [
				"../../../../../1/RaceGame/RaceGame/Content/PhotoR_Backgrounds/Materials/Splat_maps/mountain_d.uasset",
				"../../../../../1/RaceGame/RaceGame/Content/PhotoR_Backgrounds/Materials/Splat_maps/mountain_c.uasset",
				"../../../../../1/RaceGame/RaceGame/Content/PhotoR_Backgrounds/Materials/Splat_maps/mountain_b.uasset"
			]
		},
		{
			"ShaderMapHash": "6D962A30FA587EF0B4D3AD2CF32B062275F67229",
			"Assets": [
				"../../../../../1/RaceGame/RaceGame/Content/PhotoR_Backgrounds/Materials/winter_terrain.uasset"
			]
		},
		{
			"ShaderMapHash": "64B5844C536056BDB718F67DC13E9D4310B8CFB4",
			"Assets": [
				"../../../../../1/RaceGame/RaceGame/Content/PhotoR_Backgrounds/Materials/summer_terrain.uasset"
			]
		},
		{
			"ShaderMapHash": "527C9E5ED9DBBCCCCF8AB307BC60D2C2243A6395",
			"Assets": [
				"../../../../../1/RaceGame/RaceGame/Content/PhotoR_Backgrounds/Materials/desert_terrain.uasset"
			]
		},
		{
			"ShaderMapHash": "8407C3A8393B6437770753A1963944FD2C5D0E16",
			"Assets": [
				"../../../../../1/RaceGame/RaceGame/Content/PhotoR_Backgrounds/Materials/afghan_terrain.uasset"
			]
		}
	]
}