﻿Log file open, 02/28/21 19:54:42
LogInit: LLM is enabled
LogInit: LLM CsvWriter: off TraceWriter: off
LogInit: Display: Running engine for game: RaceGame
LogPlatformFile: Not using cached read wrapper
LogTaskGraph: Started task graph with 5 named threads and 14 total threads with 3 sets of task threads.
LogStats: Stats thread started at 0.263965
LogD3D11RHI: Loaded GFSDK_Aftermath_Lib.x64.dll
LogICUInternationalization: ICU TimeZone Detection - Raw Offset: +3:00, Platform Override: ''
LogPluginManager: Mounting plugin MeshPainting
LogPluginManager: Mounting plugin XGEController
LogPluginManager: Mounting plugin Paper2D
LogPluginManager: Mounting plugin AISupport
LogPluginManager: Mounting plugin EnvironmentQueryEditor
LogPluginManager: Mounting plugin LightPropagationVolume
LogPluginManager: Mounting plugin CameraShakePreviewer
LogPluginManager: Mounting plugin AnimationSharing
LogPluginManager: Mounting plugin CLionSourceCodeAccess
LogPluginManager: Mounting plugin CodeLiteSourceCodeAccess
LogPluginManager: Mounting plugin GitSourceControl
LogPluginManager: Mounting plugin KDevelopSourceCodeAccess
LogPluginManager: Mounting plugin NullSourceCodeAccess
LogPluginManager: Mounting plugin PerforceSourceControl
LogPluginManager: Mounting plugin PlasticSourceControl
LogPluginManager: Mounting plugin PluginUtils
LogPluginManager: Mounting plugin PropertyAccessNode
LogPluginManager: Mounting plugin RiderSourceCodeAccess
LogPluginManager: Mounting plugin SubversionSourceControl
LogPluginManager: Mounting plugin UObjectPlugin
LogPluginManager: Mounting plugin VisualStudioCodeSourceCodeAccess
LogPluginManager: Mounting plugin VisualStudioSourceCodeAccess
LogPluginManager: Mounting plugin XCodeSourceCodeAccess
LogPluginManager: Mounting plugin AssetManagerEditor
LogPluginManager: Mounting plugin CryptoKeys
LogPluginManager: Mounting plugin CurveEditorTools
LogPluginManager: Mounting plugin DataValidation
LogPluginManager: Mounting plugin FacialAnimation
LogPluginManager: Mounting plugin GameplayTagsEditor
LogPluginManager: Mounting plugin MacGraphicsSwitching
LogPluginManager: Mounting plugin MaterialAnalyzer
LogPluginManager: Mounting plugin MobileLauncherProfileWizard
LogPluginManager: Mounting plugin PluginBrowser
LogPluginManager: Mounting plugin SpeedTreeImporter
LogPluginManager: Mounting plugin GeometryMode
LogPluginManager: Mounting plugin DatasmithContent
LogPluginManager: Mounting plugin VariantManagerContent
LogPluginManager: Mounting plugin AlembicImporter
LogPluginManager: Mounting plugin AutomationUtils
LogPluginManager: Mounting plugin BackChannel
LogPluginManager: Mounting plugin ChaosCloth
LogPluginManager: Mounting plugin ChaosClothEditor
LogPluginManager: Mounting plugin ChaosEditor
LogPluginManager: Mounting plugin ChaosNiagara
LogPluginManager: Mounting plugin ChaosSolverPlugin
LogPluginManager: Mounting plugin CharacterAI
LogPluginManager: Mounting plugin GeometryCollectionPlugin
LogPluginManager: Mounting plugin GeometryProcessing
LogPluginManager: Mounting plugin MotoSynth
LogPluginManager: Mounting plugin PlanarCut
LogPluginManager: Mounting plugin PlatformCrypto
LogPluginManager: Mounting plugin ProxyLODPlugin
LogPluginManager: Mounting plugin GeometryCache
LogPluginManager: Mounting plugin SkeletalReduction
LogPluginManager: Mounting plugin Niagara
LogPluginManager: Mounting plugin LuminPlatformFeatures
LogPluginManager: Mounting plugin MagicLeap
LogPluginManager: Mounting plugin MagicLeapLightEstimation
LogPluginManager: Mounting plugin MagicLeapMedia
LogPluginManager: Mounting plugin MagicLeapPassableWorld
LogPluginManager: Mounting plugin MLSDK
LogPluginManager: Mounting plugin AndroidMedia
LogPluginManager: Mounting plugin AvfMedia
LogPluginManager: Mounting plugin ImgMedia
LogPluginManager: Mounting plugin MediaCompositing
LogPluginManager: Mounting plugin MediaPlayerEditor
LogPluginManager: Mounting plugin WebMMedia
LogPluginManager: Mounting plugin WmfMedia
LogPluginManager: Mounting plugin TcpMessaging
LogPluginManager: Mounting plugin UdpMessaging
LogPluginManager: Mounting plugin ActorSequence
LogPluginManager: Mounting plugin MatineeToLevelSequence
LogPluginManager: Mounting plugin LevelSequenceEditor
LogPluginManager: Mounting plugin TemplateSequence
LogPluginManager: Mounting plugin OnlineSubsystem
LogPluginManager: Mounting plugin OnlineSubsystemNull
LogPluginManager: Mounting plugin OnlineSubsystemUtils
LogPluginManager: Mounting plugin LauncherChunkInstaller
LogPluginManager: Mounting plugin ScreenshotTools
LogPluginManager: Mounting plugin ActorLayerUtilities
LogPluginManager: Mounting plugin AndroidDeviceProfileSelector
LogPluginManager: Mounting plugin AndroidMoviePlayer
LogPluginManager: Mounting plugin AndroidPermission
LogPluginManager: Mounting plugin AppleImageUtils
LogPluginManager: Mounting plugin AppleMoviePlayer
LogPluginManager: Mounting plugin ArchVisCharacter
LogPluginManager: Mounting plugin AssetTags
LogPluginManager: Mounting plugin AudioCapture
LogPluginManager: Mounting plugin CableComponent
LogPluginManager: Mounting plugin CustomMeshComponent
LogPluginManager: Mounting plugin ChunkDownloader
LogPluginManager: Mounting plugin EditableMesh
LogPluginManager: Mounting plugin ExampleDeviceProfileSelector
LogPluginManager: Mounting plugin GoogleCloudMessaging
LogPluginManager: Mounting plugin IOSDeviceProfileSelector
LogPluginManager: Mounting plugin AudioSynesthesia
LogPluginManager: Mounting plugin LinuxDeviceProfileSelector
LogPluginManager: Mounting plugin LocationServicesBPLibrary
LogPluginManager: Mounting plugin GooglePAD
LogPluginManager: Mounting plugin MobilePatchingUtils
LogPluginManager: Mounting plugin PhysXVehicles
LogPluginManager: Mounting plugin PostSplashScreen
LogPluginManager: Mounting plugin ProceduralMeshComponent
LogPluginManager: Mounting plugin PropertyAccessEditor
LogPluginManager: Mounting plugin RuntimePhysXCooking
LogPluginManager: Mounting plugin SignificanceManager
LogPluginManager: Mounting plugin SoundFields
LogPluginManager: Mounting plugin Synthesis
LogPluginManager: Mounting plugin WebMMoviePlayer
LogPluginManager: Mounting plugin WindowsMoviePlayer
LogPluginManager: Mounting plugin ContentBrowserAssetDataSource
LogPluginManager: Mounting plugin ContentBrowserClassDataSource
LogPluginManager: Mounting plugin OnlineSubsystemGooglePlay
LogPluginManager: Mounting plugin OnlineSubsystemIOS
LogPluginManager: Mounting plugin OculusVR
LogPluginManager: Mounting plugin SteamVR
LogXGEController: Cannot use XGE Controller as Incredibuild is not installed on this machine.
LogInit: Using libcurl 7.55.1-DEV
LogInit:  - built for x86_64-pc-win32
LogInit:  - supports SSL with OpenSSL/1.1.1
LogInit:  - supports HTTP deflate (compression) using libz 1.2.8
LogInit:  - other features:
LogInit:      CURL_VERSION_SSL
LogInit:      CURL_VERSION_LIBZ
LogInit:      CURL_VERSION_IPV6
LogInit:      CURL_VERSION_ASYNCHDNS
LogInit:      CURL_VERSION_LARGEFILE
LogInit:      CURL_VERSION_IDN
LogInit:  CurlRequestOptions (configurable via config and command line):
LogInit:  - bVerifyPeer = true  - Libcurl will verify peer certificate
LogInit:  - bUseHttpProxy = false  - Libcurl will NOT use HTTP proxy
LogInit:  - bDontReuseConnections = false  - Libcurl will reuse connections
LogInit:  - MaxHostConnections = 16  - Libcurl will limit the number of connections to a host
LogInit:  - LocalHostAddr = Default
LogInit:  - BufferSize = 65536
LogOnline: OSS: Creating online subsystem instance for: NULL
LogInit: WinSock: version 1.1 (2.2), MaxSocks=32767, MaxUdp=65467
LogOnline: OSS: TryLoadSubsystemAndSetDefault: Loaded subsystem for module [NULL]
LogInit: Build: ++UE4+Release-4.26-CL-15228867
LogInit: Engine Version: 4.26.1-15228867+++UE4+Release-4.26
LogInit: Compatible Engine Version: 4.26.0-14830424+++UE4+Release-4.26
LogInit: Net CL: 14830424
LogInit: OS: Windows 10 (Release 2009) (), CPU: Intel(R) Core(TM) i5-6600K CPU @ 3.50GHz, GPU: NVIDIA GeForce GTX 980 Ti
LogInit: Compiled (64-bit): Jan 28 2021 07:07:34
LogInit: Compiled with Visual C++: 19.24.28315.00
LogInit: Build Configuration: Development
LogInit: Branch Name: ++UE4+Release-4.26
LogInit: Command Line:  /Game/StarterContent/Blueprints/Maps/MainMenu -game -PIEVIACONSOLE -Multiprocess GameUserSettingsINI=F:/1/RaceGame/RaceGame/Saved/Config/Windows/PIEGameUserSettings0.ini -MultiprocessSaveConfig -MultiprocessOSS -messaging -SessionName="Play in Standalone Game" -windowed -ResX=1280 -ResY=720
LogInit: Base Directory: F:/UE$/UE_4.26/Engine/Binaries/Win64/
LogInit: Allocator: TBB
LogInit: Installed Engine Build: 1
LogDevObjectVersion: Number of dev versions registered: 29
LogDevObjectVersion:   Dev-Blueprints (B0D832E4-1F89-4F0D-ACCF-7EB736FD4AA2): 10
LogDevObjectVersion:   Dev-Build (E1C64328-A22C-4D53-A36C-8E866417BD8C): 0
LogDevObjectVersion:   Dev-Core (375EC13C-06E4-48FB-B500-84F0262A717E): 4
LogDevObjectVersion:   Dev-Editor (E4B068ED-F494-42E9-A231-DA0B2E46BB41): 40
LogDevObjectVersion:   Dev-Framework (CFFC743F-43B0-4480-9391-14DF171D2073): 37
LogDevObjectVersion:   Dev-Mobile (B02B49B5-BB20-44E9-A304-32B752E40360): 3
LogDevObjectVersion:   Dev-Networking (A4E4105C-59A1-49B5-A7C5-40C4547EDFEE): 0
LogDevObjectVersion:   Dev-Online (39C831C9-5AE6-47DC-9A44-9C173E1C8E7C): 0
LogDevObjectVersion:   Dev-Physics (78F01B33-EBEA-4F98-B9B4-84EACCB95AA2): 4
LogDevObjectVersion:   Dev-Platform (6631380F-2D4D-43E0-8009-CF276956A95A): 0
LogDevObjectVersion:   Dev-Rendering (12F88B9F-8875-4AFC-A67C-D90C383ABD29): 44
LogDevObjectVersion:   Dev-Sequencer (7B5AE74C-D270-4C10-A958-57980B212A5A): 12
LogDevObjectVersion:   Dev-VR (D7296918-1DD6-4BDD-9DE2-64A83CC13884): 3
LogDevObjectVersion:   Dev-LoadTimes (C2A15278-BFE7-4AFE-6C17-90FF531DF755): 1
LogDevObjectVersion:   Private-Geometry (6EACA3D4-40EC-4CC1-B786-8BED09428FC5): 3
LogDevObjectVersion:   Dev-AnimPhys (29E575DD-E0A3-4627-9D10-D276232CDCEA): 17
LogDevObjectVersion:   Dev-Anim (AF43A65D-7FD3-4947-9873-3E8ED9C1BB05): 15
LogDevObjectVersion:   Dev-ReflectionCapture (6B266CEC-1EC7-4B8F-A30B-E4D90942FC07): 1
LogDevObjectVersion:   Dev-Automation (0DF73D61-A23F-47EA-B727-89E90C41499A): 1
LogDevObjectVersion:   FortniteMain (601D1886-AC64-4F84-AA16-D3DE0DEAC7D6): 43
LogDevObjectVersion:   FortniteRelease (E7086368-6B23-4C58-8439-1B7016265E91): 1
LogDevObjectVersion:   Dev-Enterprise (9DFFBCD6-494F-0158-E221-12823C92A888): 10
LogDevObjectVersion:   Dev-Niagara (F2AED0AC-9AFE-416F-8664-AA7FFA26D6FC): 1
LogDevObjectVersion:   Dev-Destruction (174F1F0B-B4C6-45A5-B13F-2EE8D0FB917D): 10
LogDevObjectVersion:   Dev-Physics-Ext (35F94A83-E258-406C-A318-09F59610247C): 40
LogDevObjectVersion:   Dev-PhysicsMaterial-Chaos (B68FC16E-8B1B-42E2-B453-215C058844FE): 1
LogDevObjectVersion:   Dev-CineCamera (B2E18506-4273-CFC2-A54E-F4BB758BBA07): 1
LogDevObjectVersion:   Dev-VirtualProduction (64F58936-FD1B-42BA-BA96-7289D5D0FA4E): 1
LogDevObjectVersion:   Dev-MediaFramework (6F0ED827-A609-4895-9C91-998D90180EA4): 2
LogInit: Presizing for max 25165824 objects, including 0 objects not considered by GC, pre-allocating 0 bytes for permanent pool.
LogConfig: Applying CVar settings from Section [/Script/Engine.StreamingSettings] File [F:/1/RaceGame/RaceGame/Saved/Config/Windows/Engine.ini]
LogConfig: Setting CVar [[s.MinBulkDataSizeForAsyncLoading:131072]]
LogConfig: Setting CVar [[s.AsyncLoadingThreadEnabled:0]]
LogConfig: Setting CVar [[s.EventDrivenLoaderEnabled:1]]
LogConfig: Setting CVar [[s.WarnIfTimeLimitExceeded:0]]
LogConfig: Setting CVar [[s.TimeLimitExceededMultiplier:1.5]]
LogConfig: Setting CVar [[s.TimeLimitExceededMinTime:0.005]]
LogConfig: Setting CVar [[s.UseBackgroundLevelStreaming:1]]
LogConfig: Setting CVar [[s.PriorityAsyncLoadingExtraTime:15.0]]
LogConfig: Setting CVar [[s.LevelStreamingActorsUpdateTimeLimit:5.0]]
LogConfig: Setting CVar [[s.PriorityLevelStreamingActorsUpdateExtraTime:5.0]]
LogConfig: Setting CVar [[s.LevelStreamingComponentsRegistrationGranularity:10]]
LogConfig: Setting CVar [[s.UnregisterComponentsTimeLimit:1.0]]
LogConfig: Setting CVar [[s.LevelStreamingComponentsUnregistrationGranularity:5]]
LogConfig: Setting CVar [[s.FlushStreamingOnExit:1]]
LogInit: Object subsystem initialized
LogConfig: Setting CVar [[con.DebugEarlyDefault:1]]
LogConfig: Setting CVar [[r.setres:1280x720]]
[2021.02.28-16.54.43:245][  0]LogConfig: Setting CVar [[con.DebugEarlyDefault:1]]
[2021.02.28-16.54.43:245][  0]LogConfig: Setting CVar [[r.setres:1280x720]]
[2021.02.28-16.54.43:245][  0]LogConfig: Applying CVar settings from Section [/Script/Engine.RendererSettings] File [F:/1/RaceGame/RaceGame/Saved/Config/Windows/Engine.ini]
[2021.02.28-16.54.43:245][  0]LogConfig: Setting CVar [[r.GPUCrashDebugging:0]]
[2021.02.28-16.54.43:245][  0]LogConfig: Applying CVar settings from Section [/Script/Engine.RendererOverrideSettings] File [F:/1/RaceGame/RaceGame/Saved/Config/Windows/Engine.ini]
[2021.02.28-16.54.43:245][  0]LogConfig: Applying CVar settings from Section [/Script/Engine.StreamingSettings] File [F:/1/RaceGame/RaceGame/Saved/Config/Windows/Engine.ini]
[2021.02.28-16.54.43:245][  0]LogConfig: Setting CVar [[s.MinBulkDataSizeForAsyncLoading:131072]]
[2021.02.28-16.54.43:245][  0]LogConfig: Setting CVar [[s.AsyncLoadingThreadEnabled:0]]
[2021.02.28-16.54.43:245][  0]LogConfig: Setting CVar [[s.EventDrivenLoaderEnabled:1]]
[2021.02.28-16.54.43:245][  0]LogConfig: Setting CVar [[s.WarnIfTimeLimitExceeded:0]]
[2021.02.28-16.54.43:245][  0]LogConfig: Setting CVar [[s.TimeLimitExceededMultiplier:1.5]]
[2021.02.28-16.54.43:245][  0]LogConfig: Setting CVar [[s.TimeLimitExceededMinTime:0.005]]
[2021.02.28-16.54.43:245][  0]LogConfig: Setting CVar [[s.UseBackgroundLevelStreaming:1]]
[2021.02.28-16.54.43:245][  0]LogConfig: Setting CVar [[s.PriorityAsyncLoadingExtraTime:15.0]]
[2021.02.28-16.54.43:245][  0]LogConfig: Setting CVar [[s.LevelStreamingActorsUpdateTimeLimit:5.0]]
[2021.02.28-16.54.43:245][  0]LogConfig: Setting CVar [[s.PriorityLevelStreamingActorsUpdateExtraTime:5.0]]
[2021.02.28-16.54.43:245][  0]LogConfig: Setting CVar [[s.LevelStreamingComponentsRegistrationGranularity:10]]
[2021.02.28-16.54.43:245][  0]LogConfig: Setting CVar [[s.UnregisterComponentsTimeLimit:1.0]]
[2021.02.28-16.54.43:245][  0]LogConfig: Setting CVar [[s.LevelStreamingComponentsUnregistrationGranularity:5]]
[2021.02.28-16.54.43:245][  0]LogConfig: Setting CVar [[s.FlushStreamingOnExit:1]]
[2021.02.28-16.54.43:245][  0]LogConfig: Applying CVar settings from Section [/Script/Engine.GarbageCollectionSettings] File [F:/1/RaceGame/RaceGame/Saved/Config/Windows/Engine.ini]
[2021.02.28-16.54.43:245][  0]LogConfig: Setting CVar [[gc.MaxObjectsNotConsideredByGC:1]]
[2021.02.28-16.54.43:245][  0]LogConfig: Setting CVar [[gc.SizeOfPermanentObjectPool:0]]
[2021.02.28-16.54.43:245][  0]LogConfig: Setting CVar [[gc.FlushStreamingOnGC:0]]
[2021.02.28-16.54.43:245][  0]LogConfig: Setting CVar [[gc.NumRetriesBeforeForcingGC:10]]
[2021.02.28-16.54.43:245][  0]LogConfig: Setting CVar [[gc.AllowParallelGC:1]]
[2021.02.28-16.54.43:245][  0]LogConfig: Setting CVar [[gc.TimeBetweenPurgingPendingKillObjects:61.1]]
[2021.02.28-16.54.43:245][  0]LogConfig: Setting CVar [[gc.MaxObjectsInEditor:25165824]]
[2021.02.28-16.54.43:245][  0]LogConfig: Setting CVar [[gc.IncrementalBeginDestroyEnabled:1]]
[2021.02.28-16.54.43:245][  0]LogConfig: Setting CVar [[gc.CreateGCClusters:1]]
[2021.02.28-16.54.43:246][  0]LogConfig: Setting CVar [[gc.MinGCClusterSize:5]]
[2021.02.28-16.54.43:246][  0]LogConfig: Setting CVar [[gc.ActorClusteringEnabled:0]]
[2021.02.28-16.54.43:246][  0]LogConfig: Setting CVar [[gc.BlueprintClusteringEnabled:0]]
[2021.02.28-16.54.43:246][  0]LogConfig: Setting CVar [[gc.UseDisregardForGCOnDedicatedServers:0]]
[2021.02.28-16.54.43:246][  0]LogConfig: Setting CVar [[gc.MultithreadedDestructionEnabled:1]]
[2021.02.28-16.54.43:246][  0]LogConfig: Applying CVar settings from Section [/Script/Engine.NetworkSettings] File [F:/1/RaceGame/RaceGame/Saved/Config/Windows/Engine.ini]
[2021.02.28-16.54.43:246][  0]LogConfig: Applying CVar settings from Section [/Script/UnrealEd.CookerSettings] File [F:/1/RaceGame/RaceGame/Saved/Config/Windows/Engine.ini]
[2021.02.28-16.54.43:266][  0]LogConfig: Applying CVar settings from Section [ViewDistanceQuality@3] File [F:/1/RaceGame/RaceGame/Saved/Config/Windows/Scalability.ini]
[2021.02.28-16.54.43:266][  0]LogConfig: Setting CVar [[r.SkeletalMeshLODBias:0]]
[2021.02.28-16.54.43:266][  0]LogConfig: Setting CVar [[r.ViewDistanceScale:1.0]]
[2021.02.28-16.54.43:266][  0]LogConfig: Applying CVar settings from Section [AntiAliasingQuality@3] File [F:/1/RaceGame/RaceGame/Saved/Config/Windows/Scalability.ini]
[2021.02.28-16.54.43:266][  0]LogConfig: Setting CVar [[r.PostProcessAAQuality:4]]
[2021.02.28-16.54.43:266][  0]LogConfig: Applying CVar settings from Section [ShadowQuality@3] File [F:/1/RaceGame/RaceGame/Saved/Config/Windows/Scalability.ini]
[2021.02.28-16.54.43:266][  0]LogConfig: Setting CVar [[r.LightFunctionQuality:1]]
[2021.02.28-16.54.43:266][  0]LogConfig: Setting CVar [[r.ShadowQuality:5]]
[2021.02.28-16.54.43:266][  0]LogConfig: Setting CVar [[r.Shadow.CSM.MaxCascades:10]]
[2021.02.28-16.54.43:266][  0]LogConfig: Setting CVar [[r.Shadow.MaxResolution:2048]]
[2021.02.28-16.54.43:266][  0]LogConfig: Setting CVar [[r.Shadow.MaxCSMResolution:2048]]
[2021.02.28-16.54.43:266][  0]LogConfig: Setting CVar [[r.Shadow.RadiusThreshold:0.01]]
[2021.02.28-16.54.43:266][  0]LogConfig: Setting CVar [[r.Shadow.DistanceScale:1.0]]
[2021.02.28-16.54.43:266][  0]LogConfig: Setting CVar [[r.Shadow.CSM.TransitionScale:1.0]]
[2021.02.28-16.54.43:266][  0]LogConfig: Setting CVar [[r.Shadow.PreShadowResolutionFactor:1.0]]
[2021.02.28-16.54.43:266][  0]LogConfig: Setting CVar [[r.DistanceFieldShadowing:1]]
[2021.02.28-16.54.43:266][  0]LogConfig: Setting CVar [[r.DistanceFieldAO:1]]
[2021.02.28-16.54.43:266][  0]LogConfig: Setting CVar [[r.AOQuality:2]]
[2021.02.28-16.54.43:266][  0]LogConfig: Setting CVar [[r.VolumetricFog:1]]
[2021.02.28-16.54.43:266][  0]LogConfig: Setting CVar [[r.VolumetricFog.GridPixelSize:8]]
[2021.02.28-16.54.43:266][  0]LogConfig: Setting CVar [[r.VolumetricFog.GridSizeZ:128]]
[2021.02.28-16.54.43:266][  0]LogConfig: Setting CVar [[r.VolumetricFog.HistoryMissSupersampleCount:4]]
[2021.02.28-16.54.43:266][  0]LogConfig: Setting CVar [[r.LightMaxDrawDistanceScale:1]]
[2021.02.28-16.54.43:266][  0]LogConfig: Setting CVar [[r.CapsuleShadows:1]]
[2021.02.28-16.54.43:266][  0]LogConfig: Applying CVar settings from Section [PostProcessQuality@3] File [F:/1/RaceGame/RaceGame/Saved/Config/Windows/Scalability.ini]
[2021.02.28-16.54.43:266][  0]LogConfig: Setting CVar [[r.MotionBlurQuality:4]]
[2021.02.28-16.54.43:266][  0]LogConfig: Setting CVar [[r.AmbientOcclusionMipLevelFactor:0.4]]
[2021.02.28-16.54.43:266][  0]LogConfig: Setting CVar [[r.AmbientOcclusionMaxQuality:100]]
[2021.02.28-16.54.43:266][  0]LogConfig: Setting CVar [[r.AmbientOcclusionLevels:-1]]
[2021.02.28-16.54.43:267][  0]LogConfig: Setting CVar [[r.AmbientOcclusionRadiusScale:1.0]]
[2021.02.28-16.54.43:267][  0]LogConfig: Setting CVar [[r.DepthOfFieldQuality:2]]
[2021.02.28-16.54.43:267][  0]LogConfig: Setting CVar [[r.RenderTargetPoolMin:400]]
[2021.02.28-16.54.43:267][  0]LogConfig: Setting CVar [[r.LensFlareQuality:2]]
[2021.02.28-16.54.43:267][  0]LogConfig: Setting CVar [[r.SceneColorFringeQuality:1]]
[2021.02.28-16.54.43:267][  0]LogConfig: Setting CVar [[r.EyeAdaptationQuality:2]]
[2021.02.28-16.54.43:267][  0]LogConfig: Setting CVar [[r.BloomQuality:5]]
[2021.02.28-16.54.43:267][  0]LogConfig: Setting CVar [[r.FastBlurThreshold:100]]
[2021.02.28-16.54.43:267][  0]LogConfig: Setting CVar [[r.Upscale.Quality:3]]
[2021.02.28-16.54.43:267][  0]LogConfig: Setting CVar [[r.Tonemapper.GrainQuantization:1]]
[2021.02.28-16.54.43:267][  0]LogConfig: Setting CVar [[r.LightShaftQuality:1]]
[2021.02.28-16.54.43:267][  0]LogConfig: Setting CVar [[r.Filter.SizeScale:1]]
[2021.02.28-16.54.43:267][  0]LogConfig: Setting CVar [[r.Tonemapper.Quality:5]]
[2021.02.28-16.54.43:267][  0]LogConfig: Setting CVar [[r.DOF.Gather.AccumulatorQuality:1        ; higher gathering accumulator quality]]
[2021.02.28-16.54.43:267][  0]LogConfig: Setting CVar [[r.DOF.Gather.PostfilterMethod:1          ; Median3x3 postfilering method]]
[2021.02.28-16.54.43:267][  0]LogConfig: Setting CVar [[r.DOF.Gather.EnableBokehSettings:0       ; no bokeh simulation when gathering]]
[2021.02.28-16.54.43:267][  0]LogConfig: Setting CVar [[r.DOF.Gather.RingCount:4                 ; medium number of samples when gathering]]
[2021.02.28-16.54.43:267][  0]LogConfig: Setting CVar [[r.DOF.Scatter.ForegroundCompositing:1    ; additive foreground scattering]]
[2021.02.28-16.54.43:267][  0]LogConfig: Setting CVar [[r.DOF.Scatter.BackgroundCompositing:2    ; additive background scattering]]
[2021.02.28-16.54.43:267][  0]LogConfig: Setting CVar [[r.DOF.Scatter.EnableBokehSettings:1      ; bokeh simulation when scattering]]
[2021.02.28-16.54.43:267][  0]LogConfig: Setting CVar [[r.DOF.Scatter.MaxSpriteRatio:0.1         ; only a maximum of 10% of scattered bokeh]]
[2021.02.28-16.54.43:267][  0]LogConfig: Setting CVar [[r.DOF.Recombine.Quality:1                ; cheap slight out of focus]]
[2021.02.28-16.54.43:267][  0]LogConfig: Setting CVar [[r.DOF.Recombine.EnableBokehSettings:0    ; no bokeh simulation on slight out of focus]]
[2021.02.28-16.54.43:267][  0]LogConfig: Setting CVar [[r.DOF.TemporalAAQuality:1                ; more stable temporal accumulation]]
[2021.02.28-16.54.43:267][  0]LogConfig: Setting CVar [[r.DOF.Kernel.MaxForegroundRadius:0.025]]
[2021.02.28-16.54.43:267][  0]LogConfig: Setting CVar [[r.DOF.Kernel.MaxBackgroundRadius:0.025]]
[2021.02.28-16.54.43:267][  0]LogConfig: Applying CVar settings from Section [TextureQuality@3] File [F:/1/RaceGame/RaceGame/Saved/Config/Windows/Scalability.ini]
[2021.02.28-16.54.43:267][  0]LogConfig: Setting CVar [[r.Streaming.MipBias:0]]
[2021.02.28-16.54.43:267][  0]LogConfig: Setting CVar [[r.Streaming.AmortizeCPUToGPUCopy:0]]
[2021.02.28-16.54.43:267][  0]LogConfig: Setting CVar [[r.Streaming.MaxNumTexturesToStreamPerFrame:0]]
[2021.02.28-16.54.43:267][  0]LogConfig: Setting CVar [[r.Streaming.Boost:1]]
[2021.02.28-16.54.43:267][  0]LogConfig: Setting CVar [[r.MaxAnisotropy:8]]
[2021.02.28-16.54.43:267][  0]LogConfig: Setting CVar [[r.VT.MaxAnisotropy:8]]
[2021.02.28-16.54.43:267][  0]LogConfig: Setting CVar [[r.Streaming.LimitPoolSizeToVRAM:0]]
[2021.02.28-16.54.43:267][  0]LogConfig: Setting CVar [[r.Streaming.PoolSize:1000]]
[2021.02.28-16.54.43:267][  0]LogConfig: Setting CVar [[r.Streaming.MaxEffectiveScreenSize:0]]
[2021.02.28-16.54.43:267][  0]LogConfig: Applying CVar settings from Section [EffectsQuality@3] File [F:/1/RaceGame/RaceGame/Saved/Config/Windows/Scalability.ini]
[2021.02.28-16.54.43:267][  0]LogConfig: Setting CVar [[r.TranslucencyLightingVolumeDim:64]]
[2021.02.28-16.54.43:267][  0]LogConfig: Setting CVar [[r.RefractionQuality:2]]
[2021.02.28-16.54.43:267][  0]LogConfig: Setting CVar [[r.SSR.Quality:3]]
[2021.02.28-16.54.43:267][  0]LogConfig: Setting CVar [[r.SSR.HalfResSceneColor:0]]
[2021.02.28-16.54.43:267][  0]LogConfig: Setting CVar [[r.SceneColorFormat:4]]
[2021.02.28-16.54.43:267][  0]LogConfig: Setting CVar [[r.DetailMode:2]]
[2021.02.28-16.54.43:267][  0]LogConfig: Setting CVar [[r.TranslucencyVolumeBlur:1]]
[2021.02.28-16.54.43:267][  0]LogConfig: Setting CVar [[r.MaterialQualityLevel:1 ; High quality]]
[2021.02.28-16.54.43:267][  0]LogConfig: Setting CVar [[r.AnisotropicMaterials:1]]
[2021.02.28-16.54.43:267][  0]LogConfig: Setting CVar [[r.SSS.Scale:1]]
[2021.02.28-16.54.43:267][  0]LogConfig: Setting CVar [[r.SSS.SampleSet:2]]
[2021.02.28-16.54.43:267][  0]LogConfig: Setting CVar [[r.SSS.Quality:1]]
[2021.02.28-16.54.43:267][  0]LogConfig: Setting CVar [[r.SSS.HalfRes:0]]
[2021.02.28-16.54.43:267][  0]LogConfig: Setting CVar [[r.SSGI.Quality:3]]
[2021.02.28-16.54.43:267][  0]LogConfig: Setting CVar [[r.EmitterSpawnRateScale:1.0]]
[2021.02.28-16.54.43:267][  0]LogConfig: Setting CVar [[r.ParticleLightQuality:2]]
[2021.02.28-16.54.43:267][  0]LogConfig: Setting CVar [[r.SkyAtmosphere.AerialPerspectiveLUT.FastApplyOnOpaque:1 ; Always have FastSkyLUT 1 in this case to avoid wrong sky]]
[2021.02.28-16.54.43:267][  0]LogConfig: Setting CVar [[r.SkyAtmosphere.AerialPerspectiveLUT.SampleCountMaxPerSlice:4]]
[2021.02.28-16.54.43:267][  0]LogConfig: Setting CVar [[r.SkyAtmosphere.AerialPerspectiveLUT.DepthResolution:16.0]]
[2021.02.28-16.54.43:267][  0]LogConfig: Setting CVar [[r.SkyAtmosphere.FastSkyLUT:1]]
[2021.02.28-16.54.43:267][  0]LogConfig: Setting CVar [[r.SkyAtmosphere.FastSkyLUT.SampleCountMin:4.0]]
[2021.02.28-16.54.43:267][  0]LogConfig: Setting CVar [[r.SkyAtmosphere.FastSkyLUT.SampleCountMax:128.0]]
[2021.02.28-16.54.43:267][  0]LogConfig: Setting CVar [[r.SkyAtmosphere.SampleCountMin:4.0]]
[2021.02.28-16.54.43:267][  0]LogConfig: Setting CVar [[r.SkyAtmosphere.SampleCountMax:128.0]]
[2021.02.28-16.54.43:267][  0]LogConfig: Setting CVar [[r.SkyAtmosphere.TransmittanceLUT.UseSmallFormat:0]]
[2021.02.28-16.54.43:267][  0]LogConfig: Setting CVar [[r.SkyAtmosphere.TransmittanceLUT.SampleCount:10.0]]
[2021.02.28-16.54.43:268][  0]LogConfig: Setting CVar [[r.SkyAtmosphere.MultiScatteringLUT.SampleCount:15.0]]
[2021.02.28-16.54.43:268][  0]LogConfig: Applying CVar settings from Section [FoliageQuality@3] File [F:/1/RaceGame/RaceGame/Saved/Config/Windows/Scalability.ini]
[2021.02.28-16.54.43:268][  0]LogConfig: Setting CVar [[foliage.DensityScale:1.0]]
[2021.02.28-16.54.43:268][  0]LogConfig: Setting CVar [[grass.DensityScale:1.0]]
[2021.02.28-16.54.43:268][  0]LogConfig: Applying CVar settings from Section [ShadingQuality@3] File [F:/1/RaceGame/RaceGame/Saved/Config/Windows/Scalability.ini]
[2021.02.28-16.54.43:268][  0]LogConfig: Setting CVar [[r.HairStrands.SkyLighting.IntegrationType:2]]
[2021.02.28-16.54.43:268][  0]LogConfig: Setting CVar [[r.HairStrands.SkyAO.SampleCount:4]]
[2021.02.28-16.54.43:268][  0]LogConfig: Setting CVar [[r.HairStrands.Visibility.MSAA.SamplePerPixel:4]]
[2021.02.28-16.54.43:268][  0]LogInit: Selected Device Profile: [Windows]
[2021.02.28-16.54.43:268][  0]LogInit: Applying CVar settings loaded from the selected device profile: [Windows]
[2021.02.28-16.54.43:268][  0]LogHAL: Display: Platform has ~ 32 GB [34284527616 / 34359738368 / 32], which maps to Largest [LargestMinGB=32, LargerMinGB=12, DefaultMinGB=8, SmallerMinGB=6, SmallestMinGB=0)
[2021.02.28-16.54.43:268][  0]LogInit: Going up to parent DeviceProfile []
[2021.02.28-16.54.43:268][  0]LogConfig: Applying CVar settings from Section [ViewDistanceQuality@3] File [F:/1/RaceGame/RaceGame/Saved/Config/Windows/Scalability.ini]
[2021.02.28-16.54.43:268][  0]LogConfig: Setting CVar [[r.SkeletalMeshLODBias:0]]
[2021.02.28-16.54.43:268][  0]LogConfig: Setting CVar [[r.ViewDistanceScale:1.0]]
[2021.02.28-16.54.43:268][  0]LogConfig: Applying CVar settings from Section [AntiAliasingQuality@3] File [F:/1/RaceGame/RaceGame/Saved/Config/Windows/Scalability.ini]
[2021.02.28-16.54.43:268][  0]LogConfig: Setting CVar [[r.PostProcessAAQuality:4]]
[2021.02.28-16.54.43:268][  0]LogConfig: Applying CVar settings from Section [ShadowQuality@3] File [F:/1/RaceGame/RaceGame/Saved/Config/Windows/Scalability.ini]
[2021.02.28-16.54.43:268][  0]LogConfig: Setting CVar [[r.LightFunctionQuality:1]]
[2021.02.28-16.54.43:268][  0]LogConfig: Setting CVar [[r.ShadowQuality:5]]
[2021.02.28-16.54.43:268][  0]LogConfig: Setting CVar [[r.Shadow.CSM.MaxCascades:10]]
[2021.02.28-16.54.43:268][  0]LogConfig: Setting CVar [[r.Shadow.MaxResolution:2048]]
[2021.02.28-16.54.43:268][  0]LogConfig: Setting CVar [[r.Shadow.MaxCSMResolution:2048]]
[2021.02.28-16.54.43:268][  0]LogConfig: Setting CVar [[r.Shadow.RadiusThreshold:0.01]]
[2021.02.28-16.54.43:268][  0]LogConfig: Setting CVar [[r.Shadow.DistanceScale:1.0]]
[2021.02.28-16.54.43:268][  0]LogConfig: Setting CVar [[r.Shadow.CSM.TransitionScale:1.0]]
[2021.02.28-16.54.43:268][  0]LogConfig: Setting CVar [[r.Shadow.PreShadowResolutionFactor:1.0]]
[2021.02.28-16.54.43:268][  0]LogConfig: Setting CVar [[r.DistanceFieldShadowing:1]]
[2021.02.28-16.54.43:268][  0]LogConfig: Setting CVar [[r.DistanceFieldAO:1]]
[2021.02.28-16.54.43:268][  0]LogConfig: Setting CVar [[r.AOQuality:2]]
[2021.02.28-16.54.43:268][  0]LogConfig: Setting CVar [[r.VolumetricFog:1]]
[2021.02.28-16.54.43:268][  0]LogConfig: Setting CVar [[r.VolumetricFog.GridPixelSize:8]]
[2021.02.28-16.54.43:268][  0]LogConfig: Setting CVar [[r.VolumetricFog.GridSizeZ:128]]
[2021.02.28-16.54.43:268][  0]LogConfig: Setting CVar [[r.VolumetricFog.HistoryMissSupersampleCount:4]]
[2021.02.28-16.54.43:268][  0]LogConfig: Setting CVar [[r.LightMaxDrawDistanceScale:1]]
[2021.02.28-16.54.43:268][  0]LogConfig: Setting CVar [[r.CapsuleShadows:1]]
[2021.02.28-16.54.43:268][  0]LogConfig: Applying CVar settings from Section [PostProcessQuality@3] File [F:/1/RaceGame/RaceGame/Saved/Config/Windows/Scalability.ini]
[2021.02.28-16.54.43:268][  0]LogConfig: Setting CVar [[r.MotionBlurQuality:4]]
[2021.02.28-16.54.43:268][  0]LogConfig: Setting CVar [[r.AmbientOcclusionMipLevelFactor:0.4]]
[2021.02.28-16.54.43:268][  0]LogConfig: Setting CVar [[r.AmbientOcclusionMaxQuality:100]]
[2021.02.28-16.54.43:268][  0]LogConfig: Setting CVar [[r.AmbientOcclusionLevels:-1]]
[2021.02.28-16.54.43:268][  0]LogConfig: Setting CVar [[r.AmbientOcclusionRadiusScale:1.0]]
[2021.02.28-16.54.43:268][  0]LogConfig: Setting CVar [[r.DepthOfFieldQuality:2]]
[2021.02.28-16.54.43:268][  0]LogConfig: Setting CVar [[r.RenderTargetPoolMin:400]]
[2021.02.28-16.54.43:268][  0]LogConfig: Setting CVar [[r.LensFlareQuality:2]]
[2021.02.28-16.54.43:268][  0]LogConfig: Setting CVar [[r.SceneColorFringeQuality:1]]
[2021.02.28-16.54.43:268][  0]LogConfig: Setting CVar [[r.EyeAdaptationQuality:2]]
[2021.02.28-16.54.43:269][  0]LogConfig: Setting CVar [[r.BloomQuality:5]]
[2021.02.28-16.54.43:269][  0]LogConfig: Setting CVar [[r.FastBlurThreshold:100]]
[2021.02.28-16.54.43:269][  0]LogConfig: Setting CVar [[r.Upscale.Quality:3]]
[2021.02.28-16.54.43:269][  0]LogConfig: Setting CVar [[r.Tonemapper.GrainQuantization:1]]
[2021.02.28-16.54.43:269][  0]LogConfig: Setting CVar [[r.LightShaftQuality:1]]
[2021.02.28-16.54.43:269][  0]LogConfig: Setting CVar [[r.Filter.SizeScale:1]]
[2021.02.28-16.54.43:269][  0]LogConfig: Setting CVar [[r.Tonemapper.Quality:5]]
[2021.02.28-16.54.43:269][  0]LogConfig: Setting CVar [[r.DOF.Gather.AccumulatorQuality:1        ; higher gathering accumulator quality]]
[2021.02.28-16.54.43:269][  0]LogConfig: Setting CVar [[r.DOF.Gather.PostfilterMethod:1          ; Median3x3 postfilering method]]
[2021.02.28-16.54.43:269][  0]LogConfig: Setting CVar [[r.DOF.Gather.EnableBokehSettings:0       ; no bokeh simulation when gathering]]
[2021.02.28-16.54.43:269][  0]LogConfig: Setting CVar [[r.DOF.Gather.RingCount:4                 ; medium number of samples when gathering]]
[2021.02.28-16.54.43:269][  0]LogConfig: Setting CVar [[r.DOF.Scatter.ForegroundCompositing:1    ; additive foreground scattering]]
[2021.02.28-16.54.43:269][  0]LogConfig: Setting CVar [[r.DOF.Scatter.BackgroundCompositing:2    ; additive background scattering]]
[2021.02.28-16.54.43:269][  0]LogConfig: Setting CVar [[r.DOF.Scatter.EnableBokehSettings:1      ; bokeh simulation when scattering]]
[2021.02.28-16.54.43:269][  0]LogConfig: Setting CVar [[r.DOF.Scatter.MaxSpriteRatio:0.1         ; only a maximum of 10% of scattered bokeh]]
[2021.02.28-16.54.43:269][  0]LogConfig: Setting CVar [[r.DOF.Recombine.Quality:1                ; cheap slight out of focus]]
[2021.02.28-16.54.43:269][  0]LogConfig: Setting CVar [[r.DOF.Recombine.EnableBokehSettings:0    ; no bokeh simulation on slight out of focus]]
[2021.02.28-16.54.43:269][  0]LogConfig: Setting CVar [[r.DOF.TemporalAAQuality:1                ; more stable temporal accumulation]]
[2021.02.28-16.54.43:269][  0]LogConfig: Setting CVar [[r.DOF.Kernel.MaxForegroundRadius:0.025]]
[2021.02.28-16.54.43:269][  0]LogConfig: Setting CVar [[r.DOF.Kernel.MaxBackgroundRadius:0.025]]
[2021.02.28-16.54.43:269][  0]LogConfig: Applying CVar settings from Section [TextureQuality@3] File [F:/1/RaceGame/RaceGame/Saved/Config/Windows/Scalability.ini]
[2021.02.28-16.54.43:269][  0]LogConfig: Setting CVar [[r.Streaming.MipBias:0]]
[2021.02.28-16.54.43:269][  0]LogConfig: Setting CVar [[r.Streaming.AmortizeCPUToGPUCopy:0]]
[2021.02.28-16.54.43:269][  0]LogConfig: Setting CVar [[r.Streaming.MaxNumTexturesToStreamPerFrame:0]]
[2021.02.28-16.54.43:269][  0]LogConfig: Setting CVar [[r.Streaming.Boost:1]]
[2021.02.28-16.54.43:269][  0]LogConfig: Setting CVar [[r.MaxAnisotropy:8]]
[2021.02.28-16.54.43:269][  0]LogConfig: Setting CVar [[r.VT.MaxAnisotropy:8]]
[2021.02.28-16.54.43:269][  0]LogConfig: Setting CVar [[r.Streaming.LimitPoolSizeToVRAM:0]]
[2021.02.28-16.54.43:269][  0]LogConfig: Setting CVar [[r.Streaming.PoolSize:1000]]
[2021.02.28-16.54.43:269][  0]LogConfig: Setting CVar [[r.Streaming.MaxEffectiveScreenSize:0]]
[2021.02.28-16.54.43:269][  0]LogConfig: Applying CVar settings from Section [EffectsQuality@3] File [F:/1/RaceGame/RaceGame/Saved/Config/Windows/Scalability.ini]
[2021.02.28-16.54.43:269][  0]LogConfig: Setting CVar [[r.TranslucencyLightingVolumeDim:64]]
[2021.02.28-16.54.43:269][  0]LogConfig: Setting CVar [[r.RefractionQuality:2]]
[2021.02.28-16.54.43:269][  0]LogConfig: Setting CVar [[r.SSR.Quality:3]]
[2021.02.28-16.54.43:269][  0]LogConfig: Setting CVar [[r.SSR.HalfResSceneColor:0]]
[2021.02.28-16.54.43:269][  0]LogConfig: Setting CVar [[r.SceneColorFormat:4]]
[2021.02.28-16.54.43:269][  0]LogConfig: Setting CVar [[r.DetailMode:2]]
[2021.02.28-16.54.43:269][  0]LogConfig: Setting CVar [[r.TranslucencyVolumeBlur:1]]
[2021.02.28-16.54.43:269][  0]LogConfig: Setting CVar [[r.MaterialQualityLevel:1 ; High quality]]
[2021.02.28-16.54.43:269][  0]LogConfig: Setting CVar [[r.AnisotropicMaterials:1]]
[2021.02.28-16.54.43:269][  0]LogConfig: Setting CVar [[r.SSS.Scale:1]]
[2021.02.28-16.54.43:269][  0]LogConfig: Setting CVar [[r.SSS.SampleSet:2]]
[2021.02.28-16.54.43:269][  0]LogConfig: Setting CVar [[r.SSS.Quality:1]]
[2021.02.28-16.54.43:269][  0]LogConfig: Setting CVar [[r.SSS.HalfRes:0]]
[2021.02.28-16.54.43:269][  0]LogConfig: Setting CVar [[r.SSGI.Quality:3]]
[2021.02.28-16.54.43:269][  0]LogConfig: Setting CVar [[r.EmitterSpawnRateScale:1.0]]
[2021.02.28-16.54.43:269][  0]LogConfig: Setting CVar [[r.ParticleLightQuality:2]]
[2021.02.28-16.54.43:269][  0]LogConfig: Setting CVar [[r.SkyAtmosphere.AerialPerspectiveLUT.FastApplyOnOpaque:1 ; Always have FastSkyLUT 1 in this case to avoid wrong sky]]
[2021.02.28-16.54.43:269][  0]LogConfig: Setting CVar [[r.SkyAtmosphere.AerialPerspectiveLUT.SampleCountMaxPerSlice:4]]
[2021.02.28-16.54.43:269][  0]LogConfig: Setting CVar [[r.SkyAtmosphere.AerialPerspectiveLUT.DepthResolution:16.0]]
[2021.02.28-16.54.43:269][  0]LogConfig: Setting CVar [[r.SkyAtmosphere.FastSkyLUT:1]]
[2021.02.28-16.54.43:269][  0]LogConfig: Setting CVar [[r.SkyAtmosphere.FastSkyLUT.SampleCountMin:4.0]]
[2021.02.28-16.54.43:269][  0]LogConfig: Setting CVar [[r.SkyAtmosphere.FastSkyLUT.SampleCountMax:128.0]]
[2021.02.28-16.54.43:269][  0]LogConfig: Setting CVar [[r.SkyAtmosphere.SampleCountMin:4.0]]
[2021.02.28-16.54.43:269][  0]LogConfig: Setting CVar [[r.SkyAtmosphere.SampleCountMax:128.0]]
[2021.02.28-16.54.43:269][  0]LogConfig: Setting CVar [[r.SkyAtmosphere.TransmittanceLUT.UseSmallFormat:0]]
[2021.02.28-16.54.43:269][  0]LogConfig: Setting CVar [[r.SkyAtmosphere.TransmittanceLUT.SampleCount:10.0]]
[2021.02.28-16.54.43:269][  0]LogConfig: Setting CVar [[r.SkyAtmosphere.MultiScatteringLUT.SampleCount:15.0]]
[2021.02.28-16.54.43:269][  0]LogConfig: Applying CVar settings from Section [FoliageQuality@3] File [F:/1/RaceGame/RaceGame/Saved/Config/Windows/Scalability.ini]
[2021.02.28-16.54.43:269][  0]LogConfig: Setting CVar [[foliage.DensityScale:1.0]]
[2021.02.28-16.54.43:269][  0]LogConfig: Setting CVar [[grass.DensityScale:1.0]]
[2021.02.28-16.54.43:269][  0]LogConfig: Applying CVar settings from Section [ShadingQuality@3] File [F:/1/RaceGame/RaceGame/Saved/Config/Windows/Scalability.ini]
[2021.02.28-16.54.43:269][  0]LogConfig: Setting CVar [[r.HairStrands.SkyLighting.IntegrationType:2]]
[2021.02.28-16.54.43:269][  0]LogConfig: Setting CVar [[r.HairStrands.SkyAO.SampleCount:4]]
[2021.02.28-16.54.43:269][  0]LogConfig: Setting CVar [[r.HairStrands.Visibility.MSAA.SamplePerPixel:4]]
[2021.02.28-16.54.43:269][  0]LogConfig: Applying CVar settings from Section [Startup] File [../../../Engine/Config/ConsoleVariables.ini]
[2021.02.28-16.54.43:270][  0]LogConfig: Setting CVar [[net.UseAdaptiveNetUpdateFrequency:0]]
[2021.02.28-16.54.43:270][  0]LogConfig: Setting CVar [[p.chaos.AllowCreatePhysxBodies:1]]
[2021.02.28-16.54.43:270][  0]LogConfig: Setting CVar [[fx.SkipVectorVMBackendOptimizations:1]]
[2021.02.28-16.54.43:270][  0]LogConfig: Applying CVar settings from Section [ConsoleVariables] File [F:/1/RaceGame/RaceGame/Saved/Config/Windows/Engine.ini]
[2021.02.28-16.54.43:270][  0]LogInit: Computer: DESKTOP-6LOJKIM
[2021.02.28-16.54.43:270][  0]LogInit: User: DimaSHMEL
[2021.02.28-16.54.43:270][  0]LogInit: CPU Page size=4096, Cores=4
[2021.02.28-16.54.43:270][  0]LogInit: High frequency timer resolution =10.000000 MHz
[2021.02.28-16.54.43:270][  0]LogMemory: Memory total: Physical=31.9GB (32GB approx)
[2021.02.28-16.54.43:270][  0]LogMemory: Platform Memory Stats for Windows
[2021.02.28-16.54.43:270][  0]LogMemory: Process Physical Memory: 135.55 MB used, 135.55 MB peak
[2021.02.28-16.54.43:270][  0]LogMemory: Process Virtual Memory: 117.50 MB used, 117.50 MB peak
[2021.02.28-16.54.43:270][  0]LogMemory: Physical Memory: 16473.58 MB used,  16222.69 MB free, 32696.27 MB total
[2021.02.28-16.54.43:270][  0]LogMemory: Virtual Memory: 134188168.00 MB used,  29556.85 MB free, 134217728.00 MB total
[2021.02.28-16.54.43:275][  0]LogWindows: WindowsPlatformFeatures enabled
[2021.02.28-16.54.43:321][  0]LogInit: Physics initialised using underlying interface: PhysX
[2021.02.28-16.54.43:321][  0]LogInit: Using OS detected language (ru-RU).
[2021.02.28-16.54.43:321][  0]LogInit: Using OS detected locale (ru-RU).
[2021.02.28-16.54.43:325][  0]LogTextLocalizationManager: No specific localization for 'ru-RU' exists, so the 'ru' localization will be used.
[2021.02.28-16.54.43:327][  0]LogTextLocalizationResource: LocRes '../../../Engine/Content/Localization/Editor/ru/Editor.locres' could not be opened for reading!
[2021.02.28-16.54.43:328][  0]LogTextLocalizationResource: LocRes '../../../Engine/Content/Localization/EditorTutorials/ru/EditorTutorials.locres' could not be opened for reading!
[2021.02.28-16.54.43:328][  0]LogTextLocalizationResource: LocRes '../../../Engine/Content/Localization/Keywords/ru/Keywords.locres' could not be opened for reading!
[2021.02.28-16.54.43:328][  0]LogTextLocalizationResource: LocRes '../../../Engine/Content/Localization/Category/ru/Category.locres' could not be opened for reading!
[2021.02.28-16.54.43:328][  0]LogTextLocalizationResource: LocRes '../../../Engine/Content/Localization/ToolTips/ru/ToolTips.locres' could not be opened for reading!
[2021.02.28-16.54.43:328][  0]LogTextLocalizationResource: LocRes '../../../Engine/Content/Localization/PropertyNames/ru/PropertyNames.locres' could not be opened for reading!
[2021.02.28-16.54.43:328][  0]LogTextLocalizationResource: LocRes '../../../Engine/Content/Localization/Engine/ru/Engine.locres' could not be opened for reading!
[2021.02.28-16.54.43:336][  0]LogWindowsTextInputMethodSystem: Display: IME system deactivated.
[2021.02.28-16.54.43:371][  0]LogSlate: New Slate User Created.  User Index 0, Is Virtual User: 0
[2021.02.28-16.54.43:371][  0]LogSlate: Slate User Registered.  User Index 0, Is Virtual User: 0
[2021.02.28-16.54.43:399][  0]LogHMD: Failed to initialize OpenVR with code 110
[2021.02.28-16.54.43:399][  0]LogD3D11RHI: D3D11 min allowed feature level: 11_0
[2021.02.28-16.54.43:399][  0]LogD3D11RHI: D3D11 max allowed feature level: 11_0
[2021.02.28-16.54.43:399][  0]LogD3D11RHI: D3D11 adapters:
[2021.02.28-16.54.43:518][  0]LogD3D11RHI:    0. 'NVIDIA GeForce GTX 980 Ti' (Feature Level 11_0)
[2021.02.28-16.54.43:518][  0]LogD3D11RHI:       6097/0/16348 MB DedicatedVideo/DedicatedSystem/SharedSystem, Outputs:2, VendorId:0x10de
[2021.02.28-16.54.43:521][  0]LogD3D11RHI:    1. 'Microsoft Basic Render Driver' (Feature Level 11_0)
[2021.02.28-16.54.43:521][  0]LogD3D11RHI:       0/0/16348 MB DedicatedVideo/DedicatedSystem/SharedSystem, Outputs:0, VendorId:0x1414
[2021.02.28-16.54.43:522][  0]LogD3D11RHI: Chosen D3D11 Adapter: 0
[2021.02.28-16.54.43:530][  0]LogD3D11RHI: Creating new Direct3DDevice
[2021.02.28-16.54.43:530][  0]LogD3D11RHI:     GPU DeviceId: 0x17c8 (for the marketing name, search the web for "GPU Device Id")
[2021.02.28-16.54.43:530][  0]LogWindows: EnumDisplayDevices:
[2021.02.28-16.54.43:531][  0]LogWindows:    0. 'NVIDIA GeForce GTX 980 Ti' (P:1 D:1)
[2021.02.28-16.54.43:531][  0]LogWindows:    1. 'NVIDIA GeForce GTX 980 Ti' (P:0 D:1)
[2021.02.28-16.54.43:531][  0]LogWindows:    2. 'NVIDIA GeForce GTX 980 Ti' (P:0 D:0)
[2021.02.28-16.54.43:531][  0]LogWindows:    3. 'NVIDIA GeForce GTX 980 Ti' (P:0 D:0)
[2021.02.28-16.54.43:531][  0]LogWindows: DebugString: FoundDriverCount:4 
[2021.02.28-16.54.43:531][  0]LogD3D11RHI:     Adapter Name: NVIDIA GeForce GTX 980 Ti
[2021.02.28-16.54.43:532][  0]LogD3D11RHI:   Driver Version: 461.40 (internal:27.21.14.6140, unified:461.40)
[2021.02.28-16.54.43:532][  0]LogD3D11RHI:      Driver Date: 1-22-2021
[2021.02.28-16.54.43:532][  0]LogRHI: Texture pool is 4268 MB (70% of 6097 MB)
[2021.02.28-16.54.43:629][  0]LogD3D11RHI: RHI has support for 64 bit atomics
[2021.02.28-16.54.43:629][  0]LogD3D11RHI: Async texture creation enabled
[2021.02.28-16.54.43:629][  0]LogD3D11RHI: Array index from any shader is supported
[2021.02.28-16.54.43:651][  0]LogD3D11RHI: GPU Timing Frequency: 1000.000000 (Debug: 2 1)
[2021.02.28-16.54.43:653][  0]LogRHI: GeForceNow SDK initialized: 1
[2021.02.28-16.54.44:030][  0]LogTargetPlatformManager: Display: Loaded TargetPlatform 'WindowsNoEditor'
[2021.02.28-16.54.44:034][  0]LogTargetPlatformManager: Display: Loaded TargetPlatform 'Windows'
[2021.02.28-16.54.44:041][  0]LogTargetPlatformManager: Display: Loaded TargetPlatform 'WindowsClient'
[2021.02.28-16.54.44:050][  0]LogTargetPlatformManager: Display: Loaded TargetPlatform 'WindowsServer'
[2021.02.28-16.54.44:050][  0]LogTargetPlatformManager: Display: Building Assets For Windows
[2021.02.28-16.54.44:058][  0]LogAudioDebug: Display: Lib vorbis DLL was dynamically loaded.
[2021.02.28-16.54.44:117][  0]LogRendererCore: Ray tracing is disabled. Reason: r.RayTracing=0.
[2021.02.28-16.54.44:117][  0]LogShaderCompilers: Guid format shader working directory is 16 characters bigger than the processId version (../../../../../1/RaceGame/RaceGame/Intermediate/Shaders/WorkingDirectory/12940/).
[2021.02.28-16.54.44:118][  0]LogShaderCompilers: Cleaned the shader compiler working directory 'C:/Users/Dima_SHMEL/AppData/Local/Temp/UnrealShaderWorkingDir/A6AE89DF4A92DDB9B742278FB8018E81/'.
[2021.02.28-16.54.44:118][  0]LogShaderCompilers: Cannot use XGE Shader Compiler as Incredibuild is not installed on this machine.
[2021.02.28-16.54.44:118][  0]LogShaderCompilers: Display: Using Local Shader Compiler.
[2021.02.28-16.54.44:980][  0]LogDerivedDataCache: Display: Max Cache Size: 512 MB
[2021.02.28-16.54.45:041][  0]LogDerivedDataCache: Loaded boot cache 0.06s 77MB C:/Users/Dima_SHMEL/AppData/Local/UnrealEngine/4.26/DerivedDataCache/Boot.ddc.
[2021.02.28-16.54.45:041][  0]LogDerivedDataCache: Display: Loaded Boot cache: C:/Users/Dima_SHMEL/AppData/Local/UnrealEngine/4.26/DerivedDataCache/Boot.ddc
[2021.02.28-16.54.45:041][  0]LogDerivedDataCache: FDerivedDataBackendGraph:  Pak pak cache file ../../../../../1/RaceGame/RaceGame/DerivedDataCache/DDC.ddp not found, will not use a pak cache.
[2021.02.28-16.54.45:041][  0]LogDerivedDataCache: Unable to find inner node Pak for hierarchical cache Hierarchy.
[2021.02.28-16.54.45:041][  0]LogDerivedDataCache: FDerivedDataBackendGraph:  CompressedPak pak cache file ../../../../../1/RaceGame/RaceGame/DerivedDataCache/Compressed.ddp not found, will not use a pak cache.
[2021.02.28-16.54.45:041][  0]LogDerivedDataCache: Unable to find inner node CompressedPak for hierarchical cache Hierarchy.
[2021.02.28-16.54.45:055][  0]LogDerivedDataCache: Display: Pak cache opened for reading ../../../Engine/DerivedDataCache/Compressed.ddp.
[2021.02.28-16.54.45:055][  0]LogDerivedDataCache: FDerivedDataBackendGraph:  EnterprisePak pak cache file ../../../Enterprise/DerivedDataCache/Compressed.ddp not found, will not use a pak cache.
[2021.02.28-16.54.45:055][  0]LogDerivedDataCache: Unable to find inner node EnterprisePak for hierarchical cache Hierarchy.
[2021.02.28-16.54.45:110][  0]LogDerivedDataCache: Speed tests for C:/Users/Dima_SHMEL/AppData/Local/UnrealEngine/Common/DerivedDataCache took 0.06 seconds
[2021.02.28-16.54.45:111][  0]LogDerivedDataCache: Display: Performance to C:/Users/Dima_SHMEL/AppData/Local/UnrealEngine/Common/DerivedDataCache: Latency=0.03ms. RandomReadSpeed=885.08MBs, RandomWriteSpeed=17.27MBs. Assigned SpeedClass 'Local'
[2021.02.28-16.54.45:112][  0]LogDerivedDataCache: Using Local data cache path C:/Users/Dima_SHMEL/AppData/Local/UnrealEngine/Common/DerivedDataCache: Writable
[2021.02.28-16.54.45:112][  0]LogDerivedDataCache: Shared data cache path not found in *engine.ini, will not use an Shared cache.
[2021.02.28-16.54.45:112][  0]LogDerivedDataCache: Unable to find inner node Shared for hierarchical cache Hierarchy.
[2021.02.28-16.54.45:151][  0]LogSlate: Using FreeType 2.10.0
[2021.02.28-16.54.45:152][  0]LogSlate: SlateFontServices - WITH_FREETYPE: 1, WITH_HARFBUZZ: 1
[2021.02.28-16.54.45:234][  0]LogInit: Using OS detected language (ru-RU).
[2021.02.28-16.54.45:234][  0]LogInit: Using OS detected locale (ru-RU).
[2021.02.28-16.54.45:234][  0]LogTextLocalizationManager: No localization for 'ru-RU' exists, so 'en' will be used for the language.
[2021.02.28-16.54.45:234][  0]LogTextLocalizationManager: No localization for 'ru-RU' exists, so 'en' will be used for the locale.
[2021.02.28-16.54.45:234][  0]LogSlate: FontCache flush requested. Reason: Culture for localization was changed
[2021.02.28-16.54.45:234][  0]LogSlate: FontCache flush requested. Reason: Culture for localization was changed
[2021.02.28-16.54.45:248][  0]LogTextLocalizationManager: Compacting localization data took   0.00ms
[2021.02.28-16.54.45:251][  0]LogAssetRegistry: FAssetRegistry took 0.0016 seconds to start up
[2021.02.28-16.54.45:437][  0]LogPackageLocalizationCache: Processed 22 localized package path(s) for 1 prioritized culture(s) in 0.000879 seconds
[2021.02.28-16.54.45:511][  0]LogInit: Selected Device Profile: [Windows]
[2021.02.28-16.54.45:511][  0]LogInit: Active device profile: [000001E7D2C6E000][000001E7CED852C0 49] Windows
[2021.02.28-16.54.45:511][  0]LogInit: Profiles: [000001E7D2C6E000][000001E7CED852C0 49] Windows, [000001E7D2BEFF00][000001E7CE697400 49] WindowsNoEditor, [000001E7D2BFE200][000001E7CE69B540 49] WindowsServer, [000001E7D2BEE200][000001E7CE4916C0 49] WindowsClient, [000001E7D2BFC800][000001E7CE495840 49] IOS, [000001E7D2BEC700][000001E7CE4999C0 49] iPadAir, [000001E7D2BFFC00][000001E7CE49DB40 49] iPadAir2, [000001E7D2BB1900][000001E7CE4A4140 49] IPadPro, [000001E7D2BB1A00][000001E7CE4A0180 49] iPadAir3, [000001E7D2BFF100][000001E7CE4A8300 49] iPadAir4, [000001E7D2BB3200][000001E7CE4AC480 49] iPadMini2, [000001E7D2BFEB00][000001E7CE4B0600 49] iPadMini3, [000001E7D2BB0F00][000001E7CE4B4780 49] iPadMini4, [000001E7D2BFEA00][000001E7CE4B8900 49] iPadMini5, [000001E7D2BEC100][000001E7CE4C0BC0 49] iPhone6, [000001E7D2BEC600][000001E7CE4BCC00 49] iPodTouch6, [000001E7D2BB0800][000001E7CE4C8EC0 49] iPhone7, [000001E7D2BB0900][000001E7CE4C4F00 49] iPodTouch7, [000001E7D2BEE800][000001E7CEBAF080 49] iPhone5S, [000001E7D2BB0500][000001E7CE48D1C0 49] iPhone6Plus, [000001E7D2BEDF00][000001E7CEBB3300 49] iPhone6S, [000001E7D2BB2900][000001E7CEBB7440 49] iPhone6SPlus, [000001E7D2BECF00][000001E7CEBBB580 49] iPhone7Plus, [000001E7D2BB0C00][000001E7CEBC3700 49] iPhoneSE, [000001E7D2BEF000][000001E7CEBC7880 49] iPhone8, [000001E7D2BB1100][000001E7CEBCBA00 49] iPhone8Plus, [000001E7D2BEEA00][000001E7CEBCFB80 49] iPhoneX, [000001E7D2BB2200][000001E7CEBD3D00 49] iPhoneXS, [000001E7D2BEF100][000001E7CEBD61C0 49] iPhoneXSMax, [000001E7D2BB2B00][000001E7CEBDA340 49] iPhoneXR, [000001E7D2BEE600][000001E7CEBDE4C0 49] iPhone11, [000001E7D2BB2800][000001E7CEBE2640 49] iPhone11Pro, [000001E7D2BEDC00][000001E7CEBE67C0 49] iPhone11ProMax, [000001E7D2BB3700][000001E7CEBEA940 49] iPhoneSE2, [000001E7D2BED600][000001E7CEBEEAC0 49] iPhone12Mini, [000001E7D2BB3B00][000001E7CEBF2C40 49] iPhone12, [000001E7D2BEF200][000001E7CEBF6DC0 49] iPhone12Pro, [000001E7D2BB3F00][000001E7CEBFAF40 49] iPhone12ProMax, [000001E7D2BEE700][000001E7CEBFF0C0 49] iPadPro105, [000001E7D2BB3500][000001E7CEC03240 49] iPadPro129, [000001E7D2C6C600][000001E7CEBBF380 49] iPadPro97, [000001E7D2BB0300][000001E7CEC074C0 49] iPadPro2_129, [000001E7D2C6D400][000001E7CEC0B600 49] iPad5, [000001E7D2BB0E00][000001E7CEC13780 49] iPad6, [000001E7D2C6D900][000001E7CEC17900 49] iPad7, [000001E7D2BB3C00][000001E7CEC1BA80 49] iPad8, [000001E7D2C6C400][000001E7CEC1FC00 49] iPadPro11, [000001E7D2BB0B00][000001E7CE8860C0 49] iPadPro2_11, [000001E7D2C6D300][000001E7CE88A240 49] iPadPro3_129, [000001E7D2BB3E00][000001E7CE88E3C0 49] iPadPro4_129, [000001E7D2C6DD00][000001E7CE892540 49] AppleTV, [000001E7D2BB0D00][000001E7CE8966C0 49] AppleTV4K, [000001E7D2C6D100][000001E7CE89A840 49] TVOS, [000001E7D2BB2400][000001E7CE89E9C0 49] Mac, [000001E7D2C6CA00][000001E7CE8A2B40 49] MacClient, [000001E7D2BB1D00][000001E7CE8A6CC0 49] MacNoEditor, [000001E7D2C6CE00][000001E7CE8AAE40 49] MacServer, [000001E7D2BB1000][000001E7CE8AEFC0 49] Linux, [000001E7D2C6CC00][000001E7CE8B3140 49] LinuxNoEditor, [000001E7D2BB1300][000001E7CE8B72C0 49] LinuxAArch64NoEditor, [000001E7D2C6CF00][000001E7CEC0F400 49] LinuxClient, [000001E7D2BB1500][000001E7CE8BB540 49] LinuxAArch64Client, [000001E7D2C6D600][000001E7CE8BF680 49] LinuxServer, [000001E7D2BB2E00][000001E7CE8C37C0 49] LinuxAArch64Server, [000001E7D2C6DB00][000001E7CE8CB940 49] Android, [000001E7D2BB2500][000001E7CE8CFAC0 49] Android_Low, [000001E7D2C6DE00][000001E7CE8D3C40 49] Android_Mid, [000001E7D2BB0600][000001E7CE8D6100 49] Android_High, [000001E7D2C6DC00][000001E7CE8DA280 49] Android_Default, [000001E7D2BFD700][000001E7CE8DE400 49] Android_Adreno4xx, [000001E7D2BED500][000001E7CE8E2580 49] Android_Adreno5xx_Low, [000001E7D2BFF700][000001E7CE8E6700 49] Android_Adreno5xx, [000001E7D2BED200][000001E7CE8EA880 49] Android_Adreno6xx, [000001E7D2BFD100][000001E7CE8EEA00 49] Android_Adreno6xx_Vulkan, [000001E7D2BEE300][000001E7CE8F2B80 49] Android_Mali_T6xx, [000001E7D2BFCA00][000001E7CE8F6D00 49] Android_Mali_T7xx, [000001E7D2BECD00][000001E7CE8FAE80 49] Android_Mali_T8xx, [000001E7D2BFFF00][000001E7CE8FF000 49] Android_Mali_G71, [000001E7D2BEE000][000001E7CE903180 49] Android_Mali_G72, [000001E7D2BFE600][000001E7CE907300 49] Android_Mali_G72_Vulkan, [000001E7D2BEF500][000001E7CE8C7440 49] Android_Mali_G76, [000001E7D2BFFE00][000001E7CE90B580 49] Android_Mali_G76_Vulkan, [000001E7D2BED700][000001E7CE90F6C0 49] Android_Mali_G77, [000001E7D2BFC500][000001E7CE913800 49] Android_Mali_G77_Vulkan, [000001E7D2BEEE00][000001E7CE91B980 49] Android_Vulkan_SM5, [000001E7D2BFC600][000001E7CE91FB00 49] Android_PowerVR_G6xxx, [000001E7D2BED800][000001E7CE923C80 49] Android_PowerVR_GT7xxx, [000001E7D2BFFD00][000001E7CE926140 49] Android_PowerVR_GE8xxx, [000001E7D2BEFD00][000001E7CE92A2C0 49] Android_PowerVR_GM9xxx, [000001E7D2BFE400][000001E7CE92E440 49] Android_PowerVR_GM9xxx_Vulkan, [000001E7D2BEC500][000001E7CE9325C0 49] Android_TegraK1, [000001E7D2BFE100][000001E7CE936740 49] Android_Unknown_Vulkan, [000001E7D2BEE400][000001E7CE93A8C0 49] Lumin, [000001E7D2BFC200][000001E7CE93EA40 49] Lumin_Desktop, [000001E7D2BEFA00][000001E7CE942BC0 49] HoloLens, 
[2021.02.28-16.54.45:552][  0]LogMeshReduction: Using QuadricMeshReduction for automatic static mesh reduction
[2021.02.28-16.54.45:552][  0]LogMeshReduction: Using SimplygonMeshReduction for automatic skeletal mesh reduction
[2021.02.28-16.54.45:552][  0]LogMeshReduction: Using ProxyLODMeshReduction for automatic mesh merging
[2021.02.28-16.54.45:552][  0]LogMeshReduction: No distributed automatic mesh merging module available
[2021.02.28-16.54.45:552][  0]LogMeshMerging: No distributed automatic mesh merging module available
[2021.02.28-16.54.45:662][  0]LogNetVersion: RaceGame 1.0.0, NetCL: 14830424, EngineNetVer: 16, GameNetVer: 0 (Checksum: 3636571145)
[2021.02.28-16.54.46:011][  0]LogHMD: PokeAHoleMaterial loaded successfully
[2021.02.28-16.54.46:119][  0]LogMoviePlayer: Initializing movie player
[2021.02.28-16.54.46:315][  0]LogTcpMessaging: Initializing TcpMessaging bridge
[2021.02.28-16.54.46:319][  0]LogUdpMessaging: Initializing bridge on interface 0.0.0.0:0 to multicast group 230.0.0.1:6666.
[2021.02.28-16.54.46:356][  0]SourceControl: Source control is disabled
[2021.02.28-16.54.46:356][  0]SourceControl: Source control is disabled
[2021.02.28-16.54.46:358][  0]SourceControl: Source control is disabled
[2021.02.28-16.54.46:363][  0]LogUProjectInfo: Found projects:
[2021.02.28-16.54.46:452][  0]LogAndroidPermission: UAndroidPermissionCallbackProxy::GetInstance
[2021.02.28-16.54.46:467][  0]LogAudioCaptureCore: Display: No Audio Capture implementations found. Audio input will be silent.
[2021.02.28-16.54.46:467][  0]LogAudioCaptureCore: Display: No Audio Capture implementations found. Audio input will be silent.
[2021.02.28-16.54.46:505][  0]LogOcInput: OculusInput pre-init called
[2021.02.28-16.54.46:512][  0]LogUObjectArray: 20223 objects as part of root set at end of initial load.
[2021.02.28-16.54.46:512][  0]LogUObjectAllocator: 5385920 out of 0 bytes used by permanent object pool.
[2021.02.28-16.54.46:512][  0]LogUObjectArray: CloseDisregardForGC: 0/0 objects in disregard for GC pool
[2021.02.28-16.54.46:546][  0]LogEngine: Initializing Engine...
[2021.02.28-16.54.46:547][  0]LogHMD: Failed to initialize OpenVR with code 110
[2021.02.28-16.54.46:547][  0]LogMagicLeap: Warning: VR disabled because ZI is not enabled.  To enable, in the editor, Edit -> Project Settings -> Plugins -> Magic Leap Plugin -> Enable Zero Iteration
[2021.02.28-16.54.46:548][  0]LogStats: UGameplayTagsManager::InitializeManager -  0.000 s
[2021.02.28-16.54.46:636][  0]LogInit: Initializing FReadOnlyCVARCache
[2021.02.28-16.54.46:636][  0]LogAudio: Display: Initializing Audio Device Manager...
[2021.02.28-16.54.46:640][  0]LogAudio: Display: Audio Device Manager Initialized
[2021.02.28-16.54.46:640][  0]LogAudio: Display: Creating Audio Device:                 Id: 1, Scope: Shared, Realtime: True
[2021.02.28-16.54.46:640][  0]LogAudioMixer: Display: Audio Mixer Platform Settings:
[2021.02.28-16.54.46:640][  0]LogAudioMixer: Display: 	Sample Rate:						  48000
[2021.02.28-16.54.46:640][  0]LogAudioMixer: Display: 	Callback Buffer Frame Size Requested: 1024
[2021.02.28-16.54.46:640][  0]LogAudioMixer: Display: 	Callback Buffer Frame Size To Use:	  1024
[2021.02.28-16.54.46:640][  0]LogAudioMixer: Display: 	Number of buffers to queue:			  2
[2021.02.28-16.54.46:640][  0]LogAudioMixer: Display: 	Max Channels (voices):				  32
[2021.02.28-16.54.46:640][  0]LogAudioMixer: Display: 	Number of Async Source Workers:		  0
[2021.02.28-16.54.46:640][  0]LogAudio: Display: AudioDevice MaxSources: 32
[2021.02.28-16.54.46:640][  0]LogAudio: Display: Using built-in audio occlusion.
[2021.02.28-16.54.46:640][  0]LogAudioMixer: Display: Initializing audio mixer.
[2021.02.28-16.54.46:653][  0]LogAudioMixer: Display: 0: FrontLeft
[2021.02.28-16.54.46:653][  0]LogAudioMixer: Display: 1: FrontRight
[2021.02.28-16.54.46:653][  0]LogAudioMixer: Display: 2: FrontCenter
[2021.02.28-16.54.46:653][  0]LogAudioMixer: Display: 3: LowFrequency
[2021.02.28-16.54.46:653][  0]LogAudioMixer: Display: 4: BackLeft
[2021.02.28-16.54.46:653][  0]LogAudioMixer: Display: 5: BackRight
[2021.02.28-16.54.46:677][  0]LogAudioMixer: Display: Using Audio Device Динамики (Sound Blaster ZxR)
[2021.02.28-16.54.46:683][  0]LogAudioMixer: Display: Initializing Sound Submixes...
[2021.02.28-16.54.46:684][  0]LogAudioMixer: Display: Creating Master Submix 'MasterSubmixDefault'
[2021.02.28-16.54.46:684][  0]LogAudioMixer: Display: Creating Master Submix 'MasterReverbSubmixDefault'
[2021.02.28-16.54.46:685][  0]LogAudioMixer: Display: Creating Master Submix 'MasterEQSubmixDefault'
[2021.02.28-16.54.46:685][  0]LogAudioMixer: FMixerPlatformXAudio2::StartAudioStream() called
[2021.02.28-16.54.46:685][  0]LogAudioMixer: Display: Output buffers initialized: Frames=1024, Channels=6, Samples=6144
[2021.02.28-16.54.46:686][  0]LogAudioMixer: Display: Starting AudioMixerPlatformInterface::RunInternal()
[2021.02.28-16.54.46:686][  0]LogAudioMixer: Display: FMixerPlatformXAudio2::SubmitBuffer() called for the first time
[2021.02.28-16.54.46:686][  0]LogInit: FAudioDevice initialized.
[2021.02.28-16.54.46:687][  0]LogNetVersion: Set ProjectVersion to 1.0.0.0. Version Checksum will be recalculated on next use.
[2021.02.28-16.54.46:689][  0]LogInit: Texture streaming: Enabled
[2021.02.28-16.54.46:737][  0]LogAudio: Display: Audio Device (ID: 1) registered with world 'Untitled'.
[2021.02.28-16.54.46:738][  0]LogSlate: Updating window title bar state: overlay mode, drag disabled, window buttons hidden, title bar hidden
[2021.02.28-16.54.46:738][  0]LogInit: Display: Game Engine Initialized.
[2021.02.28-16.54.46:739][  0]LogNiagaraEditor: GEditor isn't valid! Particle reset commands will not work for Niagara components!
[2021.02.28-16.54.46:802][  0]LogInit: Display: Starting Game.
[2021.02.28-16.54.46:802][  0]LogNet: Browse: /Game/StarterContent/Blueprints/Maps/MainMenu?Name=Player
[2021.02.28-16.54.46:802][  0]LogLoad: LoadMap: /Game/StarterContent/Blueprints/Maps/MainMenu?Name=Player
[2021.02.28-16.54.46:802][  0]LogWorld: BeginTearingDown for /Temp/Untitled_0
[2021.02.28-16.54.46:803][  0]LogWorld: UWorld::CleanupWorld for Untitled, bSessionEnded=true, bCleanupResources=true
[2021.02.28-16.54.46:803][  0]LogSlate: InvalidateAllWidgets triggered.  All widgets were invalidated
[2021.02.28-16.54.46:808][  0]LogAudio: Display: Audio Device unregistered from world 'None'.
[2021.02.28-16.54.46:810][  0]LogUObjectHash: Compacting FUObjectHashTables data took   0.55ms
[2021.02.28-16.54.46:846][  0]LogAudio: Display: Audio Device (ID: 1) registered with world 'MainMenu'.
[2021.02.28-16.54.46:852][  0]LogAIModule: Creating AISystem for world MainMenu
[2021.02.28-16.54.46:854][  0]LogLoad: Game class is 'level1_C'
[2021.02.28-16.54.46:855][  0]LogWorld: Bringing World /Game/StarterContent/Blueprints/Maps/MainMenu.MainMenu up for play (max tick rate 0) at 2021.02.28-19.54.46
[2021.02.28-16.54.46:855][  0]LogWorld: Bringing up level for play took: 0.000439
[2021.02.28-16.54.46:856][  0]LogGameMode: FindPlayerStart: PATHS NOT DEFINED or NO PLAYERSTART with positive rating
[2021.02.28-16.54.46:856][  0]LogGameMode: Display: Match State Changed from EnteringMap to WaitingToStart
[2021.02.28-16.54.46:856][  0]LogGameState: Match State Changed from EnteringMap to WaitingToStart
[2021.02.28-16.54.46:856][  0]LogGameMode: Display: Match State Changed from WaitingToStart to InProgress
[2021.02.28-16.54.46:858][  0]LogPlayerController: Error: InputMode:UIOnly - Attempting to focus Non-Focusable widget SObjectWidget [Widget.cpp(799)]!
[2021.02.28-16.54.46:858][  0]LogViewport: Display: Viewport MouseLockMode Changed, LockOnCapture -> DoNotLock
[2021.02.28-16.54.46:858][  0]LogViewport: Display: Viewport MouseCaptureMode Changed, CapturePermanently_IncludingInitialMouseDown -> NoCapture
[2021.02.28-16.54.46:858][  0]LogGameState: Match State Changed from WaitingToStart to InProgress
[2021.02.28-16.54.46:858][  0]LogLoad: Took 0.056495 seconds to LoadMap(/Game/StarterContent/Blueprints/Maps/MainMenu)
[2021.02.28-16.54.46:985][  0]LogRenderer: Reallocating scene render targets to support 1280x720 Format 10 NumSamples 1 (Frame:1).
[2021.02.28-16.54.46:985][  0]LogInit: Display: Engine is initialized. Leaving FEngineLoop::Init()
[2021.02.28-16.54.46:985][  0]LogLoad: (Engine Initialization) Total time: 5.05 seconds
[2021.02.28-16.54.46:985][  0]LogLoad: (Engine Initialization) Total Blueprint compile time: 0.00 seconds
[2021.02.28-16.54.46:985][  0]LogInit: First time updating LLM stats...
[2021.02.28-16.54.46:987][  0]LogContentStreaming: Texture pool size now 1000 MB
[2021.02.28-16.54.46:992][  0]LogSlate: InvalidateAllWidgets triggered.  All widgets were invalidated
[2021.02.28-16.54.51:114][ 32]LogPackageName: SearchForPackageOnDisk took   0.085s to resolve LevelSelect.umap.
[2021.02.28-16.54.51:115][ 32]LogGameMode: Display: Match State Changed from InProgress to LeavingMap
[2021.02.28-16.54.51:115][ 32]LogGameState: Match State Changed from InProgress to LeavingMap
[2021.02.28-16.54.51:201][ 32]LogPackageName: SearchForPackageOnDisk took   0.085s to resolve LevelSelect.umap.
[2021.02.28-16.54.51:201][ 32]LogNet: Browse: /Game/StarterContent/Blueprints/Maps/LevelSelect?Name=Player
[2021.02.28-16.54.51:201][ 32]LogLoad: LoadMap: /Game/StarterContent/Blueprints/Maps/LevelSelect?Name=Player
[2021.02.28-16.54.51:201][ 32]LogWorld: BeginTearingDown for /Game/StarterContent/Blueprints/Maps/MainMenu
[2021.02.28-16.54.51:201][ 32]LogWorld: UWorld::CleanupWorld for MainMenu, bSessionEnded=true, bCleanupResources=true
[2021.02.28-16.54.51:201][ 32]LogSlate: InvalidateAllWidgets triggered.  All widgets were invalidated
[2021.02.28-16.54.51:231][ 32]LogAudio: Display: Audio Device unregistered from world 'None'.
[2021.02.28-16.54.51:233][ 32]LogUObjectHash: Compacting FUObjectHashTables data took   0.57ms
[2021.02.28-16.54.51:247][ 32]LogAudio: Display: Audio Device (ID: 1) registered with world 'LevelSelect'.
[2021.02.28-16.54.51:247][ 32]LogAIModule: Creating AISystem for world LevelSelect
[2021.02.28-16.54.51:247][ 32]LogLoad: Game class is 'level1_C'
[2021.02.28-16.54.51:248][ 32]LogWorld: Bringing World /Game/StarterContent/Blueprints/Maps/LevelSelect.LevelSelect up for play (max tick rate 0) at 2021.02.28-19.54.51
[2021.02.28-16.54.51:249][ 32]LogWorld: Bringing up level for play took: 0.000465
[2021.02.28-16.54.51:249][ 32]LogGameMode: FindPlayerStart: PATHS NOT DEFINED or NO PLAYERSTART with positive rating
[2021.02.28-16.54.51:249][ 32]LogGameMode: Display: Match State Changed from EnteringMap to WaitingToStart
[2021.02.28-16.54.51:249][ 32]LogGameState: Match State Changed from EnteringMap to WaitingToStart
[2021.02.28-16.54.51:249][ 32]LogGameMode: Display: Match State Changed from WaitingToStart to InProgress
[2021.02.28-16.54.51:250][ 32]LogGameState: Match State Changed from WaitingToStart to InProgress
[2021.02.28-16.54.51:250][ 32]LogLoad: Took 0.048929 seconds to LoadMap(/Game/StarterContent/Blueprints/Maps/LevelSelect)
[2021.02.28-16.54.55:526][235]LogPackageName: SearchForPackageOnDisk took   0.088s to resolve Level1.umap.
[2021.02.28-16.54.55:526][235]LogGameMode: Display: Match State Changed from InProgress to LeavingMap
[2021.02.28-16.54.55:526][235]LogGameState: Match State Changed from InProgress to LeavingMap
[2021.02.28-16.54.55:614][235]LogPackageName: SearchForPackageOnDisk took   0.088s to resolve Level1.umap.
[2021.02.28-16.54.55:614][235]LogNet: Browse: /Game/StarterContent/Blueprints/Maps/Level1
[2021.02.28-16.54.55:614][235]LogLoad: LoadMap: /Game/StarterContent/Blueprints/Maps/Level1
[2021.02.28-16.54.55:614][235]LogWorld: BeginTearingDown for /Game/StarterContent/Blueprints/Maps/LevelSelect
[2021.02.28-16.54.55:614][235]LogWorld: UWorld::CleanupWorld for LevelSelect, bSessionEnded=true, bCleanupResources=true
[2021.02.28-16.54.55:614][235]LogSlate: InvalidateAllWidgets triggered.  All widgets were invalidated
[2021.02.28-16.54.55:642][235]LogAudio: Display: Audio Device unregistered from world 'None'.
[2021.02.28-16.54.55:643][235]LogUObjectHash: Compacting FUObjectHashTables data took   0.43ms
[2021.02.28-16.54.56:042][235]LogAudio: Display: Audio Device (ID: 1) registered with world 'Level1'.
[2021.02.28-16.54.56:043][235]LogAIModule: Creating AISystem for world Level1
[2021.02.28-16.54.56:043][235]LogLoad: Game class is 'level1_C'
[2021.02.28-16.54.56:067][235]LogWorld: Bringing World /Game/StarterContent/Blueprints/Maps/Level1.Level1 up for play (max tick rate 0) at 2021.02.28-19.54.56
[2021.02.28-16.54.56:067][235]LogWorld: Bringing up level for play took: 0.023425
[2021.02.28-16.54.56:068][235]LogGameMode: FindPlayerStart: PATHS NOT DEFINED or NO PLAYERSTART with positive rating
[2021.02.28-16.54.56:068][235]LogGameMode: Display: Match State Changed from EnteringMap to WaitingToStart
[2021.02.28-16.54.56:068][235]LogGameState: Match State Changed from EnteringMap to WaitingToStart
[2021.02.28-16.54.56:068][235]LogGameMode: Display: Match State Changed from WaitingToStart to InProgress
[2021.02.28-16.54.56:069][235]LogViewport: Display: Viewport MouseLockMode Changed, DoNotLock -> LockOnCapture
[2021.02.28-16.54.56:069][235]LogViewport: Display: Viewport MouseCaptureMode Changed, NoCapture -> CapturePermanently
[2021.02.28-16.54.56:070][235]LogGameState: Match State Changed from WaitingToStart to InProgress
[2021.02.28-16.54.56:070][235]LogLoad: Took 0.455709 seconds to LoadMap(/Game/StarterContent/Blueprints/Maps/Level1)
[2021.02.28-16.54.56:070][235]LogSlate: Took 0.000160 seconds to synchronously load lazily loaded font '../../../Engine/Content/Slate/Fonts/Roboto-Regular.ttf' (155K)
[2021.02.28-16.55.17:235][292]LogSlate: Updating window title bar state: overlay mode, drag disabled, window buttons hidden, title bar hidden
[2021.02.28-16.55.28:007][ 64]LogGameMode: Display: Match State Changed from InProgress to LeavingMap
[2021.02.28-16.55.28:007][ 64]LogGameState: Match State Changed from InProgress to LeavingMap
[2021.02.28-16.55.28:007][ 64]LogNet: Browse: /Game/StarterContent/Blueprints/Maps/MainMenu
[2021.02.28-16.55.28:007][ 64]LogLoad: LoadMap: /Game/StarterContent/Blueprints/Maps/MainMenu
[2021.02.28-16.55.28:007][ 64]LogWorld: BeginTearingDown for /Game/StarterContent/Blueprints/Maps/Level1
[2021.02.28-16.55.28:007][ 64]LogStreaming: Display: FlushAsyncLoading: 1 QueuedPackages, 0 AsyncPackages
[2021.02.28-16.55.28:045][ 64]LogOutputDevice: Warning: 

Script Stack (2 frames):
MainMenu_C.ExecuteUbergraph_MainMenu
MainMenu_C.ReceiveBeginPlay

[2021.02.28-16.55.28:635][ 64]LogStats: FPlatformStackWalk::StackWalkAndDump -  0.590 s
[2021.02.28-16.55.28:635][ 64]LogOutputDevice: Error: === Handled ensure: ===
[2021.02.28-16.55.28:635][ 64]LogOutputDevice: Error: 
[2021.02.28-16.55.28:635][ 64]LogOutputDevice: Error: Ensure condition failed: !World->bIsTearingDown [File:D:/Build/++UE4/Sync/Engine/Source/Runtime/UMG/Private/UserWidget.cpp] [Line: 1961]
[2021.02.28-16.55.28:635][ 64]LogOutputDevice: Error: Widget Class MainMenu_C - Attempting to be created while tearing down the world 'Level1'
[2021.02.28-16.55.28:635][ 64]LogOutputDevice: Error: Stack: 
[2021.02.28-16.55.28:635][ 64]LogOutputDevice: Error: [Callstack] 0x00007ff98099c3b5 UE4Editor-UMG.dll!UnknownFunction []
[2021.02.28-16.55.28:635][ 64]LogOutputDevice: Error: [Callstack] 0x00007ff98083b902 UE4Editor-UMG.dll!UnknownFunction []
[2021.02.28-16.55.28:635][ 64]LogOutputDevice: Error: [Callstack] 0x00007ff98079d65b UE4Editor-UMG.dll!UnknownFunction []
[2021.02.28-16.55.28:635][ 64]LogOutputDevice: Error: [Callstack] 0x00007ff9808366a5 UE4Editor-UMG.dll!UnknownFunction []
[2021.02.28-16.55.28:635][ 64]LogOutputDevice: Error: [Callstack] 0x00007ff9809410cc UE4Editor-UMG.dll!UnknownFunction []
[2021.02.28-16.55.28:635][ 64]LogOutputDevice: Error: [Callstack] 0x00007ff96d9726a4 UE4Editor-CoreUObject.dll!UnknownFunction []
[2021.02.28-16.55.28:635][ 64]LogOutputDevice: Error: [Callstack] 0x00007ff96dbe8207 UE4Editor-CoreUObject.dll!UnknownFunction []
[2021.02.28-16.55.28:635][ 64]LogOutputDevice: Error: [Callstack] 0x00007ff96dbff843 UE4Editor-CoreUObject.dll!UnknownFunction []
[2021.02.28-16.55.28:635][ 64]LogOutputDevice: Error: [Callstack] 0x00007ff96dc2d57f UE4Editor-CoreUObject.dll!UnknownFunction []
[2021.02.28-16.55.28:635][ 64]LogOutputDevice: Error: [Callstack] 0x00007ff96dc0238d UE4Editor-CoreUObject.dll!UnknownFunction []
[2021.02.28-16.55.28:635][ 64]LogOutputDevice: Error: [Callstack] 0x00007ff96dbd6bfa UE4Editor-CoreUObject.dll!UnknownFunction []
[2021.02.28-16.55.28:635][ 64]LogOutputDevice: Error: [Callstack] 0x00007ff96dc01f84 UE4Editor-CoreUObject.dll!UnknownFunction []
[2021.02.28-16.55.28:635][ 64]LogOutputDevice: Error: [Callstack] 0x00007ff96dc0238d UE4Editor-CoreUObject.dll!UnknownFunction []
[2021.02.28-16.55.28:635][ 64]LogOutputDevice: Error: [Callstack] 0x00007ff96dc01794 UE4Editor-CoreUObject.dll!UnknownFunction []
[2021.02.28-16.55.28:635][ 64]LogOutputDevice: Error: [Callstack] 0x00007ff96d9726a4 UE4Editor-CoreUObject.dll!UnknownFunction []
[2021.02.28-16.55.28:635][ 64]LogOutputDevice: Error: [Callstack] 0x00007ff96dc00ef3 UE4Editor-CoreUObject.dll!UnknownFunction []
[2021.02.28-16.55.28:635][ 64]LogOutputDevice: Error: [Callstack] 0x00007ff9622dc125 UE4Editor-Engine.dll!UnknownFunction []
[2021.02.28-16.55.28:635][ 64]LogOutputDevice: Error: [Callstack] 0x00007ff9622aacc7 UE4Editor-Engine.dll!UnknownFunction []
[2021.02.28-16.55.28:635][ 64]LogOutputDevice: Error: [Callstack] 0x00007ff9622b410c UE4Editor-Engine.dll!UnknownFunction []
[2021.02.28-16.55.28:635][ 64]LogOutputDevice: Error: [Callstack] 0x00007ff962be86ef UE4Editor-Engine.dll!UnknownFunction []
[2021.02.28-16.55.28:635][ 64]LogOutputDevice: Error: [Callstack] 0x00007ff9636288ed UE4Editor-Engine.dll!UnknownFunction []
[2021.02.28-16.55.28:635][ 64]LogOutputDevice: Error: [Callstack] 0x00007ff962bf9209 UE4Editor-Engine.dll!UnknownFunction []
[2021.02.28-16.55.28:635][ 64]LogOutputDevice: Error: [Callstack] 0x00007ff96367cd68 UE4Editor-Engine.dll!UnknownFunction []
[2021.02.28-16.55.28:635][ 64]LogOutputDevice: Error: [Callstack] 0x00007ff963644ec2 UE4Editor-Engine.dll!UnknownFunction []
[2021.02.28-16.55.28:635][ 64]LogOutputDevice: Error: [Callstack] 0x00007ff963553b16 UE4Editor-Engine.dll!UnknownFunction []
[2021.02.28-16.55.28:635][ 64]LogOutputDevice: Error: [Callstack] 0x00007ff963500f52 UE4Editor-Engine.dll!UnknownFunction []
[2021.02.28-16.55.28:635][ 64]LogOutputDevice: Error: [Callstack] 0x00007ff9635731ed UE4Editor-Engine.dll!UnknownFunction []
[2021.02.28-16.55.28:635][ 64]LogOutputDevice: Error: [Callstack] 0x00007ff9629c693d UE4Editor-Engine.dll!UnknownFunction []
[2021.02.28-16.55.28:635][ 64]LogOutputDevice: Error: [Callstack] 0x00007ff7069f9bda UE4Editor.exe!UnknownFunction []
[2021.02.28-16.55.28:635][ 64]LogOutputDevice: Error: [Callstack] 0x00007ff706a111ac UE4Editor.exe!UnknownFunction []
[2021.02.28-16.55.28:635][ 64]LogOutputDevice: Error: [Callstack] 0x00007ff706a1128a UE4Editor.exe!UnknownFunction []
[2021.02.28-16.55.28:636][ 64]LogOutputDevice: Error: [Callstack] 0x00007ff706a252ed UE4Editor.exe!UnknownFunction []
[2021.02.28-16.55.28:636][ 64]LogOutputDevice: Error: [Callstack] 0x00007ff706a2801a UE4Editor.exe!UnknownFunction []
[2021.02.28-16.55.28:636][ 64]LogOutputDevice: Error: [Callstack] 0x00007ff9c4be7034 KERNEL32.DLL!UnknownFunction []
[2021.02.28-16.55.28:636][ 64]LogOutputDevice: Error: [Callstack] 0x00007ff9c4f7d241 ntdll.dll!UnknownFunction []
[2021.02.28-16.55.28:636][ 64]LogOutputDevice: Error: 
